000001,88.80,pedestrian,0,0.09583333,0.33333334,0.079166666,0.28333333
000001,88.80,pedestrian,0,0.88645834,0.4074074,0.075,0.26666668
000001,88.80,pedestrian,0,0.032291666,0.48333332,0.083333336,0.2962963
000001,88.80,pedestrian,0,0.17083333,0.34444445,0.090625,0.32222223
000001,88.80,pedestrian,0,0.70208335,0.4925926,0.090625,0.32037038
000002,69.06,pedestrian,0,0.25833333,0.10925926,0.06979167,0.24814814
000002,69.06,pedestrian,0,0.87916666,0.3962963,0.075,0.26666668
000002,69.06,pedestrian,0,0.033333335,0.48518518,0.08125,0.28703704
000002,69.06,pedestrian,0,0.521875,0.12962963,0.075,0.2685185
000002,69.06,pedestrian,0,0.18020834,0.3351852,0.08125,0.2888889
000002,69.06,pedestrian,0,0.70104164,0.4888889,0.08958333,0.31851852
000003,68.71,pedestrian,0,0.24583334,0.11481482,0.071875,0.25555557
000003,68.71,pedestrian,0,0.08125,0.3074074,0.07604167,0.27037036
000003,68.71,pedestrian,0,0.87916666,0.3962963,0.07604167,0.27037036
000003,68.71,pedestrian,0,0.03125,0.47962964,0.084375,0.3
000003,68.71,pedestrian,0,0.18020834,0.31851852,0.08125,0.2888889
000003,68.71,pedestrian,0,0.703125,0.49814814,0.08645833,0.3074074
000003,68.71,pedestrian,0,0.69166666,0.11296296,0.09375,0.33333334
000004,69.44,pedestrian,0,0.43229166,0.10555556,0.07083333,0.2537037
000004,69.44,pedestrian,0,0.51354164,0.11296296,0.072916664,0.25925925
000004,69.44,pedestrian,0,0.24270834,0.12222222,0.072916664,0.25925925
000004,69.44,pedestrian,0,0.18541667,0.30925927,0.079166666,0.28148147
000004,69.44,pedestrian,0,0.87916666,0.3962963,0.077083334,0.27222222
000004,69.44,pedestrian,0,0.032291666,0.4814815,0.08229167,0.29259259
000004,69.44,pedestrian,0,0.15416667,0.02962963,0.077083334,0.27407408
000004,69.44,pedestrian,0,0.70104164,0.4888889,0.08958333,0.31851852
000005,68.14,pedestrian,0,0.5072917,0.12407407,0.06979167,0.24814814
000005,68.14,pedestrian,0,0.24270834,0.13703704,0.072916664,0.2574074
000005,68.14,pedestrian,0,0.7427083,0.16481481,0.06979167,0.24814814
000005,68.14,pedestrian,0,0.18958333,0.29259259,0.08125,0.2888889
000005,68.14,pedestrian,0,0.87916666,0.3962963,0.07604167,0.27037036
000005,68.14,pedestrian,0,0.032291666,0.48333332,0.08125,0.2888889
000005,68.14,pedestrian,0,0.15729167,0.025925925,0.079166666,0.27962962
000005,68.14,pedestrian,0,0.7,0.49074075,0.088541664,0.3148148
000006,69.71,pedestrian,0,0.49895832,0.1388889,0.06875,0.2462963
000006,69.71,pedestrian,0,0.24375,0.15,0.06979167,0.24814814
000006,69.71,pedestrian,0,0.19375,0.28333333,0.08020833,0.28333333
000006,69.71,pedestrian,0,0.87916666,0.3962963,0.07604167,0.27037036
000006,69.71,pedestrian,0,0.032291666,0.48333332,0.08125,0.29074073
000006,69.71,pedestrian,0,0.15625,0.025925925,0.078125,0.2777778
000006,69.71,pedestrian,0,0.70208335,0.49814814,0.08541667,0.30555555
000007,68.48,pedestrian,0,0.48958334,0.14444445,0.072916664,0.25925925
000007,68.48,pedestrian,0,0.24583334,0.15925926,0.072916664,0.2574074
000007,68.48,pedestrian,0,0.20104167,0.26666668,0.075,0.26666668
000007,68.48,pedestrian,0,0.878125,0.3962963,0.078125,0.2777778
000007,68.48,pedestrian,0,0,0.63703704,0.06979167,0.24814814
000007,68.48,pedestrian,0,0.140625,0.05185185,0.072916664,0.2574074
000007,68.48,pedestrian,0,0.03125,0.47962964,0.084375,0.3
000007,68.48,pedestrian,0,0.70208335,0.49444443,0.0875,0.30925927
000008,67.50,pedestrian,0,0.47604167,0.14629629,0.071875,0.25555557
000008,67.50,pedestrian,0,0.24895833,0.17777778,0.071875,0.25555557
000008,67.50,pedestrian,0,0.203125,0.2537037,0.072916664,0.25925925
000008,67.50,pedestrian,0,0.878125,0.3962963,0.078125,0.2777778
000008,67.50,pedestrian,0,0.0010416667,0.60925925,0.07395833,0.26481482
000008,67.50,pedestrian,0,0.033333335,0.48333332,0.08125,0.2888889
000008,67.50,pedestrian,0,0.7,0.48333332,0.09166667,0.32592592
000009,72.79,pedestrian,0,0.46354166,0.15555556,0.071875,0.25555557
000009,72.79,pedestrian,0,0.25416666,0.18703704,0.07395833,0.2611111
000009,72.79,pedestrian,0,0.20416667,0.25,0.075,0.26666668
000009,72.79,pedestrian,0,0.878125,0.3962963,0.078125,0.2777778
000009,72.79,pedestrian,0,0.7,0.4814815,0.092708334,0.32777777
000009,72.79,pedestrian,0,0.01875,0.46296296,0.103125,0.36481482
000009,72.79,pedestrian,0,0.19270833,0.6962963,0.08125,0.2888889
000010,69.75,pedestrian,0,0.44791666,0.1574074,0.07083333,0.25185186
000010,69.75,pedestrian,0,0.25625,0.21111111,0.071875,0.2537037
000010,69.75,pedestrian,0,0.203125,0.23333333,0.07604167,0.2685185
000010,69.75,pedestrian,0,0.87916666,0.3962963,0.07604167,0.27037036
000010,69.75,pedestrian,0,0.029166667,0.47407407,0.08541667,0.30185184
000010,69.75,pedestrian,0,0.15208334,0.027777778,0.08020833,0.28333333
000010,69.75,pedestrian,0,0.6958333,0.4648148,0.09791667,0.34814814
000010,69.75,pedestrian,0,0.18645833,0.64074075,0.092708334,0.32962963
000010,69.75,pedestrian,0,0.37604168,0.087037034,0.09583333,0.34074074
000011,68.13,pedestrian,0,0.43125,0.15185185,0.07083333,0.2537037
000011,68.13,pedestrian,0,0.25520834,0.21851853,0.071875,0.25555557
000011,68.13,pedestrian,0,0.87916666,0.3962963,0.07604167,0.27037036
000011,68.13,pedestrian,0,0.03125,0.48518518,0.08229167,0.29259259
000011,68.13,pedestrian,0,0.14166667,0.048148148,0.072916664,0.25925925
000011,68.13,pedestrian,0,0.196875,0.2037037,0.079166666,0.27962962
000011,68.13,pedestrian,0,0.075,0.5407407,0.075,0.26666668
000011,68.13,pedestrian,0,0.18541667,0.61851853,0.092708334,0.32777777
000011,68.13,pedestrian,0,0.7,0.47037038,0.096875,0.3425926
000012,68.95,pedestrian,0,0.15416667,0.055555556,0.071875,0.25555557
000012,68.95,pedestrian,0,0.42708334,0.14629629,0.07083333,0.25185186
000012,68.95,pedestrian,0,0.25625,0.23518519,0.07083333,0.25185186
000012,68.95,pedestrian,0,0.87916666,0.39814815,0.077083334,0.27222222
000012,68.95,pedestrian,0,0.03125,0.48333332,0.08229167,0.29259259
000012,68.95,pedestrian,0,0.19895834,0.19259259,0.077083334,0.27407408
000012,68.95,pedestrian,0,0.08958333,0.51296294,0.08020833,0.28333333
000012,68.95,pedestrian,0,0.190625,0.587037,0.094791666,0.3351852
000012,68.95,pedestrian,0,0.703125,0.47777778,0.094791666,0.33703703
000013,67.36,pedestrian,0,0.43645832,0.12962963,0.071875,0.25555557
000013,67.36,pedestrian,0,0.196875,0.18148148,0.078125,0.27592593
000013,67.36,pedestrian,0,0.25208333,0.22962964,0.077083334,0.27407408
000013,67.36,pedestrian,0,0.878125,0.3962963,0.078125,0.2777778
000013,67.36,pedestrian,0,0.10520833,0.50185186,0.071875,0.25555557
000013,67.36,pedestrian,0,0.030208332,0.48518518,0.08125,0.29074073
000013,67.36,pedestrian,0,0.1375,0.048148148,0.07395833,0.2611111
000013,67.36,pedestrian,0,0.59479165,0.2462963,0.088541664,0.31296295
000013,67.36,pedestrian,0,0.190625,0.56296295,0.09375,0.3314815
000013,67.36,pedestrian,0,0.70416665,0.47777778,0.094791666,0.33703703
000013,67.36,pedestrian,0,0.24270834,0.11666667,0.11354167,0.40555555
000014,68.63,pedestrian,0,0.1375,0.06666667,0.06875,0.24444444
000014,68.63,pedestrian,0,0.5854167,0.1,0.077083334,0.27592593
000014,68.63,pedestrian,0,0.440625,0.10185185,0.072916664,0.25925925
000014,68.63,pedestrian,0,0.20208333,0.17222223,0.07395833,0.2611111
000014,68.63,pedestrian,0,0.296875,0.24814814,0.06979167,0.24814814
000014,68.63,pedestrian,0,0.25208333,0.23888889,0.08020833,0.28333333
000014,68.63,pedestrian,0,0.87916666,0.39814815,0.077083334,0.27222222
000014,68.63,pedestrian,0,0.020833334,0.46851853,0.09375,0.33333334
000014,68.63,pedestrian,0,0.19375,0.53518516,0.08958333,0.32037038
000014,68.63,pedestrian,0,0.70104164,0.47962964,0.09375,0.3314815
000015,68.73,pedestrian,0,0.571875,0.09259259,0.072916664,0.2574074
000015,68.73,pedestrian,0,0.45,0.107407406,0.06979167,0.2462963
000015,68.73,pedestrian,0,0.20625,0.15925926,0.072916664,0.25925925
000015,68.73,pedestrian,0,0.25,0.27037036,0.072916664,0.25925925
000015,68.73,pedestrian,0,0.38229167,0.2537037,0.071875,0.25555557
000015,68.73,pedestrian,0,0.87916666,0.39814815,0.077083334,0.27222222
000015,68.73,pedestrian,0,0.092708334,0.43333334,0.079166666,0.28333333
000015,68.73,pedestrian,0,0.18958333,0.5092593,0.08645833,0.30555555
000015,68.73,pedestrian,0,0.0375,0.5925926,0.07604167,0.2685185
000015,68.73,pedestrian,0,0.70208335,0.5,0.08645833,0.3074074
000015,68.73,pedestrian,0,0.36666667,0.075925924,0.128125,0.4537037
000016,69.34,pedestrian,0,0.45729166,0.09259259,0.07083333,0.2537037
000016,69.34,pedestrian,0,0.55625,0.08148148,0.078125,0.27592593
000016,69.34,pedestrian,0,0.20625,0.14629629,0.07395833,0.2611111
000016,69.34,pedestrian,0,0.24791667,0.2851852,0.075,0.26481482
000016,69.34,pedestrian,0,0.2875,0.28703704,0.071875,0.25555557
000016,69.34,pedestrian,0,0.87916666,0.39814815,0.077083334,0.27222222
000016,69.34,pedestrian,0,0.090625,0.43333334,0.07083333,0.25185186
000016,69.34,pedestrian,0,0.1875,0.4814815,0.08645833,0.30555555
000016,69.34,pedestrian,0,0.69895834,0.49444443,0.0875,0.31111112
000016,69.34,pedestrian,0,0.390625,0.25555557,0.075,0.26481482
000016,69.34,pedestrian,0,0.054166667,0.5962963,0.0875,0.31111112
000017,69.54,pedestrian,0,0.4625,0.074074075,0.075,0.26666668
000017,69.54,pedestrian,0,0.54270834,0.072222225,0.075,0.26666668
000017,69.54,pedestrian,0,0.240625,0.29074073,0.08020833,0.2851852
000017,69.54,pedestrian,0,0.2875,0.31111112,0.06875,0.2462963
000017,69.54,pedestrian,0,0.87916666,0.39814815,0.077083334,0.27222222
000017,69.54,pedestrian,0,0.09583333,0.4148148,0.06979167,0.24814814
000017,69.54,pedestrian,0,0.184375,0.45925927,0.08125,0.28703704
000017,69.54,pedestrian,0,0.6958333,0.48518518,0.08958333,0.31851852
000017,69.54,pedestrian,0,0.21354167,0.13148148,0.07604167,0.2685185
000017,69.54,pedestrian,0,0.039583333,0.4888889,0.08229167,0.29074073
000017,69.54,pedestrian,0,0.08020833,0.62222224,0.088541664,0.31296295
000017,69.54,pedestrian,0,0.59479165,0.25925925,0.088541664,0.31296295
000018,69.34,pedestrian,0,0.47083333,0.05925926,0.072916664,0.25925925
000018,69.34,pedestrian,0,0.53333336,0.072222225,0.07395833,0.26296297
000018,69.34,pedestrian,0,0.5708333,0.06666667,0.06979167,0.24814814
000018,69.34,pedestrian,0,0.39895833,0.3,0.071875,0.2537037
000018,69.34,pedestrian,0,0.23854166,0.32222223,0.07604167,0.2685185
000018,69.34,pedestrian,0,0.28020832,0.32777777,0.072916664,0.25925925
000018,69.34,pedestrian,0,0.87916666,0.39814815,0.077083334,0.27222222
000018,69.34,pedestrian,0,0.18541667,0.43888888,0.079166666,0.27962962
000018,69.34,pedestrian,0,0.05625,0.5,0.08020833,0.2851852
000018,69.34,pedestrian,0,0.21458334,0.11851852,0.077083334,0.27407408
000018,69.34,pedestrian,0,0.70625,0.49444443,0.08645833,0.30925927
000018,69.34,pedestrian,0,0.092708334,0.62222224,0.09375,0.3314815
000018,69.34,pedestrian,0,0.59375,0.26296297,0.08958333,0.31851852
000019,70.51,pedestrian,0,0.471875,0.046296295,0.071875,0.2537037
000019,70.51,pedestrian,0,0.5239583,0.05185185,0.075,0.26481482
000019,70.51,pedestrian,0,0.56041664,0.055555556,0.072916664,0.25925925
000019,70.51,pedestrian,0,0.221875,0.11851852,0.06979167,0.24814814
000019,70.51,pedestrian,0,0.40208334,0.31851852,0.071875,0.2574074
000019,70.51,pedestrian,0,0.23020834,0.32962963,0.078125,0.27592593
000019,70.51,pedestrian,0,0.27291667,0.3425926,0.072916664,0.25925925
000019,70.51,pedestrian,0,0.878125,0.3962963,0.078125,0.2777778
000019,70.51,pedestrian,0,0.18229167,0.4074074,0.08125,0.29074073
000019,70.51,pedestrian,0,0.077083334,0.50185186,0.08125,0.28703704
000019,70.51,pedestrian,0,0.72083336,0.50555557,0.08229167,0.29074073
000019,70.51,pedestrian,0,0.15729167,0.022222223,0.08020833,0.2851852
000019,70.51,pedestrian,0,0.11875,0.6851852,0.084375,0.29814816
000019,70.51,pedestrian,0,0.59375,0.25925925,0.088541664,0.31296295
000019,70.51,pedestrian,0,0.110416666,0.6111111,0.096875,0.34444445
000020,71.28,pedestrian,0,0.7447917,0,0.067708336,0.24074075
000020,71.28,pedestrian,0,0.47291666,0.03888889,0.06979167,0.24814814
000020,71.28,pedestrian,0,0.546875,0.05,0.07083333,0.25185186
000020,71.28,pedestrian,0,0.5104167,0.05185185,0.072916664,0.2611111
000020,71.28,pedestrian,0,0.22395833,0.1037037,0.06979167,0.24814814
000020,71.28,pedestrian,0,0.42083332,0.33333334,0.072916664,0.25925925
000020,71.28,pedestrian,0,0.22083333,0.3462963,0.078125,0.2777778
000020,71.28,pedestrian,0,0.26354167,0.35925925,0.075,0.26666668
000020,71.28,pedestrian,0,0.18333334,0.38333333,0.083333336,0.2962963
000020,71.28,pedestrian,0,0.87708336,0.39444444,0.078125,0.2777778
000020,71.28,pedestrian,0,0.140625,0.6481481,0.084375,0.3
000020,71.28,pedestrian,0,0.7416667,0.51296294,0.08229167,0.29259259
000020,71.28,pedestrian,0,0.59375,0.26296297,0.08958333,0.31851852
000021,69.85,pedestrian,0,0.46770832,0.018518519,0.07083333,0.25185186
000021,69.85,pedestrian,0,0.50208336,0.04074074,0.078125,0.27592593
000021,69.85,pedestrian,0,0.5375,0.046296295,0.072916664,0.2611111
000021,69.85,pedestrian,0,0.44583333,0.35740742,0.06979167,0.24814814
000021,69.85,pedestrian,0,0.18229167,0.35555556,0.083333336,0.2962963
000021,69.85,pedestrian,0,0.21666667,0.35740742,0.08020833,0.2851852
000021,69.85,pedestrian,0,0.25729167,0.38333333,0.07604167,0.27037036
000021,69.85,pedestrian,0,0.87916666,0.3962963,0.075,0.26666668
000021,69.85,pedestrian,0,0.74895835,0.51111114,0.083333336,0.29444444
000021,69.85,pedestrian,0,0.40833333,0.32222223,0.08229167,0.29444444
000021,69.85,pedestrian,0,0.125,0.50555557,0.08125,0.2888889
000021,69.85,pedestrian,0,0.1625,0.68333334,0.079166666,0.28148147
000022,69.75,pedestrian,0,0.465625,0.0055555557,0.07395833,0.2611111
000022,69.75,pedestrian,0,0.49583334,0.03888889,0.07604167,0.27037036
000022,69.75,pedestrian,0,0.528125,0.044444446,0.067708336,0.24074075
000022,69.75,pedestrian,0,0.221875,0.083333336,0.06979167,0.24814814
000022,69.75,pedestrian,0,0.41354167,0.37037036,0.071875,0.25555557
000022,69.75,pedestrian,0,0.44270834,0.36666667,0.07395833,0.26296297
000022,69.75,pedestrian,0,0.25104168,0.40185186,0.077083334,0.27592593
000022,69.75,pedestrian,0,0.87916666,0.3962963,0.075,0.26666668
000022,69.75,pedestrian,0,0.209375,0.3888889,0.07604167,0.2685185
000022,69.75,pedestrian,0,0.153125,0.5037037,0.079166666,0.27962962
000022,69.75,pedestrian,0,0.18541667,0.7222222,0.071875,0.2537037
000022,69.75,pedestrian,0,0.7916667,0.072222225,0.07604167,0.27037036
000022,69.75,pedestrian,0,0.76875,0.52037036,0.083333336,0.2962963
000023,71.77,pedestrian,0,0.5072917,0.035185184,0.071875,0.2537037
000023,71.77,pedestrian,0,0.16666667,0.05740741,0.06979167,0.24814814
000023,71.77,pedestrian,0,0.21979167,0.07037037,0.06979167,0.2462963
000023,71.77,pedestrian,0,0.19583334,0.31296295,0.07604167,0.27037036
000023,71.77,pedestrian,0,0.42291668,0.37962964,0.07395833,0.2611111
000023,71.77,pedestrian,0,0.87916666,0.3962963,0.075,0.26666668
000023,71.77,pedestrian,0,0.2,0.40185186,0.08020833,0.2851852
000023,71.77,pedestrian,0,0.24479167,0.42407408,0.075,0.26666668
000023,71.77,pedestrian,0,0.18333334,0.51296294,0.08229167,0.29074073
000023,71.77,pedestrian,0,0.78229165,0.5407407,0.078125,0.2777778
000023,71.77,pedestrian,0,0.17708333,0.2888889,0.114583336,0.4074074
000024,69.39,pedestrian,0,0.48854166,0.02037037,0.071875,0.25555557
000024,69.39,pedestrian,0,0.8833333,0.0055555557,0.06979167,0.24814814
000024,69.39,pedestrian,0,0.165625,0.037037037,0.07604167,0.2685185
000024,69.39,pedestrian,0,0.09583333,0.27592593,0.07395833,0.26296297
000024,69.39,pedestrian,0,0.87916666,0.3962963,0.075,0.26666668
000024,69.39,pedestrian,0,0.203125,0.44444445,0.083333336,0.29444444
000024,69.39,pedestrian,0,0.21354167,0.05925926,0.075,0.2685185
000024,69.39,pedestrian,0,0.20208333,0.2888889,0.08645833,0.3074074
000024,69.39,pedestrian,0,0.42916667,0.3888889,0.08020833,0.2851852
000024,69.39,pedestrian,0,0.790625,0.5388889,0.083333336,0.29444444
000025,68.58,pedestrian,0,0.47916666,0.011111111,0.07083333,0.2537037
000025,68.58,pedestrian,0,0.5125,0.024074074,0.07395833,0.26296297
000025,68.58,pedestrian,0,0.87916666,0.39259258,0.077083334,0.27222222
000025,68.58,pedestrian,0,0.43333334,0.4185185,0.07604167,0.27037036
000025,68.58,pedestrian,0,0.18020834,0.44814816,0.079166666,0.28148147
000025,68.58,pedestrian,0,0.22395833,0.45185184,0.079166666,0.28148147
000025,68.58,pedestrian,0,0.20833333,0.27037036,0.079166666,0.28148147
000025,68.58,pedestrian,0,0.79479164,0.53333336,0.090625,0.32222223
000025,68.58,pedestrian,0,0.5208333,0.4,0.077083334,0.27407408
000025,68.58,pedestrian,0,0.011458334,0.2074074,0.09375,0.33333334
000026,70.08,pedestrian,0,0.47604167,0.0018518518,0.07083333,0.25185186
000026,70.08,pedestrian,0,0.50416666,0.0074074073,0.075,0.26666668
000026,70.08,pedestrian,0,0.21458334,0.2537037,0.075,0.26666668
000026,70.08,pedestrian,0,0.87916666,0.39259258,0.077083334,0.27222222
000026,70.08,pedestrian,0,0.43958333,0.43333334,0.078125,0.2777778
000026,70.08,pedestrian,0,0.16354166,0.46296296,0.084375,0.29814816
000026,70.08,pedestrian,0,0.215625,0.47962964,0.078125,0.27592593
000026,70.08,pedestrian,0,0.7916667,0.06851852,0.077083334,0.27407408
000026,70.08,pedestrian,0,0.81041664,0.55185187,0.08125,0.2888889
000027,67.03,pedestrian,0,0.50416666,0.0018518518,0.075,0.26666668
000027,67.03,pedestrian,0,0.21979167,0.02962963,0.077083334,0.27407408
000027,67.03,pedestrian,0,0.21666667,0.23148148,0.077083334,0.27222222
000027,67.03,pedestrian,0,0.878125,0.3888889,0.077083334,0.27407408
000027,67.03,pedestrian,0,0.446875,0.45,0.079166666,0.27962962
000027,67.03,pedestrian,0,0.15,0.4814815,0.084375,0.3
000027,67.03,pedestrian,0,0.20729166,0.50555557,0.078125,0.2777778
000027,67.03,pedestrian,0,0.7916667,0.06851852,0.077083334,0.27407408
000028,70.29,pedestrian,0,0.50208336,0,0.07083333,0.25185186
000028,70.29,pedestrian,0,0.215625,0.018518519,0.08645833,0.3074074
000028,70.29,pedestrian,0,0.21770833,0.21111111,0.07604167,0.2685185
000028,70.29,pedestrian,0,0.878125,0.39074075,0.077083334,0.27407408
000028,70.29,pedestrian,0,0.42708334,0.45925927,0.078125,0.2777778
000028,70.29,pedestrian,0,0.46354166,0.4722222,0.079166666,0.27962962
000028,70.29,pedestrian,0,0.13958333,0.50555557,0.083333336,0.2962963
000028,70.29,pedestrian,0,0.19583334,0.5277778,0.079166666,0.27962962
000028,70.29,pedestrian,0,0.7916667,0.06851852,0.077083334,0.27407408
000028,70.29,pedestrian,0,0.8197917,0.5425926,0.08229167,0.29074073
000029,68.94,pedestrian,0,0.21666667,0.022222223,0.07604167,0.27037036
000029,68.94,pedestrian,0,0.9,0.072222225,0.06979167,0.24814814
000029,68.94,pedestrian,0,0.21875,0.19629629,0.07604167,0.2685185
000029,68.94,pedestrian,0,0.471875,0.4962963,0.078125,0.27592593
000029,68.94,pedestrian,0,0.428125,0.47777778,0.08125,0.29074073
000029,68.94,pedestrian,0,0.18125,0.54814816,0.079166666,0.28333333
000029,68.94,pedestrian,0,0.7916667,0.06851852,0.077083334,0.27407408
000029,68.94,pedestrian,0,0.12916666,0.5222222,0.08958333,0.32037038
000029,68.94,pedestrian,0,0.815625,0.5462963,0.08125,0.28703704
000029,68.94,pedestrian,0,0.87708336,0.3888889,0.079166666,0.27962962
000029,68.94,pedestrian,0,0.70208335,0.46851853,0.09583333,0.3425926
000029,68.94,pedestrian,0,0.203125,0,0.108333334,0.38703704
000030,69.59,pedestrian,0,0.21666667,0.17407407,0.07395833,0.26296297
000030,69.59,pedestrian,0,0.88125,0.39814815,0.071875,0.25555557
000030,69.59,pedestrian,0,0.375,0.4888889,0.079166666,0.28333333
000030,69.59,pedestrian,0,0.48125,0.52037036,0.077083334,0.27407408
000030,69.59,pedestrian,0,0.125,0.5537037,0.084375,0.30185184
000030,69.59,pedestrian,0,0.17083333,0.57222223,0.079166666,0.28333333
000030,69.59,pedestrian,0,0.43541667,0.4925926,0.08645833,0.30555555
000030,69.59,pedestrian,0,0.70208335,0.4814815,0.09375,0.3351852
000031,68.38,pedestrian,0,0.215625,0.15925926,0.075,0.26481482
000031,68.38,pedestrian,0,0.87708336,0.3888889,0.078125,0.2777778
000031,68.38,pedestrian,0,0.440625,0.5277778,0.08229167,0.29259259
000031,68.38,pedestrian,0,0.4875,0.5425926,0.075,0.2685185
000031,68.38,pedestrian,0,0.13645834,0.587037,0.08645833,0.3074074
000031,68.38,pedestrian,0,0.38854167,0.49444443,0.08541667,0.3037037
000031,68.38,pedestrian,0,0.70416665,0.4925926,0.08958333,0.31851852
000032,68.38,pedestrian,0,0.21458334,0.14074074,0.075,0.26481482
000032,68.38,pedestrian,0,0.9302083,0.31851852,0.06875,0.24259259
000032,68.38,pedestrian,0,0.87916666,0.3962963,0.075,0.26666668
000032,68.38,pedestrian,0,0.49583334,0.56296295,0.075,0.26481482
000032,68.38,pedestrian,0,0.15104167,0.6203704,0.083333336,0.2962963
000032,68.38,pedestrian,0,0.4,0.5037037,0.090625,0.32222223
000032,68.38,pedestrian,0,0.45104167,0.5462963,0.08229167,0.29074073
000032,68.38,pedestrian,0,0.10625,0.5962963,0.0875,0.31111112
000033,67.39,pedestrian,0,0.21666667,0.12592593,0.07395833,0.2611111
000033,67.39,pedestrian,0,0.9166667,0.3,0.072916664,0.25925925
000033,67.39,pedestrian,0,0.87916666,0.3962963,0.075,0.26666668
000033,67.39,pedestrian,0,0.4,0.51666665,0.08541667,0.30185184
000033,67.39,pedestrian,0,0.13854167,0.64444447,0.0875,0.30925927
000033,67.39,pedestrian,0,0.7916667,0.06851852,0.077083334,0.27407408
000033,67.39,pedestrian,0,0.49895832,0.5777778,0.07604167,0.27037036
000033,67.39,pedestrian,0,0.09583333,0.6259259,0.088541664,0.3148148
000033,67.39,pedestrian,0,0.45625,0.5685185,0.08229167,0.29074073
000033,67.39,pedestrian,0,0.70104164,0.47777778,0.09583333,0.34074074
000034,71.20,pedestrian,0,0.8802083,0.39444444,0.07604167,0.27037036
000034,71.20,pedestrian,0,0.5125,0.6111111,0.07395833,0.26296297
000034,71.20,pedestrian,0,0.11354167,0.6666667,0.083333336,0.2962963
000034,71.20,pedestrian,0,0.7916667,0.06851852,0.077083334,0.27407408
000034,71.20,pedestrian,0,0.40416667,0.5314815,0.08229167,0.29259259
000034,71.20,pedestrian,0,0.7895833,0.53518516,0.079166666,0.28333333
000034,71.20,pedestrian,0,0.46145833,0.58518517,0.08645833,0.30555555
000035,68.32,pedestrian,0,0.825,0.24814814,0.06979167,0.24814814
000035,68.32,pedestrian,0,0.8833333,0.40185186,0.06875,0.24444444
000035,68.32,pedestrian,0,0.51354164,0.6259259,0.079166666,0.28148147
000035,68.32,pedestrian,0,0.47083333,0.62777776,0.079166666,0.27962962
000035,68.32,pedestrian,0,0.7916667,0.5425926,0.07604167,0.2685185
000035,68.32,pedestrian,0,0.128125,0.712963,0.07604167,0.2685185
000035,68.32,pedestrian,0,0.40833333,0.5314815,0.08541667,0.30185184
000035,68.32,pedestrian,0,0.088541664,0.6851852,0.08229167,0.29074073
000035,68.32,pedestrian,0,0.70104164,0.47777778,0.09583333,0.34074074
000036,67.11,pedestrian,0,0.8822917,0.40185186,0.07083333,0.2537037
000036,67.11,pedestrian,0,0.5229167,0.6481481,0.08541667,0.30185184
000036,67.11,pedestrian,0,0.47604167,0.6388889,0.08541667,0.3037037
000036,67.11,pedestrian,0,0.40625,0.53333336,0.084375,0.29814816
000036,67.11,pedestrian,0,0.75208336,0.50555557,0.084375,0.29814816
000036,67.11,pedestrian,0,0.70104164,0.47777778,0.09583333,0.34074074
000037,69.85,pedestrian,0,0.86041665,0.22777778,0.072916664,0.2611111
000037,69.85,pedestrian,0,0.8822917,0.40185186,0.07083333,0.2537037
000037,69.85,pedestrian,0,0.39270833,0.52037036,0.0875,0.31111112
000037,69.85,pedestrian,0,0.49375,0.6611111,0.084375,0.29814816
000037,69.85,pedestrian,0,0.53125,0.67407405,0.0875,0.30925927
000037,69.85,pedestrian,0,0.70104164,0.47777778,0.09583333,0.34074074
000038,70.54,pedestrian,0,0.178125,0.17222223,0.06979167,0.2462963
000038,70.54,pedestrian,0,0.85520834,0.21851853,0.075,0.26666668
000038,70.54,pedestrian,0,0.8822917,0.40185186,0.07083333,0.2537037
000038,70.54,pedestrian,0,0.81666666,0.5407407,0.07395833,0.2611111
000038,70.54,pedestrian,0,0.37395832,0.5148148,0.0875,0.31111112
000038,70.54,pedestrian,0,0.5104167,0.68703705,0.078125,0.2777778
000038,70.54,pedestrian,0,0.39479166,0.05185185,0.079166666,0.27962962
000038,70.54,pedestrian,0,0.70104164,0.47777778,0.09583333,0.34074074
000039,68.39,pedestrian,0,0.18333334,0.19629629,0.067708336,0.24074075
000039,68.39,pedestrian,0,0.8489583,0.20925926,0.07083333,0.25185186
000039,68.39,pedestrian,0,0.36041668,0.5222222,0.08229167,0.29259259
000039,68.39,pedestrian,0,0.70104164,0.47777778,0.09583333,0.34074074
000040,68.57,pedestrian,0,0.8489583,0.19629629,0.06979167,0.2462963
000040,68.57,pedestrian,0,0.17604166,0.2037037,0.07083333,0.25
000040,68.57,pedestrian,0,0.39479166,0.025925925,0.084375,0.3
000040,68.57,pedestrian,0,0.70104164,0.47777778,0.09583333,0.34074074
000041,65.89,pedestrian,0,0.39791667,0.07962963,0.07395833,0.26296297
000041,65.89,pedestrian,0,0.84375,0.16666667,0.07395833,0.2611111
000041,65.89,pedestrian,0,0.87604165,0.38518518,0.079166666,0.27962962
000042,67.52,pedestrian,0,0.4,0.09259259,0.07083333,0.25185186
000042,67.52,pedestrian,0,0.8333333,0.16111112,0.07395833,0.2611111
000042,67.52,pedestrian,0,0.165625,0.23518519,0.07083333,0.25185186
000042,67.52,pedestrian,0,0.87395835,0.38333333,0.08020833,0.2851852
000042,67.52,pedestrian,0,0.28229168,0.47407407,0.08229167,0.29259259
000043,69.61,pedestrian,0,0.39791667,0.08148148,0.071875,0.25555557
000043,69.61,pedestrian,0,0.83125,0.15,0.06979167,0.2462963
000043,69.61,pedestrian,0,0.159375,0.2462963,0.071875,0.25555557
000043,69.61,pedestrian,0,0.87604165,0.38518518,0.079166666,0.27962962
000043,69.61,pedestrian,0,0.25625,0.46666667,0.08229167,0.29074073
000044,70.38,pedestrian,0,0.40208334,0.096296296,0.07083333,0.25185186
000044,70.38,pedestrian,0,0.828125,0.1425926,0.06979167,0.2462963
000044,70.38,pedestrian,0,0.15625,0.26296297,0.071875,0.25555557
000044,70.38,pedestrian,0,0.878125,0.38703704,0.077083334,0.27407408
000044,70.38,pedestrian,0,0.22708334,0.45740741,0.08541667,0.3037037
000045,70.11,pedestrian,0,0.4,0.09074074,0.07083333,0.25185186
000045,70.11,pedestrian,0,0.14895834,0.28148147,0.071875,0.25555557
000045,70.11,pedestrian,0,0.87604165,0.38518518,0.079166666,0.28148147
000045,70.11,pedestrian,0,0.20833333,0.46666667,0.08125,0.2888889
000046,68.55,pedestrian,0,0.4,0.09074074,0.07083333,0.25185186
000046,68.55,pedestrian,0,0.83125,0.10925926,0.07083333,0.25185186
000046,68.55,pedestrian,0,0.146875,0.3037037,0.072916664,0.2574074
000046,68.55,pedestrian,0,0.87708336,0.38703704,0.078125,0.2777778
000046,68.55,pedestrian,0,0.18229167,0.45185184,0.0875,0.31296295
000047,67.84,pedestrian,0,0.39791667,0.087037034,0.071875,0.25555557
000047,67.84,pedestrian,0,0.821875,0.098148145,0.06979167,0.24814814
000047,67.84,pedestrian,0,0.13854167,0.31666666,0.071875,0.2537037
000047,67.84,pedestrian,0,0.87708336,0.38703704,0.078125,0.2777778
000047,67.84,pedestrian,0,0.17604166,0.46296296,0.084375,0.30185184
000048,68.82,pedestrian,0,0.13645834,0.33333334,0.072916664,0.25925925
000048,68.82,pedestrian,0,0.87708336,0.38703704,0.078125,0.2777778
000048,68.82,pedestrian,0,0.17916666,0.47777778,0.078125,0.2777778
000049,69.64,pedestrian,0,0.1375,0.35555556,0.071875,0.25555557
000049,69.64,pedestrian,0,0.87708336,0.38703704,0.078125,0.2777778
000049,69.64,pedestrian,0,0.18333334,0.4722222,0.08541667,0.30555555
000049,69.64,pedestrian,0,0.63645834,0.6851852,0.08020833,0.2851852
000049,69.64,pedestrian,0,0.59583336,0.6888889,0.08125,0.28703704
000050,68.06,pedestrian,0,0.13541667,0.36851853,0.075,0.26481482
000050,68.06,pedestrian,0,0.87708336,0.38703704,0.078125,0.2777778
000050,68.06,pedestrian,0,0.20416667,0.47407407,0.084375,0.29814816
000050,68.06,pedestrian,0,0.57708335,0.662963,0.08125,0.28703704
000050,68.06,pedestrian,0,0.6145833,0.63703704,0.08645833,0.30925927
000051,71.66,pedestrian,0,0.21979167,0.13518518,0.07395833,0.2611111
000051,71.66,pedestrian,0,0.14166667,0.3888889,0.075,0.26666668
000051,71.66,pedestrian,0,0.87708336,0.3888889,0.078125,0.2777778
000051,71.66,pedestrian,0,0.22708334,0.48518518,0.083333336,0.2962963
000051,71.66,pedestrian,0,0.58229166,0.61851853,0.08229167,0.29259259
000052,69.61,pedestrian,0,0.878125,0.39074075,0.077083334,0.27407408
000052,69.61,pedestrian,0,0.13645834,0.4074074,0.078125,0.27592593
000052,69.61,pedestrian,0,0.25104168,0.49444443,0.08020833,0.28703704
000052,69.61,pedestrian,0,0.55625,0.587037,0.08958333,0.31666666
000052,69.61,pedestrian,0,0.7875,0.048148148,0.08645833,0.3074074
000052,69.61,pedestrian,0,0.20104167,0.07962963,0.09375,0.3314815
000053,69.10,pedestrian,0,0.878125,0.39074075,0.078125,0.27592593
000053,69.10,pedestrian,0,0.134375,0.43333334,0.077083334,0.27222222
000053,69.10,pedestrian,0,0.27604166,0.5074074,0.078125,0.2777778
000053,69.10,pedestrian,0,0.55104166,0.5555556,0.0875,0.31111112
000054,71.12,pedestrian,0,0.878125,0.3888889,0.078125,0.27962962
000054,71.12,pedestrian,0,0.13229166,0.45185184,0.078125,0.2777778
000054,71.12,pedestrian,0,0.5229167,0.5222222,0.09375,0.3314815
000055,69.58,pedestrian,0,0.878125,0.39074075,0.078125,0.2777778
000055,69.58,pedestrian,0,0.128125,0.4722222,0.078125,0.27592593
000055,69.58,pedestrian,0,0.5375,0.51111114,0.08125,0.28703704
000055,69.58,pedestrian,0,0.49270833,0.50555557,0.092708334,0.32777777
000056,70.62,pedestrian,0,0.878125,0.39074075,0.078125,0.2777778
000056,70.62,pedestrian,0,0.12604167,0.49074075,0.08020833,0.2851852
000056,70.62,pedestrian,0,0.47916666,0.49074075,0.08125,0.2888889
000056,70.62,pedestrian,0,0.5208333,0.47962964,0.08541667,0.3037037
000057,69.93,pedestrian,0,0.878125,0.3888889,0.078125,0.2777778
000057,69.93,pedestrian,0,0.46875,0.46666667,0.08125,0.29074073
000057,69.93,pedestrian,0,0.51458335,0.4537037,0.084375,0.29814816
000057,69.93,pedestrian,0,0.11875,0.5185185,0.08229167,0.29074073
000057,69.93,pedestrian,0,0.8072917,0.52592593,0.08020833,0.28333333
000058,69.72,pedestrian,0,0.20104167,0.1037037,0.06979167,0.24814814
000058,69.72,pedestrian,0,0.878125,0.3888889,0.078125,0.2777778
000058,69.72,pedestrian,0,0.45833334,0.44814816,0.079166666,0.27962962
000058,69.72,pedestrian,0,0.49895832,0.43148148,0.08645833,0.30555555
000058,69.72,pedestrian,0,0.119791664,0.53518516,0.083333336,0.2962963
000059,69.49,pedestrian,0,0.40416667,0.085185185,0.06979167,0.24814814
000059,69.49,pedestrian,0,0.16666667,0.25555557,0.067708336,0.24074075
000059,69.49,pedestrian,0,0.878125,0.3888889,0.078125,0.2777778
000059,69.49,pedestrian,0,0.49479166,0.40925926,0.08020833,0.2851852
000059,69.49,pedestrian,0,0.45,0.42222223,0.079166666,0.28148147
000059,69.49,pedestrian,0,0.125,0.5574074,0.084375,0.3
000059,69.49,pedestrian,0,0.13020833,0.009259259,0.13645834,0.48518518
000060,68.83,pedestrian,0,0.19791667,0.25925925,0.072916664,0.2574074
000060,68.83,pedestrian,0,0.44270834,0.40185186,0.078125,0.27592593
000060,68.83,pedestrian,0,0.8802083,0.39444444,0.07604167,0.2685185
000060,68.83,pedestrian,0,0.48541668,0.38333333,0.083333336,0.29444444
000060,68.83,pedestrian,0,0.134375,0.58148146,0.08229167,0.29259259
000060,68.83,pedestrian,0,0.14375,0.11851852,0.075,0.26481482
000061,67.25,pedestrian,0,0.484375,0.36481482,0.08020833,0.2851852
000061,67.25,pedestrian,0,0.43333334,0.38148147,0.077083334,0.27407408
000061,67.25,pedestrian,0,0.8802083,0.39444444,0.075,0.26481482
000061,67.25,pedestrian,0,0.13645834,0.5925926,0.08958333,0.31851852
000062,69.15,pedestrian,0,0.56145835,0,0.067708336,0.24074075
000062,69.15,pedestrian,0,0.15729167,0.3037037,0.06979167,0.24814814
000062,69.15,pedestrian,0,0.42916667,0.36296296,0.077083334,0.27407408
000062,69.15,pedestrian,0,0.87916666,0.3888889,0.07604167,0.27037036
000062,69.15,pedestrian,0,0.803125,0.5388889,0.075,0.26666668
000062,69.15,pedestrian,0,0.47604167,0.3425926,0.08125,0.28703704
000062,69.15,pedestrian,0,0.13854167,0.6148148,0.088541664,0.31666666
000063,70.53,pedestrian,0,0.56666666,0.0074074073,0.072916664,0.2611111
000063,70.53,pedestrian,0,0.17708333,0.29444444,0.079166666,0.28148147
000063,70.53,pedestrian,0,0.428125,0.33703703,0.07604167,0.27037036
000063,70.53,pedestrian,0,0.47395834,0.32777777,0.078125,0.2777778
000063,70.53,pedestrian,0,0.87916666,0.39074075,0.07604167,0.27037036
000063,70.53,pedestrian,0,0.803125,0.5388889,0.075,0.26666668
000063,70.53,pedestrian,0,0.14270833,0.6388889,0.0875,0.31111112
000064,69.95,pedestrian,0,0.571875,0.0129629625,0.071875,0.2537037
000064,69.95,pedestrian,0,0.46666667,0.3037037,0.078125,0.27592593
000064,69.95,pedestrian,0,0.42604166,0.31666666,0.077083334,0.27222222
000064,69.95,pedestrian,0,0.184375,0.32037038,0.077083334,0.27222222
000064,69.95,pedestrian,0,0.15729167,0.34074074,0.07083333,0.25185186
000064,69.95,pedestrian,0,0.87916666,0.39074075,0.07604167,0.27037036
000064,69.95,pedestrian,0,0.6354167,0.6851852,0.083333336,0.2962963
000064,69.95,pedestrian,0,0.14583333,0.662963,0.08958333,0.31851852
000065,71.85,pedestrian,0,0.58020836,0.02962963,0.072916664,0.25925925
000065,71.85,pedestrian,0,0.840625,0.072222225,0.06875,0.24444444
000065,71.85,pedestrian,0,0.421875,0.2962963,0.07604167,0.2685185
000065,71.85,pedestrian,0,0.46041667,0.28333333,0.08125,0.2888889
000065,71.85,pedestrian,0,0.175,0.3425926,0.077083334,0.27407408
000065,71.85,pedestrian,0,0.87916666,0.3888889,0.07604167,0.27037036
000065,71.85,pedestrian,0,0.6197917,0.65,0.08541667,0.3037037
000065,71.85,pedestrian,0,0.15,0.6888889,0.083333336,0.2962963
000066,67.53,pedestrian,0,0.58958334,0.046296295,0.07083333,0.25185186
000066,67.53,pedestrian,0,0.840625,0.07962963,0.07083333,0.25
000066,67.53,pedestrian,0,0.4625,0.26481482,0.07604167,0.27037036
000066,67.53,pedestrian,0,0.41875,0.27407408,0.078125,0.2777778
000066,67.53,pedestrian,0,0.18333334,0.36481482,0.07604167,0.27037036
000066,67.53,pedestrian,0,0.8802083,0.39259258,0.07395833,0.2611111
000066,67.53,pedestrian,0,0.60520834,0.6148148,0.08958333,0.31851852
000067,68.63,pedestrian,0,0.8489583,0.098148145,0.072916664,0.2611111
000067,68.63,pedestrian,0,0.246875,0.20925926,0.06875,0.24444444
000067,68.63,pedestrian,0,0.415625,0.25555557,0.08020833,0.28333333
000067,68.63,pedestrian,0,0.46041667,0.25185186,0.07395833,0.2611111
000067,68.63,pedestrian,0,0.18125,0.38333333,0.075,0.26481482
000067,68.63,pedestrian,0,0.146875,0.38518518,0.071875,0.25555557
000067,68.63,pedestrian,0,0.8802083,0.39259258,0.07395833,0.2611111
000067,68.63,pedestrian,0,0.59583336,0.57222223,0.090625,0.32407406
000068,70.82,pedestrian,0,0.85520834,0.11481482,0.075,0.26481482
000068,70.82,pedestrian,0,0.41770834,0.23888889,0.07604167,0.2685185
000068,70.82,pedestrian,0,0.4625,0.22962964,0.07604167,0.2685185
000068,70.82,pedestrian,0,0.87916666,0.39444444,0.075,0.26666668
000068,70.82,pedestrian,0,0.14895834,0.4185185,0.06875,0.2462963
000068,70.82,pedestrian,0,0.584375,0.5407407,0.092708334,0.32777777
000068,70.82,pedestrian,0,0.290625,0.47777778,0.083333336,0.29444444
000069,68.70,pedestrian,0,0.8645833,0.13148148,0.071875,0.2574074
000069,68.70,pedestrian,0,0.46458334,0.21481481,0.06979167,0.24814814
000069,68.70,pedestrian,0,0.41979167,0.22222222,0.07395833,0.2611111
000069,68.70,pedestrian,0,0.24166666,0.23518519,0.07083333,0.25185186
000069,68.70,pedestrian,0,0.1375,0.24814814,0.06875,0.2462963
000069,68.70,pedestrian,0,0.87916666,0.39074075,0.07604167,0.27037036
000069,68.70,pedestrian,0,0.58020836,0.5185185,0.08645833,0.30555555
000069,68.70,pedestrian,0,0.171875,0.4148148,0.08125,0.2888889
000069,68.70,pedestrian,0,0.28229168,0.46666667,0.0875,0.30925927
000070,69.86,pedestrian,0,0.42395833,0.2074074,0.07083333,0.25185186
000070,69.86,pedestrian,0,0.13958333,0.26481482,0.06979167,0.24814814
000070,69.86,pedestrian,0,0.2375,0.2574074,0.071875,0.25555557
000070,69.86,pedestrian,0,0.87916666,0.39444444,0.077083334,0.27407408
000070,69.86,pedestrian,0,0.17291667,0.43148148,0.078125,0.2777778
000070,69.86,pedestrian,0,0.1375,0.46296296,0.07083333,0.25185186
000070,69.86,pedestrian,0,0.5697917,0.49444443,0.08645833,0.3074074
000070,69.86,pedestrian,0,0.8697917,0.15555556,0.071875,0.2574074
000070,69.86,pedestrian,0,0.28125,0.46851853,0.083333336,0.2962963
000070,69.86,pedestrian,0,0.465625,0.18888889,0.077083334,0.27407408
