000001,187.57,pedestrian,0,0.26354167,0.10462963,0.067708336,0.24074075
000001,187.57,pedestrian,0,0.83489585,0.21296297,0.0703125,0.25
000001,187.57,pedestrian,0,0.1796875,0.35462964,0.080729164,0.28611112
000001,187.57,pedestrian,0,0.029166667,0.47592592,0.086979166,0.30833334
000001,187.57,pedestrian,0,0.69166666,0.51296294,0.0796875,0.2824074
000002,170.37,pedestrian,0,0.5171875,0.11203704,0.07864583,0.2787037
000002,170.37,pedestrian,0,0.25833333,0.11111111,0.0703125,0.24907407
000002,170.37,pedestrian,0,0.69166666,0.5148148,0.07760417,0.275
000002,170.37,pedestrian,0,0.17916666,0.3425926,0.08177083,0.29074073
000002,170.37,pedestrian,0,0.027604166,0.47314814,0.088541664,0.3148148
000003,169.82,pedestrian,0,0.091145836,0.34166667,0.040625,0.14444445
000003,169.82,pedestrian,0,0.16666667,0.07037037,0.063541666,0.22685185
000003,169.82,pedestrian,0,0.25104168,0.12314815,0.067708336,0.24074075
000003,169.82,pedestrian,0,0.69114584,0.5138889,0.077083334,0.27407408
000003,169.82,pedestrian,0,0.0296875,0.47777778,0.084895834,0.30185184
000003,169.82,pedestrian,0,0.17760417,0.3101852,0.08645833,0.3074074
000004,167.72,pedestrian,0,0.16822916,0.06944445,0.061458334,0.21851853
000004,167.72,pedestrian,0,0.24479167,0.13611111,0.065625,0.2324074
000004,167.72,pedestrian,0,0.5125,0.11666667,0.07239583,0.25648147
000004,167.72,pedestrian,0,0.1859375,0.30277777,0.08020833,0.2851852
000004,167.72,pedestrian,0,0.690625,0.51296294,0.07864583,0.27962962
000004,167.72,pedestrian,0,0.029166667,0.47685185,0.0859375,0.30555555
000004,167.72,pedestrian,0,0.59270835,0.26481482,0.094791666,0.3361111
000005,169.52,pedestrian,0,0.78802085,0.25462964,0.043229166,0.1537037
000005,169.52,pedestrian,0,0.07083333,0.3351852,0.036458332,0.1287037
000005,169.52,pedestrian,0,0.24322917,0.14351852,0.0671875,0.23981482
000005,169.52,pedestrian,0,0.51197916,0.14444445,0.059375,0.21111111
000005,169.52,pedestrian,0,0.690625,0.51111114,0.07864583,0.27962962
000005,169.52,pedestrian,0,0.030208332,0.47685185,0.084895834,0.30092594
000005,169.52,pedestrian,0,0.18697916,0.2787037,0.0890625,0.31574073
000006,166.75,pedestrian,0,0.7875,0.25185186,0.04375,0.15462963
000006,166.75,pedestrian,0,0.1703125,0.075,0.057291668,0.2037037
000006,166.75,pedestrian,0,0.50416666,0.14722222,0.06302083,0.22314815
000006,166.75,pedestrian,0,0.24270834,0.15555556,0.06822917,0.24259259
000006,166.75,pedestrian,0,0.19166666,0.26944444,0.0796875,0.28333333
000006,166.75,pedestrian,0,0.69635415,0.5101852,0.0796875,0.2824074
000006,166.75,pedestrian,0,0.029166667,0.4712963,0.086979166,0.30833334
000007,169.75,pedestrian,0,0.72447914,0.16666667,0.0515625,0.18240741
000007,169.75,pedestrian,0,0.246875,0.17037037,0.06666667,0.23703703
000007,169.75,pedestrian,0,0.4921875,0.14444445,0.06979167,0.2462963
000007,169.75,pedestrian,0,0,0.6333333,0.0703125,0.24907407
000007,169.75,pedestrian,0,0.6921875,0.51944447,0.07395833,0.26296297
000007,169.75,pedestrian,0,0.029166667,0.4712963,0.086979166,0.30833334
000007,169.75,pedestrian,0,0.68541664,0.4027778,0.11875,0.4212963
000008,170.32,pedestrian,0,0.29947916,0.29814816,0.034375,0.12222222
000008,170.32,pedestrian,0,0.784375,0.2462963,0.045833334,0.16203703
000008,170.32,pedestrian,0,0.24322917,0.015740741,0.053645834,0.19074073
000008,170.32,pedestrian,0,0.48125,0.16203703,0.0609375,0.21574074
000008,170.32,pedestrian,0,0.25,0.18611111,0.067708336,0.24074075
000008,170.32,pedestrian,0,0,0.5962963,0.0796875,0.2824074
000008,170.32,pedestrian,0,0.027083334,0.46851853,0.09010417,0.32037038
000008,170.32,pedestrian,0,0.68541664,0.4027778,0.11875,0.4212963
000009,171.27,pedestrian,0,0.78489584,0.24537037,0.045833334,0.16203703
000009,171.27,pedestrian,0,0.46979168,0.17407407,0.06302083,0.22407408
000009,171.27,pedestrian,0,0.25572917,0.19722222,0.0703125,0.25
000009,171.27,pedestrian,0,0.190625,0.70648146,0.08020833,0.2851852
000009,171.27,pedestrian,0,0.38541666,0.097222224,0.088541664,0.31574073
000009,171.27,pedestrian,0,0.2,0.22407408,0.084375,0.3
000009,171.27,pedestrian,0,0.017708333,0.46296296,0.10364583,0.36851853
000009,171.27,pedestrian,0,0.68541664,0.3962963,0.121875,0.4324074
000010,170.26,pedestrian,0,0.78489584,0.24537037,0.045833334,0.16203703
000010,170.26,pedestrian,0,0.275,0.21111111,0.0640625,0.22685185
000010,170.26,pedestrian,0,0.028125,0.4722222,0.0875,0.3101852
000010,170.26,pedestrian,0,0.1859375,0.6574074,0.09166667,0.32592592
000010,170.26,pedestrian,0,0.68541664,0.3962963,0.121875,0.4324074
000011,170.26,pedestrian,0,0.78489584,0.24537037,0.045833334,0.16203703
000011,170.26,pedestrian,0,0.4390625,0.16111112,0.061458334,0.2175926
000011,170.26,pedestrian,0,0.2578125,0.22592592,0.0671875,0.23703703
000011,170.26,pedestrian,0,0.6125,0.26481482,0.06302083,0.22314815
000011,170.26,pedestrian,0,0.0296875,0.47962964,0.08541667,0.30277777
000011,170.26,pedestrian,0,0.1859375,0.6212963,0.09010417,0.32037038
000011,170.26,pedestrian,0,0.6869792,0.39722222,0.12291667,0.43611112
000012,173.46,pedestrian,0,0.6557292,0.1574074,0.0390625,0.1388889
000012,173.46,pedestrian,0,0.784375,0.24537037,0.045833334,0.16296296
000012,173.46,pedestrian,0,0.43020833,0.15092592,0.06458333,0.22962964
000012,173.46,pedestrian,0,0.37760416,0.2212963,0.06458333,0.22962964
000012,173.46,pedestrian,0,0.2578125,0.24259259,0.0671875,0.23888889
000012,173.46,pedestrian,0,0.6098958,0.2638889,0.065104164,0.23148148
000012,173.46,pedestrian,0,0.03125,0.48425925,0.08229167,0.29166666
000012,173.46,pedestrian,0,0.190625,0.59166664,0.0953125,0.33796296
000013,171.67,pedestrian,0,0.78489584,0.25,0.044270832,0.15648147
000013,171.67,pedestrian,0,0.17135416,0.08240741,0.0546875,0.19537038
000013,171.67,pedestrian,0,0.25677082,0.25462964,0.065104164,0.23055555
000013,171.67,pedestrian,0,0.25625,0.18981482,0.056770835,0.20277777
000013,171.67,pedestrian,0,0.43854168,0.14074074,0.06458333,0.22870371
000013,171.67,pedestrian,0,0.03125,0.48425925,0.08229167,0.29166666
000013,171.67,pedestrian,0,0.10520833,0.49722221,0.0765625,0.2712963
000013,171.67,pedestrian,0,0.19166666,0.56296295,0.09322917,0.3314815
000013,171.67,pedestrian,0,0.23958333,0.11666667,0.11302083,0.40185186
000013,171.67,pedestrian,0,0.68541664,0.4027778,0.11875,0.4212963
000014,170.43,pedestrian,0,0.78489584,0.25,0.044270832,0.15648147
000014,170.43,pedestrian,0,0.171875,0.08425926,0.054166667,0.19259259
000014,170.43,pedestrian,0,0.26302084,0.108333334,0.057291668,0.20277777
000014,170.43,pedestrian,0,0.534375,0.11666667,0.055729166,0.19814815
000014,170.43,pedestrian,0,0.29947916,0.26759258,0.059375,0.21111111
000014,170.43,pedestrian,0,0.44375,0.121296294,0.065625,0.2324074
000014,170.43,pedestrian,0,0.58958334,0.11296296,0.0640625,0.22777778
000014,170.43,pedestrian,0,0.25677082,0.25277779,0.071875,0.25555557
000014,170.43,pedestrian,0,0.100520834,0.47592592,0.07395833,0.26296297
000014,170.43,pedestrian,0,0.19375,0.53425926,0.08802083,0.31296295
000014,170.43,pedestrian,0,0.013541667,0.55925924,0.08125,0.2888889
000014,170.43,pedestrian,0,0.021354167,0.46851853,0.0921875,0.3287037
000015,169.33,pedestrian,0,0.5161458,0.11481482,0.052083332,0.18425927
000015,169.33,pedestrian,0,0.78489584,0.25,0.044270832,0.15648147
000015,169.33,pedestrian,0,0.25833333,0.10277778,0.0515625,0.18425927
000015,169.33,pedestrian,0,0.45572916,0.119444445,0.059895832,0.21203704
000015,169.33,pedestrian,0,0.57604164,0.10555556,0.0609375,0.21666667
000015,169.33,pedestrian,0,0.16770834,0.07962963,0.059895832,0.21296297
000015,169.33,pedestrian,0,0.275,0.21388888,0.061979167,0.22037037
000015,169.33,pedestrian,0,0.38229167,0.26481482,0.06302083,0.22407408
000015,169.33,pedestrian,0,0.25,0.27037036,0.07447917,0.2638889
000015,169.33,pedestrian,0,0.69427085,0.5138889,0.077083334,0.27407408
000015,169.33,pedestrian,0,0.09947917,0.45277777,0.071354166,0.25277779
000015,169.33,pedestrian,0,0.18854167,0.5046296,0.0875,0.3101852
000015,169.33,pedestrian,0,0.036979165,0.59074074,0.077083334,0.27407408
000016,168.79,pedestrian,0,0.5630208,0.09259259,0.063541666,0.22592592
000016,168.79,pedestrian,0,0.29010418,0.2962963,0.06458333,0.22962964
000016,168.79,pedestrian,0,0.69739586,0.5175926,0.07395833,0.26296297
000016,168.79,pedestrian,0,0.134375,0.09259259,0.059895832,0.21296297
000016,168.79,pedestrian,0,0.46041667,0.097222224,0.06458333,0.22870371
000016,168.79,pedestrian,0,0.25104168,0.29259259,0.07083333,0.25185186
000016,168.79,pedestrian,0,0.0921875,0.43333334,0.071875,0.25462964
000016,168.79,pedestrian,0,0.18854167,0.47592592,0.0859375,0.30555555
000016,168.79,pedestrian,0,0.051041666,0.5888889,0.09322917,0.33240741
000017,171.27,pedestrian,0,0.5494792,0.08888889,0.063541666,0.22592592
000017,171.27,pedestrian,0,0.29166666,0.31851852,0.058333334,0.20833333
000017,171.27,pedestrian,0,0.46614584,0.08425926,0.06458333,0.22870371
000017,171.27,pedestrian,0,0.24322917,0.30277777,0.07395833,0.26296297
000017,171.27,pedestrian,0,0.42864582,0.29444444,0.06666667,0.2361111
000017,171.27,pedestrian,0,0.3921875,0.29259259,0.067708336,0.24074075
000017,171.27,pedestrian,0,0.096875,0.4148148,0.0703125,0.24907407
000017,171.27,pedestrian,0,0.0390625,0.49351853,0.08020833,0.2851852
000017,171.27,pedestrian,0,0.1828125,0.44722223,0.08802083,0.31296295
000017,171.27,pedestrian,0,0.6958333,0.4814815,0.09010417,0.31944445
000018,169.77,pedestrian,0,0.48854166,0.14629629,0.038020834,0.13425925
000018,169.77,pedestrian,0,0.75677085,0.024074074,0.055729166,0.19814815
000018,169.77,pedestrian,0,0.47447917,0.07777778,0.058854166,0.20925926
000018,169.77,pedestrian,0,0.28489584,0.33703703,0.061979167,0.22037037
000018,169.77,pedestrian,0,0.5385417,0.07962963,0.0640625,0.22777778
000018,169.77,pedestrian,0,0.18541667,0.43611112,0.08020833,0.2851852
000018,169.77,pedestrian,0,0.6098958,0.2638889,0.065104164,0.23148148
000018,169.77,pedestrian,0,0.09739583,0.39537036,0.06875,0.24444444
000018,169.77,pedestrian,0,0.4015625,0.30277777,0.06979167,0.24814814
000018,169.77,pedestrian,0,0.055729166,0.5,0.08125,0.28796297
000018,169.77,pedestrian,0,0.23645833,0.31666666,0.08020833,0.28425926
000018,169.77,pedestrian,0,0.7114583,0.51574075,0.07864583,0.27962962
000018,169.77,pedestrian,0,0.09166667,0.6351852,0.0984375,0.35092592
000018,169.77,pedestrian,0,0.69166666,0.4148148,0.11510417,0.40833333
000019,171.37,pedestrian,0,0.78489584,0.25,0.044270832,0.15648147
000019,171.37,pedestrian,0,0.8432292,0,0.05,0.17777778
000019,171.37,pedestrian,0,0.56822914,0.07037037,0.058854166,0.20925926
000019,171.37,pedestrian,0,0.7505208,0.016666668,0.058333334,0.20648149
000019,171.37,pedestrian,0,0.53125,0.0712963,0.061979167,0.22037037
000019,171.37,pedestrian,0,0.4765625,0.05925926,0.06302083,0.22314815
000019,171.37,pedestrian,0,0.24791667,0.08981481,0.0578125,0.20648149
000019,171.37,pedestrian,0,0.23177083,0.33333334,0.075,0.26574075
000019,171.37,pedestrian,0,0.275,0.34537038,0.0703125,0.24907407
000019,171.37,pedestrian,0,0.7260417,0.52037036,0.075,0.26666668
000019,171.37,pedestrian,0,0.40677083,0.32314816,0.069270834,0.2462963
000019,171.37,pedestrian,0,0.18333334,0.40925926,0.0796875,0.28333333
000019,171.37,pedestrian,0,0.075,0.49907407,0.083333336,0.2962963
000020,169.12,pedestrian,0,0.7838542,0.24722221,0.0453125,0.16111112
000020,169.12,pedestrian,0,0.47447917,0.044444446,0.061458334,0.21851853
000020,169.12,pedestrian,0,0.553125,0.062037036,0.060416665,0.21481481
000020,169.12,pedestrian,0,0.39114583,0.3,0.059375,0.21018519
000020,169.12,pedestrian,0,0.51354164,0.06111111,0.065625,0.23333333
000020,169.12,pedestrian,0,0.265625,0.36666667,0.069270834,0.2462963
000020,169.12,pedestrian,0,0.74635416,0,0.0640625,0.22777778
000020,169.12,pedestrian,0,0.22291666,0.35185185,0.0765625,0.27222222
000020,169.12,pedestrian,0,0.18489583,0.3787037,0.08385417,0.29814816
000020,169.12,pedestrian,0,0.09583333,0.34074074,0.083333336,0.2962963
000020,169.12,pedestrian,0,0.7390625,0.51111114,0.084375,0.3
000021,170.04,pedestrian,0,0.14635417,0.17592593,0.034375,0.12222222
000021,170.04,pedestrian,0,0.78697914,0.2537037,0.043229166,0.15277778
000021,170.04,pedestrian,0,0.19270833,0.7287037,0.0375,0.13333334
000021,170.04,pedestrian,0,0.45052084,0.36851853,0.059895832,0.21388888
000021,170.04,pedestrian,0,0.50677085,0.050925925,0.069270834,0.24537037
000021,170.04,pedestrian,0,0.20104167,0.012037037,0.0546875,0.19444445
000021,170.04,pedestrian,0,0.471875,0.030555556,0.061979167,0.2212963
000021,170.04,pedestrian,0,0.54010415,0.04537037,0.069270834,0.24537037
000021,170.04,pedestrian,0,0.10885417,0.34166667,0.0640625,0.22777778
000021,170.04,pedestrian,0,0.035416666,0.06851852,0.06614583,0.23425926
000021,170.04,pedestrian,0,0.1984375,0.35833332,0.0796875,0.28148147
000021,170.04,pedestrian,0,0.25625,0.38333333,0.077083334,0.27407408
000021,170.04,pedestrian,0,0.87916666,0.40185186,0.07447917,0.2638889
000021,170.04,pedestrian,0,0.7494792,0.51111114,0.084895834,0.30185184
000021,170.04,pedestrian,0,0.16510417,0.6814815,0.07395833,0.26203704
000021,170.04,pedestrian,0,0.4125,0.34444445,0.075520836,0.26759258
000021,170.04,pedestrian,0,0.12291667,0.5074074,0.0828125,0.29444444
000021,170.04,pedestrian,0,0.40572917,0.28796297,0.092708334,0.33055556
000022,168.88,pedestrian,0,0.1453125,0.17037037,0.034895834,0.12407407
000022,168.88,pedestrian,0,0.78697914,0.2537037,0.043229166,0.15277778
000022,168.88,pedestrian,0,0.53489584,0.05462963,0.055208333,0.19629629
000022,168.88,pedestrian,0,0.50104165,0.048148148,0.06822917,0.24259259
000022,168.88,pedestrian,0,0.20416667,0.02037037,0.055208333,0.19629629
000022,168.88,pedestrian,0,0.4703125,0.015740741,0.063541666,0.22592592
000022,168.88,pedestrian,0,0.10520833,0.31851852,0.06614583,0.23425926
000022,168.88,pedestrian,0,0.25364584,0.40833333,0.07239583,0.25648147
000022,168.88,pedestrian,0,0.035416666,0.06851852,0.06614583,0.23425926
000022,168.88,pedestrian,0,0.41666666,0.37777779,0.06822917,0.24259259
000022,168.88,pedestrian,0,0.87916666,0.40185186,0.07447917,0.2638889
000022,168.88,pedestrian,0,0.19114584,0.3398148,0.072916664,0.25833333
000022,168.88,pedestrian,0,0.20989583,0.38425925,0.0765625,0.2712963
000022,168.88,pedestrian,0,0.390625,0.062037036,0.08020833,0.2851852
000022,168.88,pedestrian,0,0.7625,0.5083333,0.08958333,0.31851852
000023,170.08,pedestrian,0,0.14479166,0.17037037,0.035416666,0.12592593
000023,170.08,pedestrian,0,0.78697914,0.2537037,0.043229166,0.15277778
000023,170.08,pedestrian,0,0.5265625,0.046296295,0.0578125,0.20555556
000023,170.08,pedestrian,0,0.24479167,0.42222223,0.07447917,0.2638889
000023,170.08,pedestrian,0,0.49635416,0.037037037,0.0625,0.22314815
000023,170.08,pedestrian,0,0.465625,0,0.065625,0.23333333
000023,170.08,pedestrian,0,0.14947917,0.0129629625,0.059895832,0.21296297
000023,170.08,pedestrian,0,0.035416666,0.06851852,0.06614583,0.23425926
000023,170.08,pedestrian,0,0.87916666,0.40185186,0.07447917,0.2638889
000023,170.08,pedestrian,0,0.19375,0.31388888,0.0796875,0.28333333
000023,170.08,pedestrian,0,0.18489583,0.51111114,0.08229167,0.29259259
000024,170.38,pedestrian,0,0.7859375,0.24722221,0.044791665,0.16018519
000024,170.38,pedestrian,0,0.9166667,0.014814815,0.045833334,0.16296296
000024,170.38,pedestrian,0,0.15364583,0.022222223,0.055729166,0.19814815
000024,170.38,pedestrian,0,0.5239583,0.037037037,0.059895832,0.21296297
000024,170.38,pedestrian,0,0.5026042,0.36666667,0.054166667,0.19351852
000024,170.38,pedestrian,0,0.49166667,0.030555556,0.06302083,0.22314815
000024,170.38,pedestrian,0,0.23645833,0.44074073,0.0765625,0.2712963
000024,170.38,pedestrian,0,0.19114584,0.4324074,0.077083334,0.27407408
000024,170.38,pedestrian,0,0.42239583,0.40185186,0.07395833,0.26203704
000024,170.38,pedestrian,0,0.878125,0.3962963,0.0765625,0.27222222
000024,170.38,pedestrian,0,0.21875,0.5,0.079166666,0.2824074
000024,170.38,pedestrian,0,0.19583334,0.28425926,0.0953125,0.33888888
000025,169.99,pedestrian,0,0.9078125,0.11296296,0.038020834,0.13518518
000025,169.99,pedestrian,0,0.78697914,0.25185186,0.043229166,0.1537037
000025,169.99,pedestrian,0,0.15989584,0.027777778,0.046875,0.16666667
000025,169.99,pedestrian,0,0.27604166,0.6157407,0.0453125,0.16203703
000025,169.99,pedestrian,0,0.51666665,0.033333335,0.061979167,0.22037037
000025,169.99,pedestrian,0,0.8979167,0.05,0.059895832,0.21296297
000025,169.99,pedestrian,0,0.48385417,0.022222223,0.06302083,0.22407408
000025,169.99,pedestrian,0,0.4234375,0.41296297,0.07447917,0.26481482
000025,169.99,pedestrian,0,0.22447917,0.45555556,0.079166666,0.28055555
000025,169.99,pedestrian,0,0.80052084,0.5472222,0.08125,0.2888889
000025,169.99,pedestrian,0,0.878125,0.3962963,0.0765625,0.27222222
000025,169.99,pedestrian,0,0.20989583,0.2685185,0.07864583,0.2787037
000025,169.99,pedestrian,0,0.178125,0.4398148,0.08385417,0.29722223
000026,170.85,pedestrian,0,0.7864583,0.24814814,0.044270832,0.1574074
000026,170.85,pedestrian,0,0.15677084,0.026851851,0.046875,0.1675926
000026,170.85,pedestrian,0,0.5130208,0.025,0.060416665,0.21388888
000026,170.85,pedestrian,0,0.55677086,0.4037037,0.049479168,0.17592593
000026,170.85,pedestrian,0,0.2484375,0.06111111,0.057291668,0.2037037
000026,170.85,pedestrian,0,0.9078125,0.07037037,0.0546875,0.19444445
000026,170.85,pedestrian,0,0.21875,0.5009259,0.069270834,0.2462963
000026,170.85,pedestrian,0,0.47760418,0.0074074073,0.06666667,0.23796296
000026,170.85,pedestrian,0,0.035416666,0.06851852,0.06614583,0.23425926
000026,170.85,pedestrian,0,0.2140625,0.25555557,0.075,0.26666668
000026,170.85,pedestrian,0,0.87916666,0.39537036,0.07447917,0.26481482
000026,170.85,pedestrian,0,0.16354166,0.45740741,0.083333336,0.2962963
000026,170.85,pedestrian,0,0.42291668,0.42592594,0.080729164,0.28611112
000026,170.85,pedestrian,0,0.81145835,0.55833334,0.0828125,0.29444444
000027,171.90,pedestrian,0,0.7875,0.25185186,0.043229166,0.1537037
000027,171.90,pedestrian,0,0.8411458,0.0046296297,0.0546875,0.19537038
000027,171.90,pedestrian,0,0.5104167,0.014814815,0.061979167,0.22037037
000027,171.90,pedestrian,0,0.9109375,0.08425926,0.054166667,0.19351852
000027,171.90,pedestrian,0,0.48072916,0,0.0625,0.22222222
000027,171.90,pedestrian,0,0.20885417,0.5092593,0.075520836,0.26759258
000027,171.90,pedestrian,0,0.035416666,0.06851852,0.06614583,0.23425926
000027,171.90,pedestrian,0,0.21458334,0.23425926,0.078125,0.27592593
000027,171.90,pedestrian,0,0.87708336,0.38981482,0.07864583,0.27962962
000027,171.90,pedestrian,0,0.1484375,0.47777778,0.08541667,0.3037037
000027,171.90,pedestrian,0,0.42291668,0.44074073,0.08125,0.2888889
000028,170.41,pedestrian,0,0.7875,0.25185186,0.043229166,0.1537037
000028,170.41,pedestrian,0,0.15833333,0.03425926,0.0421875,0.14907408
000028,170.41,pedestrian,0,0.5052083,0.0074074073,0.0609375,0.21574074
000028,170.41,pedestrian,0,0.8463542,0.028703704,0.055208333,0.19629629
000028,170.41,pedestrian,0,0.47916666,0,0.056770835,0.20277777
000028,170.41,pedestrian,0,0.19947916,0.53333336,0.071875,0.25555557
000028,170.41,pedestrian,0,0.035416666,0.06851852,0.06614583,0.23425926
000028,170.41,pedestrian,0,0.140625,0.50555557,0.080729164,0.28611112
000028,170.41,pedestrian,0,0.21927084,0.21574074,0.069270834,0.2462963
000028,170.41,pedestrian,0,0.878125,0.3888889,0.078125,0.2777778
000028,170.41,pedestrian,0,0.8203125,0.54444444,0.083333336,0.29537037
000029,168.79,pedestrian,0,0.7864583,0.24814814,0.044270832,0.1574074
000029,168.79,pedestrian,0,0.51145834,0.0046296297,0.056770835,0.20185184
000029,168.79,pedestrian,0,0.1890625,0.58981484,0.0671875,0.23888889
000029,168.79,pedestrian,0,0.90625,0.09351852,0.059375,0.21111111
000029,168.79,pedestrian,0,0.035416666,0.06851852,0.06614583,0.23425926
000029,168.79,pedestrian,0,0.3640625,0.4925926,0.071354166,0.25277779
000029,168.79,pedestrian,0,0.87864584,0.39444444,0.0765625,0.27222222
000029,168.79,pedestrian,0,0.43125,0.4787037,0.07760417,0.275
000029,168.79,pedestrian,0,0.13072917,0.5240741,0.08541667,0.30277777
000029,168.79,pedestrian,0,0.46822917,0.49166667,0.0828125,0.2935185
000029,168.79,pedestrian,0,0.81041664,0.53518516,0.08802083,0.31203705
000030,170.06,pedestrian,0,0.7864583,0.24814814,0.044270832,0.1574074
000030,170.06,pedestrian,0,0.5130208,0.0037037036,0.052083332,0.18518518
000030,170.06,pedestrian,0,0.8203125,0.5712963,0.046354167,0.16481481
000030,170.06,pedestrian,0,0.86614585,0.06574074,0.05625,0.2
000030,170.06,pedestrian,0,0.2171875,0.18148148,0.071875,0.25555557
000030,170.06,pedestrian,0,0.035416666,0.06851852,0.06614583,0.23425926
000030,170.06,pedestrian,0,0.37395832,0.4861111,0.0796875,0.28333333
000030,170.06,pedestrian,0,0.87916666,0.39814815,0.075,0.26574075
000030,170.06,pedestrian,0,0.47760418,0.50648147,0.083333336,0.2962963
000030,170.06,pedestrian,0,0.123958334,0.5509259,0.0875,0.3101852
000030,170.06,pedestrian,0,0.16770834,0.5694444,0.084375,0.3
000031,170.90,pedestrian,0,0.78697914,0.25185186,0.043229166,0.1537037
000031,170.90,pedestrian,0,0.81875,0.5787037,0.040104166,0.1425926
000031,170.90,pedestrian,0,0.134375,0.09259259,0.059895832,0.21296297
000031,170.90,pedestrian,0,0.2171875,0.16481481,0.067708336,0.23981482
000031,170.90,pedestrian,0,0.1125,0.58148146,0.08645833,0.3074074
000031,170.90,pedestrian,0,0.2171875,0.014814815,0.06614583,0.23425926
000031,170.90,pedestrian,0,0.033333335,0.06759259,0.067708336,0.24074075
000031,170.90,pedestrian,0,0.87916666,0.39814815,0.075,0.26574075
000031,170.90,pedestrian,0,0.1578125,0.5962963,0.0828125,0.2935185
000031,170.90,pedestrian,0,0.44427082,0.5222222,0.080729164,0.28611112
000031,170.90,pedestrian,0,0.38802084,0.49444443,0.08541667,0.30462962
000032,170.51,pedestrian,0,0.78697914,0.25185186,0.043229166,0.1537037
000032,170.51,pedestrian,0,0.033333335,0.06759259,0.067708336,0.24074075
000032,170.51,pedestrian,0,0.21875,0.14629629,0.06614583,0.23425926
000032,170.51,pedestrian,0,0.88072914,0.40185186,0.0734375,0.2611111
000032,170.51,pedestrian,0,0.453125,0.5425926,0.083333336,0.2962963
000032,170.51,pedestrian,0,0.49375,0.5574074,0.0796875,0.2824074
000032,170.51,pedestrian,0,0.10520833,0.5962963,0.08958333,0.31851852
000032,170.51,pedestrian,0,0.39791667,0.4962963,0.08958333,0.31851852
000032,170.51,pedestrian,0,0.1484375,0.6203704,0.09166667,0.325
000033,171.58,pedestrian,0,0.7864583,0.24907407,0.044270832,0.15648147
000033,171.58,pedestrian,0,0.8125,0.56666666,0.036979165,0.13055556
000033,171.58,pedestrian,0,0.8119792,0.525,0.05,0.17777778
000033,171.58,pedestrian,0,0.884375,0.12222222,0.0671875,0.23796296
000033,171.58,pedestrian,0,0.2171875,0,0.06302083,0.22314815
000033,171.58,pedestrian,0,0.033333335,0.06759259,0.067708336,0.24074075
000033,171.58,pedestrian,0,0.9171875,0.3101852,0.06822917,0.24166666
000033,171.58,pedestrian,0,0.87864584,0.39444444,0.0765625,0.27222222
000033,171.58,pedestrian,0,0.39895833,0.51574075,0.08541667,0.3037037
000033,171.58,pedestrian,0,0.45572916,0.56296295,0.084375,0.3
000033,171.58,pedestrian,0,0.094791666,0.6203704,0.09010417,0.32037038
000033,171.58,pedestrian,0,0.13541667,0.6324074,0.09583333,0.34074074
000034,170.94,pedestrian,0,0.7864583,0.24907407,0.044270832,0.15648147
000034,170.94,pedestrian,0,0.82135415,0.56574076,0.0390625,0.13796297
000034,170.94,pedestrian,0,0.8901042,0.14629629,0.061458334,0.21851853
000034,170.94,pedestrian,0,0.033333335,0.06759259,0.067708336,0.24074075
000034,170.94,pedestrian,0,0.40572917,0.52962965,0.0828125,0.29444444
000034,170.94,pedestrian,0,0.87864584,0.3888889,0.0796875,0.2824074
000034,170.94,pedestrian,0,0.0921875,0.65,0.09010417,0.32037038
000034,170.94,pedestrian,0,0.7916667,0.53425926,0.08020833,0.2851852
000035,171.34,pedestrian,0,0.7864583,0.24907407,0.044270832,0.15648147
000035,171.34,pedestrian,0,0.82604164,0.5703704,0.036458332,0.1287037
000035,171.34,pedestrian,0,0.89479166,0.16111112,0.059895832,0.21388888
000035,171.34,pedestrian,0,0.19322917,0.16111112,0.058333334,0.2074074
000035,171.34,pedestrian,0,0.033333335,0.06759259,0.067708336,0.24074075
000035,171.34,pedestrian,0,0.409375,0.53333336,0.0828125,0.29444444
000035,171.34,pedestrian,0,0.0859375,0.6703704,0.08645833,0.3074074
000035,171.34,pedestrian,0,0.4640625,0.61203706,0.092708334,0.33055556
000036,170.34,pedestrian,0,0.78697914,0.25185186,0.043229166,0.1537037
000036,170.34,pedestrian,0,0.82604164,0.5675926,0.036458332,0.1287037
000036,170.34,pedestrian,0,0.82135415,0.6481481,0.0421875,0.14907408
000036,170.34,pedestrian,0,0.033854168,0.06574074,0.06822917,0.24259259
000036,170.34,pedestrian,0,0.884375,0.41111112,0.06666667,0.23703703
000036,170.34,pedestrian,0,0.4078125,0.537963,0.08177083,0.29074073
000036,170.34,pedestrian,0,0.4765625,0.6324074,0.08958333,0.3175926
000037,169.73,pedestrian,0,0.78697914,0.25185186,0.043229166,0.1537037
000037,169.73,pedestrian,0,0.83125,0.55185187,0.040104166,0.14166667
000037,169.73,pedestrian,0,0.82708335,0.64444447,0.041145835,0.14537036
000037,169.73,pedestrian,0,0.86510414,0.24166666,0.06875,0.24351852
000037,169.73,pedestrian,0,0.91041666,0.18148148,0.06302083,0.22314815
000037,169.73,pedestrian,0,0.033854168,0.06574074,0.06822917,0.24259259
000037,169.73,pedestrian,0,0.38854167,0.51574075,0.0921875,0.32777777
000038,169.74,pedestrian,0,0.78697914,0.25185186,0.043229166,0.1537037
000038,169.74,pedestrian,0,0.8390625,0.55277777,0.0375,0.13333334
000038,169.74,pedestrian,0,0.83177084,0.6472222,0.0390625,0.1388889
000038,169.74,pedestrian,0,0.5703125,0.83148146,0.042708334,0.15185185
000038,169.74,pedestrian,0,0.8578125,0.22685185,0.06875,0.24351852
000038,169.74,pedestrian,0,0.88385415,0.4101852,0.06822917,0.24166666
000038,169.74,pedestrian,0,0.37395832,0.5222222,0.084375,0.3
000039,168.15,pedestrian,0,0.7875,0.25277779,0.043229166,0.15462963
000039,168.15,pedestrian,0,0.8520833,0.21851853,0.06458333,0.22870371
000039,168.15,pedestrian,0,0.35833332,0.51944447,0.0828125,0.29444444
000040,170.34,pedestrian,0,0.7875,0.2537037,0.042708334,0.15185185
000040,170.34,pedestrian,0,0.20416667,0.016666668,0.0609375,0.2175926
000040,170.34,pedestrian,0,0.8489583,0.20092593,0.0671875,0.23888889
000041,171.20,pedestrian,0,0.78489584,0.25092593,0.043229166,0.1537037
000041,171.20,pedestrian,0,0.703125,0.21018519,0.044791665,0.15925926
000041,171.20,pedestrian,0,0.32395834,0.2574074,0.050520834,0.17962962
000041,171.20,pedestrian,0,0.846875,0.17962962,0.0671875,0.23888889
000041,171.20,pedestrian,0,0.175,0.23148148,0.067708336,0.24074075
000041,171.20,pedestrian,0,0.40104166,0.097222224,0.069270834,0.2462963
000041,171.20,pedestrian,0,0.8755208,0.38518518,0.08177083,0.2898148
000041,171.20,pedestrian,0,0.596875,0.26018518,0.08958333,0.3175926
000042,169.35,pedestrian,0,0.78489584,0.24907407,0.044270832,0.15648147
000042,169.35,pedestrian,0,0.703125,0.21018519,0.044791665,0.15925926
000042,169.35,pedestrian,0,0.32395834,0.2574074,0.050520834,0.17962962
000042,169.35,pedestrian,0,0.8385417,0.16851851,0.06614583,0.23425926
000042,169.35,pedestrian,0,0.875,0.38333333,0.0828125,0.29444444
000042,169.35,pedestrian,0,0.28177083,0.4675926,0.08177083,0.29074073
000042,169.35,pedestrian,0,0.596875,0.26018518,0.08958333,0.3175926
000043,168.99,pedestrian,0,0.78489584,0.25,0.044270832,0.1574074
000043,168.99,pedestrian,0,0.703125,0.21018519,0.044791665,0.15925926
000043,168.99,pedestrian,0,0.32395834,0.2574074,0.050520834,0.17962962
000043,168.99,pedestrian,0,0.8354167,0.15555556,0.06302083,0.22407408
000043,168.99,pedestrian,0,0.259375,0.47037038,0.078125,0.27685186
000043,168.99,pedestrian,0,0.8744792,0.38148147,0.083333336,0.2962963
000043,168.99,pedestrian,0,0.59739584,0.25925925,0.0875,0.31111112
000044,168.51,pedestrian,0,0.784375,0.24907407,0.044791665,0.15833333
000044,168.51,pedestrian,0,0.32395834,0.2574074,0.050520834,0.17962962
000044,168.51,pedestrian,0,0.83020836,0.14907408,0.06302083,0.225
000044,168.51,pedestrian,0,0.15885417,0.2777778,0.065104164,0.23055555
000044,168.51,pedestrian,0,0.40416667,0.1037037,0.0671875,0.23888889
000044,168.51,pedestrian,0,0.878125,0.38425925,0.079166666,0.28148147
000044,168.51,pedestrian,0,0.22708334,0.46388888,0.083333336,0.2962963
000044,168.51,pedestrian,0,0.59739584,0.25925925,0.0875,0.31111112
000045,169.33,pedestrian,0,0.7864583,0.2537037,0.042708334,0.15185185
000045,169.33,pedestrian,0,0.32395834,0.2574074,0.050520834,0.17962962
000045,169.33,pedestrian,0,0.83229166,0.13055556,0.06302083,0.22407408
000045,169.33,pedestrian,0,0.15416667,0.29537037,0.06614583,0.23425926
000045,169.33,pedestrian,0,0.40416667,0.1037037,0.0671875,0.23888889
000045,169.33,pedestrian,0,0.20989583,0.46388888,0.0796875,0.28333333
000045,169.33,pedestrian,0,0.878125,0.38518518,0.078125,0.2777778
000045,169.33,pedestrian,0,0.596875,0.26018518,0.08958333,0.3175926
000046,170.01,pedestrian,0,0.78541666,0.25092593,0.04375,0.15462963
000046,170.01,pedestrian,0,0.2125,0.117592596,0.0515625,0.18425927
000046,170.01,pedestrian,0,0.32395834,0.2574074,0.050520834,0.17962962
000046,170.01,pedestrian,0,0.83385414,0.117592596,0.063541666,0.22592592
000046,170.01,pedestrian,0,0.40416667,0.1037037,0.0671875,0.23888889
000046,170.01,pedestrian,0,0.18385416,0.45185184,0.088541664,0.31388888
000046,170.01,pedestrian,0,0.146875,0.31296295,0.069270834,0.2462963
000046,170.01,pedestrian,0,0.878125,0.38518518,0.078125,0.2777778
000046,170.01,pedestrian,0,0.59739584,0.25925925,0.0875,0.31111112
000047,172.06,pedestrian,0,0.78489584,0.24907407,0.044270832,0.15648147
000047,172.06,pedestrian,0,0.21354167,0.13240741,0.0484375,0.17222223
000047,172.06,pedestrian,0,0.32395834,0.2574074,0.050520834,0.17962962
000047,172.06,pedestrian,0,0.14583333,0.33703703,0.061979167,0.22037037
000047,172.06,pedestrian,0,0.17760417,0.46666667,0.084895834,0.30092594
000047,172.06,pedestrian,0,0.878125,0.38518518,0.078125,0.2777778
000047,172.06,pedestrian,0,0.59739584,0.26296297,0.0859375,0.30555555
000048,167.83,pedestrian,0,0.78697914,0.25555557,0.0421875,0.15
000048,167.83,pedestrian,0,0.2109375,0.13981481,0.050520834,0.17962962
000048,167.83,pedestrian,0,0.32604167,0.25833333,0.049479168,0.175
000048,167.83,pedestrian,0,0.1828125,0.48981482,0.0703125,0.24907407
000048,167.83,pedestrian,0,0.13489583,0.33055556,0.075,0.26481482
000048,167.83,pedestrian,0,0.878125,0.38518518,0.078125,0.2777778
000048,167.83,pedestrian,0,0.59739584,0.26296297,0.0859375,0.30555555
000049,168.16,pedestrian,0,0.7864583,0.2537037,0.042708334,0.15185185
000049,168.16,pedestrian,0,0.15,0.17777778,0.044270832,0.1574074
000049,168.16,pedestrian,0,0.20833333,0.15277778,0.049479168,0.17592593
000049,168.16,pedestrian,0,0.32604167,0.25833333,0.049479168,0.175
000049,168.16,pedestrian,0,0.23489584,0.1388889,0.056770835,0.20277777
000049,168.16,pedestrian,0,0.184375,0.47407407,0.08541667,0.30277777
000049,168.16,pedestrian,0,0.13541667,0.3564815,0.071875,0.25555557
000049,168.16,pedestrian,0,0.878125,0.38518518,0.078125,0.2777778
000049,168.16,pedestrian,0,0.59739584,0.25925925,0.0875,0.31111112
000050,170.16,pedestrian,0,0.1640625,0.17962962,0.038020834,0.13518518
000050,170.16,pedestrian,0,0.7864583,0.2537037,0.042708334,0.15185185
000050,170.16,pedestrian,0,0.32604167,0.25833333,0.049479168,0.175
000050,170.16,pedestrian,0,0.8197917,0.074074075,0.05625,0.20092593
000050,170.16,pedestrian,0,0.13697916,0.37592593,0.071354166,0.25185186
000050,170.16,pedestrian,0,0.20364584,0.47962964,0.0828125,0.2935185
000050,170.16,pedestrian,0,0.87708336,0.38148147,0.080729164,0.28611112
000050,170.16,pedestrian,0,0.59739584,0.25925925,0.0875,0.31111112
000050,170.16,pedestrian,0,0.575,0.6564815,0.086979166,0.30925927
000051,166.20,pedestrian,0,0.7864583,0.2537037,0.042708334,0.15185185
000051,166.20,pedestrian,0,0.32395834,0.2574074,0.050520834,0.17962962
000051,166.20,pedestrian,0,0.81927085,0.06388889,0.0578125,0.20648149
000051,166.20,pedestrian,0,0.14270833,0.39907408,0.07083333,0.25092593
000051,166.20,pedestrian,0,0.22760417,0.4925926,0.08020833,0.28425926
000051,166.20,pedestrian,0,0.87708336,0.38333333,0.080729164,0.28703704
000051,166.20,pedestrian,0,0.55885416,0.625,0.0828125,0.29444444
000051,166.20,pedestrian,0,0.59739584,0.26296297,0.0859375,0.30555555
000051,166.20,pedestrian,0,0.5890625,0.59537035,0.088541664,0.3148148
000052,171.08,pedestrian,0,0.7859375,0.25092593,0.04375,0.15555556
000052,171.08,pedestrian,0,0.12760417,0.15277778,0.058854166,0.20925926
000052,171.08,pedestrian,0,0.1375,0.41574073,0.07395833,0.26203704
000052,171.08,pedestrian,0,0.25052083,0.49814814,0.0828125,0.29444444
000052,171.08,pedestrian,0,0.878125,0.38518518,0.078125,0.2777778
000052,171.08,pedestrian,0,0.54010415,0.5962963,0.084895834,0.30092594
000052,171.08,pedestrian,0,0.59739584,0.25925925,0.0875,0.31111112
000053,170.40,pedestrian,0,0.7864583,0.2537037,0.0421875,0.15
000053,170.40,pedestrian,0,0.703125,0.21018519,0.044791665,0.15925926
000053,170.40,pedestrian,0,0.13385417,0.15925926,0.051041666,0.18148148
000053,170.40,pedestrian,0,0.13854167,0.43796295,0.071354166,0.2537037
000053,170.40,pedestrian,0,0.87708336,0.38333333,0.080729164,0.28703704
000053,170.40,pedestrian,0,0.59739584,0.26203704,0.08645833,0.30648148
000053,170.40,pedestrian,0,0.27552083,0.49814814,0.083333336,0.2962963
000053,170.40,pedestrian,0,0.52239585,0.5685185,0.0859375,0.30555555
000054,170.41,pedestrian,0,0.7864583,0.25277779,0.042708334,0.15185185
000054,170.41,pedestrian,0,0.703125,0.21018519,0.044791665,0.15925926
000054,170.41,pedestrian,0,0.13489583,0.15833333,0.050520834,0.18055555
000054,170.41,pedestrian,0,0.3234375,0.25555557,0.051041666,0.18148148
000054,170.41,pedestrian,0,0.16145833,0.15185185,0.056770835,0.20277777
000054,170.41,pedestrian,0,0.20364584,0.060185187,0.06302083,0.22407408
000054,170.41,pedestrian,0,0.13125,0.4537037,0.077083334,0.27314815
000054,170.41,pedestrian,0,0.8765625,0.38425925,0.08125,0.2888889
000054,170.41,pedestrian,0,0.59739584,0.25833333,0.0875,0.31111112
000054,170.41,pedestrian,0,0.5046875,0.53425926,0.0921875,0.32777777
000055,169.12,pedestrian,0,0.7864583,0.25277779,0.042708334,0.15185185
000055,169.12,pedestrian,0,0.703125,0.21018519,0.044791665,0.15925926
000055,169.12,pedestrian,0,0.13333334,0.1574074,0.053645834,0.19166666
000055,169.12,pedestrian,0,0.49479166,0.51574075,0.08177083,0.2898148
000055,169.12,pedestrian,0,0.12604167,0.46851853,0.079166666,0.28055555
000055,169.12,pedestrian,0,0.8755208,0.38055557,0.083333336,0.29537037
000055,169.12,pedestrian,0,0.528125,0.4888889,0.096354164,0.34166667
000055,169.12,pedestrian,0,0.59739584,0.25833333,0.0875,0.31111112
000056,168.15,pedestrian,0,0.7864583,0.25277779,0.042708334,0.15185185
000056,168.15,pedestrian,0,0.703125,0.21018519,0.044791665,0.15925926
000056,168.15,pedestrian,0,0.7234375,0.0074074073,0.0625,0.22222222
000056,168.15,pedestrian,0,0.123958334,0.49351853,0.078125,0.2777778
000056,168.15,pedestrian,0,0.8765625,0.38425925,0.08125,0.2888889
000056,168.15,pedestrian,0,0.478125,0.48518518,0.08802083,0.31296295
000056,168.15,pedestrian,0,0.59739584,0.25833333,0.0875,0.31111112
000056,168.15,pedestrian,0,0.51666665,0.46388888,0.0953125,0.33888888
000057,172.01,pedestrian,0,0.73125,0.011111111,0.0484375,0.17314816
000057,172.01,pedestrian,0,0.7864583,0.25277779,0.042708334,0.15185185
000057,172.01,pedestrian,0,0.703125,0.21018519,0.044791665,0.15925926
000057,172.01,pedestrian,0,0.18385416,0.25277779,0.052604165,0.18703704
000057,172.01,pedestrian,0,0.11875,0.51574075,0.0796875,0.28333333
000057,172.01,pedestrian,0,0.8765625,0.38425925,0.08125,0.2888889
000057,172.01,pedestrian,0,0.50885415,0.44074073,0.08958333,0.3175926
000057,172.01,pedestrian,0,0.46666667,0.46296296,0.08541667,0.30277777
000057,172.01,pedestrian,0,0.59583336,0.25833333,0.090625,0.32314816
000058,171.78,pedestrian,0,0.7864583,0.25277779,0.042708334,0.15185185
000058,171.78,pedestrian,0,0.703125,0.21018519,0.044791665,0.15925926
000058,171.78,pedestrian,0,0.72291666,0,0.054166667,0.19351852
000058,171.78,pedestrian,0,0.21145834,0.27037036,0.059895832,0.21296297
000058,171.78,pedestrian,0,0.45729166,0.44166666,0.08229167,0.29259259
000058,171.78,pedestrian,0,0.8765625,0.38425925,0.08125,0.2888889
000058,171.78,pedestrian,0,0.1203125,0.537037,0.08385417,0.29722223
000058,171.78,pedestrian,0,0.5963542,0.2574074,0.0890625,0.3175926
000058,171.78,pedestrian,0,0.49791667,0.4212963,0.08645833,0.3074074
000059,174.27,pedestrian,0,0.7864583,0.25277779,0.042708334,0.15185185
000059,174.27,pedestrian,0,0.703125,0.21018519,0.044791665,0.15925926
000059,174.27,pedestrian,0,0.209375,0.2777778,0.06302083,0.22407408
000059,174.27,pedestrian,0,0.44947916,0.42314816,0.07864583,0.2787037
000059,174.27,pedestrian,0,0.878125,0.38518518,0.078125,0.2777778
000059,174.27,pedestrian,0,0.125,0.55833334,0.0859375,0.30648148
000059,174.27,pedestrian,0,0.5963542,0.2574074,0.0890625,0.3175926
000060,167.98,pedestrian,0,0.7864583,0.25277779,0.042708334,0.15185185
000060,167.98,pedestrian,0,0.703125,0.21018519,0.044270832,0.1574074
000060,167.98,pedestrian,0,0.81145835,0.0055555557,0.058333334,0.20833333
000060,167.98,pedestrian,0,0.165625,0.2898148,0.060416665,0.21481481
000060,167.98,pedestrian,0,0.4453125,0.4027778,0.0765625,0.2712963
000060,167.98,pedestrian,0,0.1328125,0.57314813,0.0859375,0.30555555
000060,167.98,pedestrian,0,0.878125,0.38518518,0.078125,0.2777778
000060,167.98,pedestrian,0,0.5963542,0.26018518,0.088541664,0.31388888
000061,170.56,pedestrian,0,0.7859375,0.25185186,0.043229166,0.1537037
000061,170.56,pedestrian,0,0.56666666,0.0046296297,0.0515625,0.18333334
000061,170.56,pedestrian,0,0.81875,0.024074074,0.055729166,0.19907407
000061,170.56,pedestrian,0,0.32604167,0.25833333,0.049479168,0.175
000061,170.56,pedestrian,0,0.4875,0.375,0.075520836,0.26759258
000061,170.56,pedestrian,0,0.203125,0.3101852,0.061979167,0.22037037
000061,170.56,pedestrian,0,0.17760417,0.073148146,0.061979167,0.21944444
000061,170.56,pedestrian,0,0.40885416,0.10092592,0.065104164,0.23055555
000061,170.56,pedestrian,0,0.4359375,0.3888889,0.072916664,0.25925925
000061,170.56,pedestrian,0,0.87864584,0.39259258,0.07604167,0.27037036
000061,170.56,pedestrian,0,0.13645834,0.5925926,0.09010417,0.32037038
000062,169.97,pedestrian,0,0.7859375,0.25185186,0.043229166,0.1537037
000062,169.97,pedestrian,0,0.56822914,0.009259259,0.055208333,0.19722222
000062,169.97,pedestrian,0,0.82135415,0.033333335,0.0546875,0.19444445
000062,169.97,pedestrian,0,0.88489586,0.08425926,0.05,0.17777778
000062,169.97,pedestrian,0,0.32604167,0.25833333,0.049479168,0.175
000062,169.97,pedestrian,0,0.16666667,0.3314815,0.05625,0.2
000062,169.97,pedestrian,0,0.096875,0.05185185,0.0515625,0.18425927
000062,169.97,pedestrian,0,0.40885416,0.10092592,0.065104164,0.23055555
000062,169.97,pedestrian,0,0.4296875,0.36296296,0.078125,0.2777778
000062,169.97,pedestrian,0,0.878125,0.39074075,0.077083334,0.27407408
000062,169.97,pedestrian,0,0.13645834,0.60925925,0.09166667,0.32685184
000063,171.31,pedestrian,0,0.7859375,0.25185186,0.043229166,0.1537037
000063,171.31,pedestrian,0,0.57239586,0.018518519,0.0578125,0.20555556
000063,171.31,pedestrian,0,0.83020836,0.053703703,0.054166667,0.19166666
000063,171.31,pedestrian,0,0.32604167,0.25833333,0.049479168,0.175
000063,171.31,pedestrian,0,0.16458334,0.3425926,0.059375,0.21111111
000063,171.31,pedestrian,0,0.428125,0.3462963,0.07239583,0.2574074
000063,171.31,pedestrian,0,0.40885416,0.10092592,0.065104164,0.23055555
000063,171.31,pedestrian,0,0.1734375,0.0712963,0.069270834,0.2462963
000063,171.31,pedestrian,0,0.878125,0.39074075,0.077083334,0.27407408
000063,171.31,pedestrian,0,0.14322917,0.6333333,0.09010417,0.3212963
000063,171.31,pedestrian,0,0.153125,0.17037037,0.12291667,0.43703705
000064,169.60,pedestrian,0,0.7859375,0.25185186,0.043229166,0.1537037
000064,169.60,pedestrian,0,0.8354167,0.06944445,0.053125,0.18981482
000064,169.60,pedestrian,0,0.32604167,0.25833333,0.049479168,0.175
000064,169.60,pedestrian,0,0.57447916,0.026851851,0.065104164,0.23148148
000064,169.60,pedestrian,0,0.89635414,0.096296296,0.058333334,0.20833333
000064,169.60,pedestrian,0,0.42708334,0.32314816,0.07395833,0.26296297
000064,169.60,pedestrian,0,0.40885416,0.10092592,0.065104164,0.23055555
000064,169.60,pedestrian,0,0.15625,0.35185185,0.06666667,0.23703703
000064,169.60,pedestrian,0,0.88072914,0.39259258,0.07395833,0.2611111
000064,169.60,pedestrian,0,0.63645834,0.69074076,0.07864583,0.2787037
000064,169.60,pedestrian,0,0.146875,0.6657407,0.09010417,0.32037038
000065,169.24,pedestrian,0,0.7859375,0.25,0.043229166,0.1537037
000065,169.24,pedestrian,0,0.32604167,0.25833333,0.049479168,0.175
000065,169.24,pedestrian,0,0.58489585,0.05648148,0.058333334,0.2074074
000065,169.24,pedestrian,0,0.84270835,0.08148148,0.055729166,0.19907407
000065,169.24,pedestrian,0,0.425,0.31203705,0.06666667,0.23703703
000065,169.24,pedestrian,0,0.409375,0.11018518,0.0609375,0.21574074
000065,169.24,pedestrian,0,0.15677084,0.36666667,0.063541666,0.22592592
000065,169.24,pedestrian,0,0.87916666,0.39074075,0.075520836,0.2685185
000065,169.24,pedestrian,0,0.1546875,0.71018517,0.07604167,0.2685185
000065,169.24,pedestrian,0,0.184375,0.35462964,0.07395833,0.26296297
000065,169.24,pedestrian,0,0.61875,0.6425926,0.0875,0.31111112
000065,169.24,pedestrian,0,0.81875,0.51944447,0.079166666,0.28055555
000066,169.00,pedestrian,0,0.7859375,0.25,0.043229166,0.1537037
000066,169.00,pedestrian,0,0.265625,0.17037037,0.052083332,0.18703704
000066,169.00,pedestrian,0,0.32604167,0.25833333,0.049479168,0.175
000066,169.00,pedestrian,0,0.59479165,0.06944445,0.058333334,0.2074074
000066,169.00,pedestrian,0,0.84739584,0.09351852,0.059895832,0.21296297
000066,169.00,pedestrian,0,0.9145833,0.12777779,0.05625,0.2
000066,169.00,pedestrian,0,0.18229167,0.75,0.053645834,0.18981482
000066,169.00,pedestrian,0,0.19166666,0.41203704,0.0625,0.2212963
000066,169.00,pedestrian,0,0.15520833,0.39814815,0.059895832,0.21296297
000066,169.00,pedestrian,0,0.240625,0.20185184,0.067708336,0.24074075
000066,169.00,pedestrian,0,0.8802083,0.38981482,0.07395833,0.26203704
000066,169.00,pedestrian,0,0.60520834,0.61203706,0.08958333,0.31944445
000067,168.71,pedestrian,0,0.7859375,0.25185186,0.043229166,0.1537037
000067,168.71,pedestrian,0,0.8578125,0.11296296,0.05625,0.19907407
000067,168.71,pedestrian,0,0.32604167,0.25833333,0.049479168,0.175
000067,168.71,pedestrian,0,0.6067708,0.09166667,0.056770835,0.20185184
000067,168.71,pedestrian,0,0.1484375,0.40555555,0.06458333,0.22962964
000067,168.71,pedestrian,0,0.24635416,0.21111111,0.06666667,0.23703703
000067,168.71,pedestrian,0,0.421875,0.2611111,0.06979167,0.2462963
000067,168.71,pedestrian,0,0.8796875,0.39259258,0.075,0.26666668
000067,168.71,pedestrian,0,0.5984375,0.5777778,0.08541667,0.30462962
000068,171.49,pedestrian,0,0.78489584,0.25,0.04375,0.15555556
000068,171.49,pedestrian,0,0.18333334,0.1537037,0.0484375,0.17314816
000068,171.49,pedestrian,0,0.8609375,0.12777779,0.059895832,0.21388888
000068,171.49,pedestrian,0,0.32604167,0.25833333,0.049479168,0.175
000068,171.49,pedestrian,0,0.246875,0.23703703,0.0625,0.2212963
000068,171.49,pedestrian,0,0.421875,0.24444444,0.0703125,0.25
000068,171.49,pedestrian,0,0.14791666,0.41944444,0.067708336,0.24074075
000068,171.49,pedestrian,0,0.88177085,0.3935185,0.071354166,0.25277779
000068,171.49,pedestrian,0,0.58697915,0.54444444,0.08802083,0.31203705
000069,170.92,pedestrian,0,0.7864583,0.25462964,0.0421875,0.14907408
000069,170.92,pedestrian,0,0.32604167,0.25833333,0.049479168,0.175
000069,170.92,pedestrian,0,0.8697917,0.1425926,0.059375,0.21111111
000069,170.92,pedestrian,0,0.1421875,0.4564815,0.061979167,0.22037037
000069,170.92,pedestrian,0,0.246875,0.25925925,0.059895832,0.21296297
000069,170.92,pedestrian,0,0.88177085,0.3935185,0.071354166,0.25277779
000069,170.92,pedestrian,0,0.58229166,0.5175926,0.083333336,0.29537037
000069,170.92,pedestrian,0,0.42083332,0.22592592,0.072916664,0.25833333
000070,170.23,pedestrian,0,0.78697914,0.25462964,0.041666668,0.14814815
000070,170.23,pedestrian,0,0.87604165,0.16296296,0.058333334,0.20833333
000070,170.23,pedestrian,0,0.32604167,0.25833333,0.049479168,0.175
000070,170.23,pedestrian,0,0.2390625,0.26203704,0.0671875,0.23703703
000070,170.23,pedestrian,0,0.1390625,0.4712963,0.067708336,0.23981482
000070,170.23,pedestrian,0,0.87916666,0.39444444,0.075,0.26481482
000070,170.23,pedestrian,0,0.17083333,0.43425927,0.07864583,0.2787037
000070,170.23,pedestrian,0,0.56822914,0.48703703,0.088541664,0.3148148
000070,170.23,pedestrian,0,0.28072917,0.46851853,0.083333336,0.29537037
