000001,87.79,pedestrian,0,0.44166666,0.074074075,0.06979167,0.24814814
000001,87.79,pedestrian,0,0.525,0.087037034,0.06979167,0.24814814
000001,87.79,pedestrian,0,0.26458332,0.1,0.06979167,0.24814814
000001,87.79,pedestrian,0,0.39270833,0.10555556,0.06979167,0.24814814
000001,87.79,pedestrian,0,0.10208333,0.32962963,0.075,0.26481482
000001,87.79,pedestrian,0,0.178125,0.35925925,0.078125,0.27962962
000001,87.79,pedestrian,0,0.69895834,0.5,0.083333336,0.29444444
000001,87.79,pedestrian,0,0.03125,0.47962964,0.08229167,0.29259259
000001,87.79,pedestrian,0,0.8833333,0.38703704,0.08020833,0.28333333
000002,69.21,pedestrian,0,0.44375,0.08148148,0.067708336,0.24074075
000002,69.21,pedestrian,0,0.25729167,0.1,0.06875,0.24444444
000002,69.21,pedestrian,0,0.39270833,0.10555556,0.06979167,0.24814814
000002,69.21,pedestrian,0,0.1,0.3314815,0.06979167,0.2462963
000002,69.21,pedestrian,0,0.17916666,0.34814814,0.08020833,0.28703704
000002,69.21,pedestrian,0,0.8822917,0.3962963,0.072916664,0.25925925
000002,69.21,pedestrian,0,0.69895834,0.49444443,0.08541667,0.3037037
000002,69.21,pedestrian,0,0.032291666,0.48333332,0.08125,0.2888889
000003,71.10,pedestrian,0,0.25208333,0.1037037,0.06875,0.24444444
000003,71.10,pedestrian,0,0.44583333,0.085185185,0.067708336,0.24074075
000003,71.10,pedestrian,0,0.390625,0.10555556,0.07083333,0.2537037
000003,71.10,pedestrian,0,0.090625,0.32222223,0.071875,0.2537037
000003,71.10,pedestrian,0,0.8802083,0.3962963,0.075,0.26666668
000003,71.10,pedestrian,0,0.033333335,0.48333332,0.08125,0.28703704
000003,71.10,pedestrian,0,0.18020834,0.32962963,0.083333336,0.29444444
000003,71.10,pedestrian,0,0.696875,0.49444443,0.08645833,0.30555555
000004,68.61,pedestrian,0,0.390625,0.10555556,0.07083333,0.2537037
000004,68.61,pedestrian,0,0.25104168,0.107407406,0.071875,0.2537037
000004,68.61,pedestrian,0,0.0875,0.3148148,0.075,0.26666668
000004,68.61,pedestrian,0,0.87916666,0.39444444,0.07604167,0.27037036
000004,68.61,pedestrian,0,0.7,0.5,0.079166666,0.2777778
000004,68.61,pedestrian,0,0.033333335,0.48333332,0.08125,0.28703704
000004,68.61,pedestrian,0,0.18125,0.32962963,0.08125,0.2888889
000005,69.09,pedestrian,0,0.390625,0.10555556,0.07083333,0.2537037
000005,69.09,pedestrian,0,0.25208333,0.11481482,0.07083333,0.25185186
000005,69.09,pedestrian,0,0.81354165,0.19444445,0.07083333,0.2537037
000005,69.09,pedestrian,0,0.18229167,0.3351852,0.08020833,0.2851852
000005,69.09,pedestrian,0,0.87916666,0.3962963,0.075,0.26666668
000005,69.09,pedestrian,0,0.033333335,0.48333332,0.08125,0.28703704
000005,69.09,pedestrian,0,0.083333336,0.3074074,0.077083334,0.27222222
000005,69.09,pedestrian,0,0.696875,0.49444443,0.08645833,0.30555555
000006,69.89,pedestrian,0,0.390625,0.10555556,0.07083333,0.2537037
000006,69.89,pedestrian,0,0.24791667,0.12222222,0.06875,0.24444444
000006,69.89,pedestrian,0,0.18125,0.32037038,0.08125,0.29074073
000006,69.89,pedestrian,0,0.87916666,0.3962963,0.075,0.26666668
000006,69.89,pedestrian,0,0.6958333,0.4962963,0.083333336,0.29444444
000006,69.89,pedestrian,0,0.033333335,0.48333332,0.08125,0.28703704
000007,69.17,pedestrian,0,0.39166668,0.10555556,0.072916664,0.25925925
000007,69.17,pedestrian,0,0.24479167,0.12222222,0.07083333,0.25
000007,69.17,pedestrian,0,0.08020833,0.31111112,0.071875,0.25555557
000007,69.17,pedestrian,0,0.18125,0.30925927,0.08229167,0.29074073
000007,69.17,pedestrian,0,0.87916666,0.3962963,0.075,0.26666668
000007,69.17,pedestrian,0,0.6979167,0.49444443,0.08541667,0.3037037
000007,69.17,pedestrian,0,0.032291666,0.47962964,0.08229167,0.29259259
000008,70.21,pedestrian,0,0.39270833,0.107407406,0.07083333,0.25185186
000008,70.21,pedestrian,0,0.43229166,0.11111111,0.067708336,0.24074075
000008,70.21,pedestrian,0,0.51458335,0.11481482,0.072916664,0.2574074
000008,70.21,pedestrian,0,0.24270834,0.12222222,0.07395833,0.2611111
000008,70.21,pedestrian,0,0.072916664,0.31111112,0.06979167,0.24814814
000008,70.21,pedestrian,0,0.18333334,0.3074074,0.08020833,0.2851852
000008,70.21,pedestrian,0,0.87916666,0.3962963,0.075,0.26666668
000008,70.21,pedestrian,0,0.696875,0.4962963,0.083333336,0.29444444
000008,70.21,pedestrian,0,0.03125,0.47962964,0.083333336,0.2962963
000009,70.07,pedestrian,0,0.39270833,0.10555556,0.06979167,0.24814814
000009,70.07,pedestrian,0,0.43541667,0.11666667,0.06979167,0.24814814
000009,70.07,pedestrian,0,0.515625,0.11851852,0.06979167,0.24814814
000009,70.07,pedestrian,0,0.24375,0.12962963,0.07083333,0.25185186
000009,70.07,pedestrian,0,0.18541667,0.29814816,0.08125,0.28703704
000009,70.07,pedestrian,0,0.8802083,0.39814815,0.072916664,0.25925925
000009,70.07,pedestrian,0,0.6979167,0.4962963,0.084375,0.29814816
000009,70.07,pedestrian,0,0.032291666,0.48333332,0.08229167,0.29259259
000010,68.85,pedestrian,0,0.390625,0.10555556,0.07083333,0.2537037
000010,68.85,pedestrian,0,0.425,0.11296296,0.07395833,0.26296297
000010,68.85,pedestrian,0,0.24270834,0.13518518,0.072916664,0.2574074
000010,68.85,pedestrian,0,0.74895835,0.17222223,0.06875,0.24444444
000010,68.85,pedestrian,0,0.19166666,0.3,0.077083334,0.27407408
000010,68.85,pedestrian,0,0.87916666,0.3962963,0.075,0.26666668
000010,68.85,pedestrian,0,0.6979167,0.5,0.08125,0.28703704
000010,68.85,pedestrian,0,0.032291666,0.4814815,0.08229167,0.29074073
000011,70.08,pedestrian,0,0.39166668,0.10555556,0.072916664,0.25925925
000011,70.08,pedestrian,0,0.240625,0.14074074,0.072916664,0.25925925
000011,70.08,pedestrian,0,0.7447917,0.16296296,0.06979167,0.2462963
000011,70.08,pedestrian,0,0.19270833,0.29814816,0.077083334,0.27407408
000011,70.08,pedestrian,0,0.8802083,0.39814815,0.072916664,0.25925925
000011,70.08,pedestrian,0,0.032291666,0.4814815,0.08125,0.28703704
000011,70.08,pedestrian,0,0.6927083,0.49074075,0.08645833,0.3074074
000012,69.70,pedestrian,0,0.23854166,0.1425926,0.072916664,0.2611111
000012,69.70,pedestrian,0,0.7375,0.1574074,0.071875,0.2537037
000012,69.70,pedestrian,0,0.055208333,0.2851852,0.07395833,0.26296297
000012,69.70,pedestrian,0,0.19375,0.28703704,0.078125,0.27592593
000012,69.70,pedestrian,0,0.8802083,0.39814815,0.072916664,0.25925925
000012,69.70,pedestrian,0,0.70104164,0.5,0.083333336,0.29444444
000012,69.70,pedestrian,0,0.032291666,0.48333332,0.08125,0.28703704
000013,67.38,pedestrian,0,0.50208336,0.1388889,0.067708336,0.24074075
000013,67.38,pedestrian,0,0.24166666,0.14814815,0.07083333,0.25
000013,67.38,pedestrian,0,0.73541665,0.1574074,0.07083333,0.2537037
000013,67.38,pedestrian,0,0.60625,0.24814814,0.06979167,0.24814814
000013,67.38,pedestrian,0,0.19375,0.28333333,0.075,0.26666668
000013,67.38,pedestrian,0,0.88125,0.40185186,0.072916664,0.25925925
000013,67.38,pedestrian,0,0.7,0.5,0.083333336,0.2962963
000013,67.38,pedestrian,0,0.032291666,0.48333332,0.08125,0.28703704
000014,69.66,pedestrian,0,0.49895832,0.1388889,0.06875,0.2462963
000014,69.66,pedestrian,0,0.24166666,0.15185185,0.072916664,0.25925925
000014,69.66,pedestrian,0,0.725,0.15555556,0.071875,0.25555557
000014,69.66,pedestrian,0,0.19583334,0.28333333,0.075,0.26666668
000014,69.66,pedestrian,0,0.8802083,0.39814815,0.072916664,0.25925925
000014,69.66,pedestrian,0,0.6927083,0.47962964,0.088541664,0.3148148
000014,69.66,pedestrian,0,0.033333335,0.48333332,0.08125,0.28703704
000015,68.13,pedestrian,0,0.496875,0.1388889,0.071875,0.25555557
000015,68.13,pedestrian,0,0.24479167,0.1574074,0.072916664,0.2574074
000015,68.13,pedestrian,0,0.19479166,0.26666668,0.079166666,0.28333333
000015,68.13,pedestrian,0,0.8802083,0.39814815,0.072916664,0.25925925
000015,68.13,pedestrian,0,0.6927083,0.4611111,0.09583333,0.33888888
000015,68.13,pedestrian,0,0.03125,0.47962964,0.08229167,0.29444444
000016,67.87,pedestrian,0,0.48958334,0.14629629,0.071875,0.2537037
000016,67.87,pedestrian,0,0.24583334,0.16111112,0.071875,0.25555557
000016,67.87,pedestrian,0,0.20104167,0.26666668,0.075,0.26481482
000016,67.87,pedestrian,0,0.87916666,0.3962963,0.075,0.26666668
000016,67.87,pedestrian,0,0.032291666,0.48333332,0.08125,0.2888889
000016,67.87,pedestrian,0,0.69166666,0.4462963,0.10520833,0.37222221
000017,72.25,pedestrian,0,0.39791667,0.11851852,0.07395833,0.2611111
000017,72.25,pedestrian,0,0.48333332,0.14629629,0.071875,0.25555557
000017,72.25,pedestrian,0,0.7083333,0.15,0.06979167,0.24814814
000017,72.25,pedestrian,0,0.246875,0.17037037,0.072916664,0.25925925
000017,72.25,pedestrian,0,0.20416667,0.26666668,0.075,0.26666668
000017,72.25,pedestrian,0,0.87916666,0.3962963,0.075,0.26666668
000017,72.25,pedestrian,0,0.032291666,0.48333332,0.08125,0.28703704
000017,72.25,pedestrian,0,0,0.6203704,0.071875,0.25555557
000017,72.25,pedestrian,0,0.68645835,0.42592594,0.11354167,0.40185186
000018,69.70,pedestrian,0,0.39583334,0.11296296,0.07604167,0.2685185
000018,69.70,pedestrian,0,0.48125,0.14814815,0.06979167,0.24814814
000018,69.70,pedestrian,0,0.24791667,0.17962962,0.07395833,0.2611111
000018,69.70,pedestrian,0,0.20416667,0.2611111,0.07604167,0.2685185
000018,69.70,pedestrian,0,0.8802083,0.39814815,0.072916664,0.25925925
000018,69.70,pedestrian,0,0.032291666,0.48333332,0.08125,0.2888889
000018,69.70,pedestrian,0,0,0.61296296,0.072916664,0.2574074
000018,69.70,pedestrian,0,0.6947917,0.45185184,0.10208333,0.3611111
000019,69.92,pedestrian,0,0.39479166,0.107407406,0.078125,0.27592593
000019,69.92,pedestrian,0,0.47395834,0.15185185,0.06979167,0.24814814
000019,69.92,pedestrian,0,0.24895833,0.18703704,0.06979167,0.24814814
000019,69.92,pedestrian,0,0.20416667,0.24814814,0.072916664,0.2574074
000019,69.92,pedestrian,0,0.87916666,0.3962963,0.075,0.26666668
000019,69.92,pedestrian,0,0.032291666,0.48333332,0.08125,0.2888889
000019,69.92,pedestrian,0,0.004166667,0.6,0.07604167,0.27037036
000019,69.92,pedestrian,0,0.6947917,0.45185184,0.10208333,0.3611111
000020,69.20,pedestrian,0,0.471875,0.15555556,0.06875,0.24444444
000020,69.20,pedestrian,0,0.25,0.17962962,0.07604167,0.2685185
000020,69.20,pedestrian,0,0.203125,0.24074075,0.07604167,0.27037036
000020,69.20,pedestrian,0,0.87916666,0.3962963,0.075,0.26666668
000020,69.20,pedestrian,0,0.023958333,0.47407407,0.09166667,0.32407406
000020,69.20,pedestrian,0,0.38958332,0.096296296,0.084375,0.3
000020,69.20,pedestrian,0,0.19270833,0.7111111,0.077083334,0.27407408
000020,69.20,pedestrian,0,0.6947917,0.45185184,0.10208333,0.3611111
000021,69.71,pedestrian,0,0.4625,0.15925926,0.071875,0.25555557
000021,69.71,pedestrian,0,0.25520834,0.19259259,0.071875,0.25555557
000021,69.71,pedestrian,0,0.20416667,0.23703703,0.077083334,0.27222222
000021,69.71,pedestrian,0,0.8802083,0.39814815,0.072916664,0.25925925
000021,69.71,pedestrian,0,0.3875,0.10185185,0.083333336,0.2962963
000021,69.71,pedestrian,0,0.017708333,0.46296296,0.104166664,0.36851853
000021,69.71,pedestrian,0,0.68958336,0.43333334,0.109375,0.3888889
000022,69.51,pedestrian,0,0.25625,0.19629629,0.072916664,0.25925925
000022,69.51,pedestrian,0,0.20416667,0.22962964,0.075,0.26666668
000022,69.51,pedestrian,0,0.8802083,0.39814815,0.072916664,0.25925925
000022,69.51,pedestrian,0,0.38333333,0.1,0.08645833,0.3074074
000022,69.51,pedestrian,0,0.19166666,0.6851852,0.083333336,0.2962963
000022,69.51,pedestrian,0,0.01875,0.4611111,0.10520833,0.37222221
000022,69.51,pedestrian,0,0.6947917,0.45185184,0.10208333,0.3611111
000023,69.13,pedestrian,0,0.16354166,0.05925926,0.067708336,0.24074075
000023,69.13,pedestrian,0,0.38541666,0.1,0.08125,0.2888889
000023,69.13,pedestrian,0,0.25729167,0.2,0.075,0.26481482
000023,69.13,pedestrian,0,0.20416667,0.23148148,0.072916664,0.25925925
000023,69.13,pedestrian,0,0.87916666,0.3962963,0.075,0.26666668
000023,69.13,pedestrian,0,0.030208332,0.47407407,0.08229167,0.29259259
000023,69.13,pedestrian,0,0.18958333,0.662963,0.0875,0.31111112
000023,69.13,pedestrian,0,0.6947917,0.45185184,0.10208333,0.3611111
000024,67.61,pedestrian,0,0.38333333,0.098148145,0.083333336,0.2962963
000024,67.61,pedestrian,0,0.44479167,0.16111112,0.06875,0.2462963
000024,67.61,pedestrian,0,0.25729167,0.21481481,0.06875,0.2462963
000024,67.61,pedestrian,0,0.87916666,0.3962963,0.075,0.26666668
000024,67.61,pedestrian,0,0.203125,0.22407408,0.07395833,0.2611111
000024,67.61,pedestrian,0,0.032291666,0.47962964,0.078125,0.2777778
000024,67.61,pedestrian,0,0.051041666,0.5537037,0.077083334,0.27407408
000024,67.61,pedestrian,0,0.18854167,0.65185183,0.08958333,0.31666666
000024,67.61,pedestrian,0,0.6947917,0.45185184,0.10208333,0.3611111
000025,68.65,pedestrian,0,0.390625,0.10925926,0.06979167,0.24814814
000025,68.65,pedestrian,0,0.4375,0.1537037,0.07395833,0.26296297
000025,68.65,pedestrian,0,0.25625,0.21111111,0.071875,0.25555557
000025,68.65,pedestrian,0,0.19895834,0.21296297,0.07604167,0.27037036
000025,68.65,pedestrian,0,0.87916666,0.3962963,0.075,0.26666668
000025,68.65,pedestrian,0,0.03125,0.4814815,0.08020833,0.2851852
000025,68.65,pedestrian,0,0.18333334,0.61851853,0.09583333,0.34074074
000026,67.46,pedestrian,0,0.43229166,0.1537037,0.072916664,0.25925925
000026,67.46,pedestrian,0,0.19791667,0.2037037,0.079166666,0.27962962
000026,67.46,pedestrian,0,0.25625,0.21851853,0.072916664,0.2574074
000026,67.46,pedestrian,0,0.8802083,0.39814815,0.072916664,0.25925925
000026,67.46,pedestrian,0,0.3875,0.10185185,0.077083334,0.27407408
000026,67.46,pedestrian,0,0.03125,0.47962964,0.08229167,0.29259259
000026,67.46,pedestrian,0,0.184375,0.61296296,0.09375,0.3351852
000026,67.46,pedestrian,0,0.6947917,0.45185184,0.10208333,0.3611111
000027,66.34,pedestrian,0,0.428125,0.15,0.072916664,0.2574074
000027,66.34,pedestrian,0,0.2,0.2037037,0.075,0.26666668
000027,66.34,pedestrian,0,0.25625,0.21851853,0.071875,0.25555557
000027,66.34,pedestrian,0,0.8802083,0.39814815,0.072916664,0.25925925
000027,66.34,pedestrian,0,0.15625,0.042592593,0.07395833,0.2611111
000027,66.34,pedestrian,0,0.390625,0.10555556,0.077083334,0.27222222
000027,66.34,pedestrian,0,0.03125,0.4814815,0.08229167,0.29074073
000027,66.34,pedestrian,0,0.083333336,0.53333336,0.07604167,0.2685185
000027,66.34,pedestrian,0,0.184375,0.5925926,0.098958336,0.35185185
000027,66.34,pedestrian,0,0.6947917,0.45185184,0.10208333,0.3611111
000028,69.68,pedestrian,0,0.42708334,0.14629629,0.071875,0.25555557
000028,69.68,pedestrian,0,0.2,0.2,0.075,0.26481482
000028,69.68,pedestrian,0,0.37604168,0.20185184,0.06979167,0.24814814
000028,69.68,pedestrian,0,0.25625,0.23148148,0.071875,0.25555557
000028,69.68,pedestrian,0,0.88125,0.40185186,0.072916664,0.25925925
000028,69.68,pedestrian,0,0.03125,0.48333332,0.08125,0.28703704
000028,69.68,pedestrian,0,0.38958332,0.10555556,0.077083334,0.27407408
000028,69.68,pedestrian,0,0.18958333,0.587037,0.09583333,0.3425926
000028,69.68,pedestrian,0,0.68958336,0.43333334,0.109375,0.3888889
000029,68.35,pedestrian,0,0.16145833,0.05185185,0.07083333,0.25185186
000029,68.35,pedestrian,0,0.38854167,0.1037037,0.075,0.26481482
000029,68.35,pedestrian,0,0.42708334,0.14444445,0.07083333,0.25185186
000029,68.35,pedestrian,0,0.19895834,0.18888889,0.077083334,0.27407408
000029,68.35,pedestrian,0,0.25625,0.23518519,0.07083333,0.25185186
000029,68.35,pedestrian,0,0.8802083,0.39814815,0.072916664,0.25925925
000029,68.35,pedestrian,0,0.030208332,0.47962964,0.08229167,0.29074073
000029,68.35,pedestrian,0,0.09583333,0.51666665,0.075,0.26481482
000029,68.35,pedestrian,0,0.19166666,0.5888889,0.09166667,0.32592592
000029,68.35,pedestrian,0,0.6947917,0.45185184,0.10208333,0.3611111
000030,68.24,pedestrian,0,0.390625,0.10555556,0.07083333,0.2537037
000030,68.24,pedestrian,0,0.43020833,0.13703704,0.07395833,0.2611111
000030,68.24,pedestrian,0,0.2,0.18888889,0.075,0.26481482
000030,68.24,pedestrian,0,0.60625,0.24814814,0.06979167,0.24814814
000030,68.24,pedestrian,0,0.8802083,0.39814815,0.072916664,0.25925925
000030,68.24,pedestrian,0,0.03125,0.4814815,0.08020833,0.28703704
000030,68.24,pedestrian,0,0.104166664,0.51111114,0.072916664,0.25925925
000030,68.24,pedestrian,0,0.19270833,0.57592595,0.09166667,0.32592592
000030,68.24,pedestrian,0,0.24270834,0.12222222,0.11145833,0.3962963
000030,68.24,pedestrian,0,0.6947917,0.45185184,0.10208333,0.3611111
000031,72.33,pedestrian,0,0.43541667,0.12962963,0.07083333,0.25
000031,72.33,pedestrian,0,0.19791667,0.18333334,0.07604167,0.27037036
000031,72.33,pedestrian,0,0.29583332,0.23333333,0.072916664,0.25925925
000031,72.33,pedestrian,0,0.253125,0.23148148,0.077083334,0.27222222
000031,72.33,pedestrian,0,0.87916666,0.3962963,0.075,0.26666668
000031,72.33,pedestrian,0,0.03125,0.48333332,0.08020833,0.28333333
000031,72.33,pedestrian,0,0.103125,0.4962963,0.07604167,0.2685185
000031,72.33,pedestrian,0,0.190625,0.55185187,0.09583333,0.34074074
000031,72.33,pedestrian,0,0.38333333,0.1,0.08541667,0.3037037
000031,72.33,pedestrian,0,0.24270834,0.11666667,0.11354167,0.40555555
000032,68.24,pedestrian,0,0.43854168,0.12777779,0.071875,0.25555557
000032,68.24,pedestrian,0,0.19895834,0.17777778,0.075,0.2685185
000032,68.24,pedestrian,0,0.25416666,0.24074075,0.075,0.26666668
000032,68.24,pedestrian,0,0.29479167,0.24259259,0.07604167,0.27037036
000032,68.24,pedestrian,0,0.8802083,0.39814815,0.072916664,0.25925925
000032,68.24,pedestrian,0,0.028125,0.47777778,0.08125,0.2888889
000032,68.24,pedestrian,0,0.19375,0.5574074,0.08958333,0.32037038
000032,68.24,pedestrian,0,0.38541666,0.10185185,0.08020833,0.2851852
000032,68.24,pedestrian,0,0.1,0.4888889,0.079166666,0.28333333
000032,68.24,pedestrian,0,0,0.5462963,0.077083334,0.27407408
000032,68.24,pedestrian,0,0.6947917,0.45185184,0.10208333,0.3611111
000033,68.70,pedestrian,0,0.58958334,0.1037037,0.072916664,0.25925925
000033,68.70,pedestrian,0,0.43958333,0.12037037,0.071875,0.25555557
000033,68.70,pedestrian,0,0.2,0.17407407,0.075,0.26481482
000033,68.70,pedestrian,0,0.37604168,0.23333333,0.06979167,0.24814814
000033,68.70,pedestrian,0,0.25416666,0.24444444,0.07604167,0.27037036
000033,68.70,pedestrian,0,0.29583332,0.24259259,0.07604167,0.27037036
000033,68.70,pedestrian,0,0.87916666,0.3962963,0.075,0.26666668
000033,68.70,pedestrian,0,0.019791666,0.46851853,0.09375,0.33333334
000033,68.70,pedestrian,0,0.010416667,0.5611111,0.077083334,0.27407408
000033,68.70,pedestrian,0,0.19375,0.537037,0.09166667,0.32592592
000033,68.70,pedestrian,0,0.6947917,0.47037038,0.092708334,0.32777777
000034,70.13,pedestrian,0,0.13125,0.06666667,0.06979167,0.24814814
000034,70.13,pedestrian,0,0.39166668,0.107407406,0.071875,0.25555557
000034,70.13,pedestrian,0,0.43958333,0.10925926,0.072916664,0.25925925
000034,70.13,pedestrian,0,0.20416667,0.16851851,0.07395833,0.2611111
000034,70.13,pedestrian,0,0.253125,0.25185186,0.077083334,0.27222222
000034,70.13,pedestrian,0,0.8802083,0.39814815,0.072916664,0.25925925
000034,70.13,pedestrian,0,0.015625,0.46666667,0.096875,0.3462963
000034,70.13,pedestrian,0,0.29375,0.24814814,0.078125,0.2777778
000034,70.13,pedestrian,0,0.10104167,0.4722222,0.07395833,0.2611111
000034,70.13,pedestrian,0,0.19375,0.52962965,0.08958333,0.31851852
000034,70.13,pedestrian,0,0.016666668,0.5648148,0.08229167,0.29074073
000034,70.13,pedestrian,0,0.6979167,0.48333332,0.09166667,0.32592592
000035,69.82,pedestrian,0,0.12916666,0.05740741,0.072916664,0.2574074
000035,69.82,pedestrian,0,0.390625,0.10925926,0.06979167,0.24814814
000035,69.82,pedestrian,0,0.44375,0.11111111,0.07083333,0.2537037
000035,69.82,pedestrian,0,0.20416667,0.16481481,0.07395833,0.2611111
000035,69.82,pedestrian,0,0.37604168,0.24814814,0.06979167,0.24814814
000035,69.82,pedestrian,0,0.8802083,0.39814815,0.072916664,0.25925925
000035,69.82,pedestrian,0,0.09791667,0.46296296,0.07604167,0.27037036
000035,69.82,pedestrian,0,0.19166666,0.5240741,0.08645833,0.30555555
000035,69.82,pedestrian,0,0.25104168,0.2574074,0.07604167,0.27037036
000035,69.82,pedestrian,0,0.29375,0.25555557,0.08125,0.28703704
000035,69.82,pedestrian,0,0.027083334,0.57222223,0.08229167,0.29074073
000035,69.82,pedestrian,0,0.70104164,0.4962963,0.0875,0.30925927
000036,68.07,pedestrian,0,0.13125,0.06111111,0.06979167,0.24814814
000036,68.07,pedestrian,0,0.390625,0.10555556,0.07083333,0.2537037
000036,68.07,pedestrian,0,0.44895834,0.10555556,0.071875,0.25555557
000036,68.07,pedestrian,0,0.5708333,0.098148145,0.06979167,0.24814814
000036,68.07,pedestrian,0,0.20625,0.16296296,0.07395833,0.26296297
000036,68.07,pedestrian,0,0.378125,0.2462963,0.071875,0.25555557
000036,68.07,pedestrian,0,0.24895833,0.26666668,0.07604167,0.27037036
000036,68.07,pedestrian,0,0.8802083,0.39814815,0.072916664,0.25925925
000036,68.07,pedestrian,0,0.094791666,0.43888888,0.077083334,0.27407408
000036,68.07,pedestrian,0,0.0375,0.5888889,0.079166666,0.28333333
000036,68.07,pedestrian,0,0.18854167,0.50555557,0.0875,0.31296295
000036,68.07,pedestrian,0,0.70208335,0.49814814,0.0875,0.30925927
000036,68.07,pedestrian,0,0.29166666,0.25555557,0.08645833,0.30925927
000037,68.75,pedestrian,0,0.45104167,0.094444446,0.071875,0.25555557
000037,68.75,pedestrian,0,0.20520833,0.15185185,0.07395833,0.2611111
000037,68.75,pedestrian,0,0.384375,0.26481482,0.06979167,0.24814814
000037,68.75,pedestrian,0,0.24791667,0.27592593,0.075,0.26666668
000037,68.75,pedestrian,0,0.8802083,0.39814815,0.072916664,0.25925925
000037,68.75,pedestrian,0,0.1875,0.49814814,0.08645833,0.30925927
000037,68.75,pedestrian,0,0.046875,0.59074074,0.08229167,0.29259259
000037,68.75,pedestrian,0,0.29375,0.26666668,0.079166666,0.27962962
000037,68.75,pedestrian,0,0.0072916667,0.54444444,0.078125,0.2777778
000037,68.75,pedestrian,0,0.70104164,0.5,0.08541667,0.30185184
000038,67.46,pedestrian,0,0.45520833,0.094444446,0.07083333,0.25185186
000038,67.46,pedestrian,0,0.56041664,0.085185185,0.071875,0.25555557
000038,67.46,pedestrian,0,0.20625,0.14444445,0.075,0.26481482
000038,67.46,pedestrian,0,0.38645834,0.26481482,0.06875,0.2462963
000038,67.46,pedestrian,0,0.24895833,0.28148147,0.07395833,0.2611111
000038,67.46,pedestrian,0,0.87916666,0.3962963,0.075,0.26666668
000038,67.46,pedestrian,0,0.092708334,0.44074073,0.06979167,0.24814814
000038,67.46,pedestrian,0,0.18854167,0.4888889,0.08645833,0.30555555
000038,67.46,pedestrian,0,0.023958333,0.5611111,0.07395833,0.26296297
000038,67.46,pedestrian,0,0.05,0.59074074,0.08958333,0.31666666
000038,67.46,pedestrian,0,0.696875,0.49074075,0.088541664,0.31296295
000039,67.71,pedestrian,0,0.45625,0.087037034,0.071875,0.25555557
000039,67.71,pedestrian,0,0.55833334,0.085185185,0.07083333,0.25185186
000039,67.71,pedestrian,0,0.20729166,0.14444445,0.07395833,0.26296297
000039,67.71,pedestrian,0,0.24791667,0.28148147,0.07604167,0.27037036
000039,67.71,pedestrian,0,0.3875,0.27592593,0.06979167,0.2462963
000039,67.71,pedestrian,0,0.2875,0.29444444,0.072916664,0.25925925
000039,67.71,pedestrian,0,0.8802083,0.39814815,0.072916664,0.25925925
000039,67.71,pedestrian,0,0.092708334,0.42962962,0.06979167,0.24814814
000039,67.71,pedestrian,0,0.063541666,0.6148148,0.08125,0.2888889
000039,67.71,pedestrian,0,0.18645833,0.47407407,0.08645833,0.3074074
000039,67.71,pedestrian,0,0.03125,0.4888889,0.08125,0.28703704
000039,67.71,pedestrian,0,0.6947917,0.4814815,0.09166667,0.32407406
000040,68.12,pedestrian,0,0.55104166,0.083333336,0.07083333,0.2537037
000040,68.12,pedestrian,0,0.46041667,0.08148148,0.071875,0.2537037
000040,68.12,pedestrian,0,0.21354167,0.1425926,0.071875,0.25555557
000040,68.12,pedestrian,0,0.39166668,0.28333333,0.06979167,0.24814814
000040,68.12,pedestrian,0,0.24375,0.28148147,0.08020833,0.2851852
000040,68.12,pedestrian,0,0.87916666,0.3962963,0.075,0.26666668
000040,68.12,pedestrian,0,0.18645833,0.4722222,0.083333336,0.29444444
000040,68.12,pedestrian,0,0.0375,0.4888889,0.078125,0.27962962
000040,68.12,pedestrian,0,0.071875,0.61851853,0.083333336,0.29444444
000040,68.12,pedestrian,0,0.696875,0.49814814,0.08645833,0.30555555
000041,67.00,pedestrian,0,0.4625,0.075925924,0.072916664,0.2574074
000041,67.00,pedestrian,0,0.54375,0.07777778,0.071875,0.2537037
000041,67.00,pedestrian,0,0.39166668,0.10555556,0.07083333,0.25185186
000041,67.00,pedestrian,0,0.21458334,0.13518518,0.072916664,0.25925925
000041,67.00,pedestrian,0,0.39270833,0.2851852,0.067708336,0.24074075
000041,67.00,pedestrian,0,0.24166666,0.29444444,0.078125,0.27592593
000041,67.00,pedestrian,0,0.28854167,0.31111112,0.06979167,0.24814814
000041,67.00,pedestrian,0,0.8802083,0.3962963,0.072916664,0.25925925
000041,67.00,pedestrian,0,0.09583333,0.41111112,0.06979167,0.24814814
000041,67.00,pedestrian,0,0.18645833,0.45740741,0.08020833,0.28333333
000041,67.00,pedestrian,0,0.040625,0.4925926,0.078125,0.2777778
000041,67.00,pedestrian,0,0.08020833,0.6259259,0.084375,0.3
000041,67.00,pedestrian,0,0.6979167,0.4888889,0.088541664,0.31296295
000042,68.04,pedestrian,0,0.465625,0.06481481,0.072916664,0.25925925
000042,68.04,pedestrian,0,0.215625,0.13148148,0.072916664,0.2574074
000042,68.04,pedestrian,0,0.39479166,0.2851852,0.071875,0.25555557
000042,68.04,pedestrian,0,0.23854166,0.3,0.078125,0.2777778
000042,68.04,pedestrian,0,0.28333333,0.31296295,0.07083333,0.25185186
000042,68.04,pedestrian,0,0.87916666,0.3962963,0.075,0.26666668
000042,68.04,pedestrian,0,0.18541667,0.45,0.079166666,0.28148147
000042,68.04,pedestrian,0,0.042708334,0.49074075,0.083333336,0.29444444
000042,68.04,pedestrian,0,0.703125,0.49814814,0.083333336,0.29444444
000042,68.04,pedestrian,0,0.08020833,0.6148148,0.08645833,0.3074074
000043,68.09,pedestrian,0,0.47083333,0.06481481,0.07083333,0.25185186
000043,68.09,pedestrian,0,0.53333336,0.072222225,0.072916664,0.2574074
000043,68.09,pedestrian,0,0.21770833,0.12962963,0.071875,0.25555557
000043,68.09,pedestrian,0,0.39791667,0.29259259,0.071875,0.25555557
000043,68.09,pedestrian,0,0.23854166,0.31296295,0.07604167,0.27037036
000043,68.09,pedestrian,0,0.28229168,0.32592592,0.071875,0.25555557
000043,68.09,pedestrian,0,0.87916666,0.3962963,0.075,0.26666668
000043,68.09,pedestrian,0,0.18541667,0.4425926,0.079166666,0.28148147
000043,68.09,pedestrian,0,0.047916666,0.4925926,0.084375,0.30185184
000043,68.09,pedestrian,0,0.7083333,0.4962963,0.083333336,0.2962963
000043,68.09,pedestrian,0,0.33854166,0.14814815,0.075,0.26666668
000043,68.09,pedestrian,0,0.088541664,0.61851853,0.09166667,0.32592592
000044,67.89,pedestrian,0,0.46979168,0.05740741,0.072916664,0.25925925
000044,67.89,pedestrian,0,0.571875,0.06481481,0.06875,0.2462963
000044,67.89,pedestrian,0,0.53333336,0.06666667,0.071875,0.25555557
000044,67.89,pedestrian,0,0.21875,0.12037037,0.071875,0.25555557
000044,67.89,pedestrian,0,0.4,0.3,0.06979167,0.24814814
000044,67.89,pedestrian,0,0.2375,0.3148148,0.077083334,0.27407408
000044,67.89,pedestrian,0,0.28020832,0.32777777,0.071875,0.2537037
000044,67.89,pedestrian,0,0.87916666,0.3962963,0.075,0.26666668
000044,67.89,pedestrian,0,0.18541667,0.42407408,0.08125,0.2888889
000044,67.89,pedestrian,0,0.060416665,0.4925926,0.083333336,0.29444444
000044,67.89,pedestrian,0,0.71458334,0.50555557,0.08020833,0.28333333
000044,67.89,pedestrian,0,0.09166667,0.59814817,0.08645833,0.30555555
000045,68.81,pedestrian,0,0.471875,0.053703703,0.06875,0.24444444
000045,68.81,pedestrian,0,0.528125,0.062962964,0.072916664,0.2611111
000045,68.81,pedestrian,0,0.39270833,0.11111111,0.067708336,0.24074075
000045,68.81,pedestrian,0,0.221875,0.12407407,0.06979167,0.24814814
000045,68.81,pedestrian,0,0.403125,0.3074074,0.06979167,0.2462963
000045,68.81,pedestrian,0,0.23541667,0.32222223,0.07604167,0.2685185
000045,68.81,pedestrian,0,0.27708334,0.33703703,0.071875,0.25555557
000045,68.81,pedestrian,0,0.87916666,0.3962963,0.075,0.26666668
000045,68.81,pedestrian,0,0.18333334,0.41666666,0.08125,0.2888889
000045,68.81,pedestrian,0,0.06875,0.49074075,0.084375,0.3
000045,68.81,pedestrian,0,0.71875,0.5037037,0.08020833,0.28333333
000045,68.81,pedestrian,0,0.098958336,0.6111111,0.088541664,0.3148148
000046,68.26,pedestrian,0,0.471875,0.046296295,0.06979167,0.24814814
000046,68.26,pedestrian,0,0.56145835,0.053703703,0.06979167,0.24814814
000046,68.26,pedestrian,0,0.5229167,0.05740741,0.07395833,0.26481482
000046,68.26,pedestrian,0,0.39270833,0.11111111,0.067708336,0.24074075
000046,68.26,pedestrian,0,0.22395833,0.11851852,0.07083333,0.25185186
000046,68.26,pedestrian,0,0.40416667,0.31666666,0.071875,0.2537037
000046,68.26,pedestrian,0,0.22916667,0.32777777,0.079166666,0.27962962
000046,68.26,pedestrian,0,0.27291667,0.34444445,0.07083333,0.25185186
000046,68.26,pedestrian,0,0.8802083,0.39814815,0.072916664,0.25925925
000046,68.26,pedestrian,0,0.18229167,0.4037037,0.083333336,0.2962963
000046,68.26,pedestrian,0,0.07604167,0.50555557,0.08020833,0.28333333
000046,68.26,pedestrian,0,0.721875,0.5092593,0.079166666,0.28333333
000046,68.26,pedestrian,0,0.11770833,0.69074076,0.08229167,0.29259259
000046,68.26,pedestrian,0,0.110416666,0.61296296,0.09375,0.3351852
000047,67.89,pedestrian,0,0.74583334,0,0.06979167,0.24814814
000047,67.89,pedestrian,0,0.47083333,0.03888889,0.07395833,0.2611111
000047,67.89,pedestrian,0,0.51770836,0.06111111,0.072916664,0.2574074
000047,67.89,pedestrian,0,0.55833334,0.053703703,0.07083333,0.25185186
000047,67.89,pedestrian,0,0.22291666,0.107407406,0.07083333,0.25185186
000047,67.89,pedestrian,0,0.40416667,0.31851852,0.06979167,0.24814814
000047,67.89,pedestrian,0,0.26979166,0.3462963,0.075,0.26481482
000047,67.89,pedestrian,0,0.87916666,0.3962963,0.075,0.26666668
000047,67.89,pedestrian,0,0.18229167,0.39259258,0.083333336,0.29814816
000047,67.89,pedestrian,0,0.08541667,0.5,0.08229167,0.29259259
000047,67.89,pedestrian,0,0.13541667,0.62777776,0.06979167,0.24814814
000047,67.89,pedestrian,0,0.22395833,0.3351852,0.077083334,0.27407408
000047,67.89,pedestrian,0,0.728125,0.5092593,0.079166666,0.28148147
000047,67.89,pedestrian,0,0.114583336,0.6166667,0.10208333,0.36296296
000048,68.68,pedestrian,0,0.47291666,0.037037037,0.06979167,0.2462963
000048,68.68,pedestrian,0,0.51354164,0.055555556,0.072916664,0.25925925
000048,68.68,pedestrian,0,0.55104166,0.05185185,0.06979167,0.24814814
000048,68.68,pedestrian,0,0.22395833,0.107407406,0.07083333,0.25185186
000048,68.68,pedestrian,0,0.40625,0.32222223,0.072916664,0.2574074
000048,68.68,pedestrian,0,0.22291666,0.34074074,0.07604167,0.27037036
000048,68.68,pedestrian,0,0.265625,0.35740742,0.07395833,0.2611111
000048,68.68,pedestrian,0,0.18333334,0.38703704,0.083333336,0.2962963
000048,68.68,pedestrian,0,0.8802083,0.39814815,0.072916664,0.25925925
000049,67.79,pedestrian,0,0.471875,0.031481482,0.06979167,0.24814814
000049,67.79,pedestrian,0,0.5083333,0.055555556,0.06979167,0.24814814
000049,67.79,pedestrian,0,0.409375,0.3351852,0.072916664,0.2574074
000049,67.79,pedestrian,0,0.096875,0.3462963,0.078125,0.2777778
000049,67.79,pedestrian,0,0.19791667,0.37222221,0.077083334,0.27222222
000049,67.79,pedestrian,0,0.2625,0.3611111,0.07604167,0.2685185
000049,67.79,pedestrian,0,0.87916666,0.3962963,0.075,0.26666668
000049,67.79,pedestrian,0,0.10208333,0.51296294,0.08229167,0.29074073
000049,67.79,pedestrian,0,0.7416667,0.5074074,0.084375,0.29814816
000049,67.79,pedestrian,0,0.13854167,0.6481481,0.092708334,0.32962963
000050,68.29,pedestrian,0,0.46979168,0.025925925,0.06875,0.24444444
000050,68.29,pedestrian,0,0.50416666,0.05,0.072916664,0.2611111
000050,68.29,pedestrian,0,0.221875,0.098148145,0.06979167,0.24814814
000050,68.29,pedestrian,0,0.39270833,0.10185185,0.06875,0.24444444
000050,68.29,pedestrian,0,0.409375,0.33703703,0.07395833,0.2611111
000050,68.29,pedestrian,0,0.22083333,0.35185185,0.07604167,0.27037036
000050,68.29,pedestrian,0,0.44479167,0.34814814,0.071875,0.2537037
000050,68.29,pedestrian,0,0.18333334,0.36851853,0.08020833,0.2851852
000050,68.29,pedestrian,0,0.26041666,0.37222221,0.075,0.26666668
000050,68.29,pedestrian,0,0.8802083,0.39814815,0.072916664,0.25925925
000050,68.29,pedestrian,0,0.153125,0.6703704,0.077083334,0.27407408
000050,68.29,pedestrian,0,0.746875,0.51296294,0.083333336,0.2962963
000050,68.29,pedestrian,0,0.110416666,0.51111114,0.083333336,0.29814816
000051,69.86,pedestrian,0,0.46979168,0.02037037,0.06979167,0.24814814
000051,69.86,pedestrian,0,0.5052083,0.042592593,0.07395833,0.2611111
000051,69.86,pedestrian,0,0.22083333,0.094444446,0.07083333,0.25185186
000051,69.86,pedestrian,0,0.4125,0.34814814,0.072916664,0.25925925
000051,69.86,pedestrian,0,0.44583333,0.35740742,0.07083333,0.25185186
000051,69.86,pedestrian,0,0.18333334,0.3611111,0.079166666,0.28148147
000051,69.86,pedestrian,0,0.21770833,0.3611111,0.079166666,0.27962962
000051,69.86,pedestrian,0,0.25833333,0.38518518,0.07395833,0.26296297
000051,69.86,pedestrian,0,0.87916666,0.3962963,0.075,0.26666668
000051,69.86,pedestrian,0,0.12604167,0.5074074,0.079166666,0.28333333
000051,69.86,pedestrian,0,0.75104165,0.52037036,0.08020833,0.28333333
000051,69.86,pedestrian,0,0.1625,0.6851852,0.078125,0.27592593
000052,67.38,pedestrian,0,0.46979168,0.014814815,0.06979167,0.2462963
000052,67.38,pedestrian,0,0.503125,0.03888889,0.072916664,0.2574074
000052,67.38,pedestrian,0,0.221875,0.087037034,0.06979167,0.24814814
000052,67.38,pedestrian,0,0.19791667,0.35925925,0.078125,0.2777778
000052,67.38,pedestrian,0,0.41458333,0.35185185,0.072916664,0.25925925
000052,67.38,pedestrian,0,0.25416666,0.38333333,0.07604167,0.27037036
000052,67.38,pedestrian,0,0.87916666,0.3962963,0.075,0.26666668
000052,67.38,pedestrian,0,0.134375,0.5148148,0.079166666,0.28148147
000052,67.38,pedestrian,0,0.17395833,0.69814813,0.07395833,0.26296297
000052,67.38,pedestrian,0,0.753125,0.5037037,0.08958333,0.31851852
000053,68.23,pedestrian,0,0.46666667,0.0055555557,0.072916664,0.2574074
000053,68.23,pedestrian,0,0.50104165,0.04074074,0.071875,0.2574074
000053,68.23,pedestrian,0,0.21770833,0.08148148,0.075,0.26481482
000053,68.23,pedestrian,0,0.19583334,0.3611111,0.078125,0.2777778
000053,68.23,pedestrian,0,0.253125,0.39444444,0.077083334,0.27407408
000053,68.23,pedestrian,0,0.87916666,0.3962963,0.075,0.26666668
000053,68.23,pedestrian,0,0.14479166,0.51296294,0.08125,0.28703704
000053,68.23,pedestrian,0,0.18333334,0.72037035,0.06979167,0.24814814
000054,69.32,pedestrian,0,0.465625,0.0037037036,0.07083333,0.25185186
000054,69.32,pedestrian,0,0.496875,0.03888889,0.071875,0.2537037
000054,69.32,pedestrian,0,0.21979167,0.07777778,0.072916664,0.25925925
000054,69.32,pedestrian,0,0.415625,0.36851853,0.072916664,0.2574074
000054,69.32,pedestrian,0,0.87916666,0.3962963,0.075,0.26666668
000054,69.32,pedestrian,0,0.25104168,0.40555555,0.07604167,0.2685185
000054,69.32,pedestrian,0,0.1625,0.51111114,0.078125,0.2777778
000054,69.32,pedestrian,0,0.38958332,0.05925926,0.077083334,0.27407408
000054,69.32,pedestrian,0,0.10104167,0.31111112,0.07395833,0.2611111
000054,69.32,pedestrian,0,0.20520833,0.38518518,0.08020833,0.2851852
000054,69.32,pedestrian,0,0.18645833,0.72407407,0.07395833,0.2611111
000055,68.04,pedestrian,0,0.49479166,0.031481482,0.071875,0.2537037
000055,68.04,pedestrian,0,0.123958334,0.06481481,0.07083333,0.25185186
000055,68.04,pedestrian,0,0.21770833,0.075925924,0.072916664,0.2574074
000055,68.04,pedestrian,0,0.19375,0.32407406,0.077083334,0.27407408
000055,68.04,pedestrian,0,0.4625,0.32222223,0.06875,0.2462963
000055,68.04,pedestrian,0,0.41979167,0.37407407,0.072916664,0.2574074
000055,68.04,pedestrian,0,0.20520833,0.3962963,0.078125,0.2777778
000055,68.04,pedestrian,0,0.8802083,0.39814815,0.075,0.26481482
000055,68.04,pedestrian,0,0.246875,0.41296297,0.07604167,0.2685185
000055,68.04,pedestrian,0,0.171875,0.51111114,0.08020833,0.2851852
000056,68.49,pedestrian,0,0.48958334,0.031481482,0.06979167,0.24814814
000056,68.49,pedestrian,0,0.165625,0.048148148,0.071875,0.25555557
000056,68.49,pedestrian,0,0.21770833,0.07037037,0.07083333,0.25185186
000056,68.49,pedestrian,0,0.19166666,0.31296295,0.083333336,0.29444444
000056,68.49,pedestrian,0,0.42395833,0.37962964,0.071875,0.2537037
000056,68.49,pedestrian,0,0.88125,0.40185186,0.072916664,0.25925925
000056,68.49,pedestrian,0,0.19895834,0.40185186,0.08125,0.28703704
000056,68.49,pedestrian,0,0.24479167,0.42407408,0.077083334,0.27222222
000056,68.49,pedestrian,0,0.18541667,0.52037036,0.079166666,0.27962962
000056,68.49,pedestrian,0,0.12083333,0.05740741,0.075,0.26481482
000056,68.49,pedestrian,0,0.78125,0.53333336,0.08229167,0.29259259
000057,68.53,pedestrian,0,0.48958334,0.031481482,0.06979167,0.24814814
000057,68.53,pedestrian,0,0.515625,0.031481482,0.06979167,0.24814814
000057,68.53,pedestrian,0,0.215625,0.06666667,0.06979167,0.24814814
000057,68.53,pedestrian,0,0.48125,0.3314815,0.06979167,0.24814814
000057,68.53,pedestrian,0,0.42291668,0.38518518,0.072916664,0.2611111
000057,68.53,pedestrian,0,0.88125,0.40185186,0.072916664,0.25925925
000057,68.53,pedestrian,0,0.19583334,0.30555555,0.08125,0.28703704
000057,68.53,pedestrian,0,0.24166666,0.42407408,0.08020833,0.28333333
000057,68.53,pedestrian,0,0.19270833,0.40555555,0.084375,0.3
000057,68.53,pedestrian,0,0.19375,0.5148148,0.08229167,0.29074073
000057,68.53,pedestrian,0,0.78541666,0.5388889,0.083333336,0.29444444
000057,68.53,pedestrian,0,0.18229167,0.4351852,0.10625,0.37962964
000058,67.84,pedestrian,0,0.8833333,0.0037037036,0.06875,0.2462963
000058,67.84,pedestrian,0,0.4875,0.022222223,0.07395833,0.2611111
000058,67.84,pedestrian,0,0.51666665,0.027777778,0.072916664,0.25925925
000058,67.84,pedestrian,0,0.21354167,0.062962964,0.071875,0.2537037
000058,67.84,pedestrian,0,0.390625,0.10555556,0.07083333,0.2537037
000058,67.84,pedestrian,0,0.20208333,0.30185184,0.08125,0.2888889
000058,67.84,pedestrian,0,0.49375,0.3425926,0.06979167,0.24814814
000058,67.84,pedestrian,0,0.421875,0.39074075,0.075,0.26481482
000058,67.84,pedestrian,0,0.88125,0.40185186,0.072916664,0.25925925
000058,67.84,pedestrian,0,0.23958333,0.43703705,0.07604167,0.2685185
000058,67.84,pedestrian,0,0.190625,0.4185185,0.084375,0.29814816
000058,67.84,pedestrian,0,0.7895833,0.5388889,0.08020833,0.2851852
000058,67.84,pedestrian,0,0.21145834,0.4814815,0.08958333,0.31851852
000058,67.84,pedestrian,0,0.16875,0.3,0.15104167,0.53518516
000059,67.88,pedestrian,0,0.4875,0.014814815,0.071875,0.25555557
000059,67.88,pedestrian,0,0.51666665,0.025925925,0.072916664,0.2574074
000059,67.88,pedestrian,0,0.21458334,0.055555556,0.071875,0.25555557
000059,67.88,pedestrian,0,0.390625,0.10925926,0.06979167,0.24814814
000059,67.88,pedestrian,0,0.20625,0.28703704,0.079166666,0.28333333
000059,67.88,pedestrian,0,0.50208336,0.3462963,0.07083333,0.2537037
000059,67.88,pedestrian,0,0.434375,0.4,0.07395833,0.2611111
000059,67.88,pedestrian,0,0.88125,0.40185186,0.072916664,0.25925925
000059,67.88,pedestrian,0,0.18854167,0.43148148,0.078125,0.27962962
000059,67.88,pedestrian,0,0.7916667,0.53518516,0.084375,0.3
000059,67.88,pedestrian,0,0.21875,0.44814816,0.098958336,0.35185185
000060,70.29,pedestrian,0,0.48333332,0.014814815,0.071875,0.25555557
000060,70.29,pedestrian,0,0.89166665,0.014814815,0.06979167,0.24814814
000060,70.29,pedestrian,0,0.39270833,0.11111111,0.067708336,0.24074075
000060,70.29,pedestrian,0,0.51354164,0.35185185,0.071875,0.2537037
000060,70.29,pedestrian,0,0.43229166,0.4037037,0.075,0.26481482
000060,70.29,pedestrian,0,0.8802083,0.39444444,0.075,0.26481482
000060,70.29,pedestrian,0,0.18541667,0.43703705,0.078125,0.2777778
000060,70.29,pedestrian,0,0.20416667,0.27222222,0.08229167,0.29074073
000060,70.29,pedestrian,0,0.23541667,0.51296294,0.08229167,0.29074073
000060,70.29,pedestrian,0,0.79270834,0.53518516,0.09166667,0.32592592
000060,70.29,pedestrian,0,0.21875,0.4351852,0.103125,0.36481482
000061,68.32,pedestrian,0,0.48125,0.014814815,0.06979167,0.24814814
000061,68.32,pedestrian,0,0.51458335,0.02037037,0.072916664,0.2574074
000061,68.32,pedestrian,0,0.89166665,0.02037037,0.06979167,0.24814814
000061,68.32,pedestrian,0,0.21041666,0.048148148,0.077083334,0.27407408
000061,68.32,pedestrian,0,0.20833333,0.27222222,0.078125,0.2777778
000061,68.32,pedestrian,0,0.5229167,0.36296296,0.072916664,0.2574074
000061,68.32,pedestrian,0,0.87916666,0.39259258,0.077083334,0.27222222
000061,68.32,pedestrian,0,0.42395833,0.40925926,0.075,0.26666668
000061,68.32,pedestrian,0,0.45520833,0.42037037,0.07083333,0.2537037
000061,68.32,pedestrian,0,0.18020834,0.44074073,0.08125,0.2888889
000061,68.32,pedestrian,0,0.79791665,0.5388889,0.084375,0.3
000061,68.32,pedestrian,0,0.23333333,0.4722222,0.08020833,0.2851852
000062,68.90,pedestrian,0,0.47708333,0.0074074073,0.07083333,0.25185186
000062,68.90,pedestrian,0,0.5072917,0.014814815,0.06979167,0.24814814
000062,68.90,pedestrian,0,0.21041666,0.042592593,0.075,0.26666668
000062,68.90,pedestrian,0,0.21145834,0.25925925,0.07604167,0.27037036
000062,68.90,pedestrian,0,0.53333336,0.36481482,0.06979167,0.24814814
000062,68.90,pedestrian,0,0.8802083,0.3962963,0.075,0.26666668
000062,68.90,pedestrian,0,0.425,0.41111112,0.07604167,0.27037036
000062,68.90,pedestrian,0,0.171875,0.45185184,0.079166666,0.28148147
000062,68.90,pedestrian,0,0.21979167,0.46851853,0.079166666,0.27962962
000062,68.90,pedestrian,0,0.265625,0.49814814,0.079166666,0.28148147
000062,68.90,pedestrian,0,0.803125,0.54444444,0.08645833,0.30555555
000063,67.66,pedestrian,0,0.5072917,0.011111111,0.06875,0.2462963
000063,67.66,pedestrian,0,0.21145834,0.03888889,0.07083333,0.25185186
000063,67.66,pedestrian,0,0.16666667,0.05185185,0.06979167,0.24814814
000063,67.66,pedestrian,0,0.8979167,0.02037037,0.07395833,0.26296297
000063,67.66,pedestrian,0,0.21354167,0.25925925,0.075,0.26666668
000063,67.66,pedestrian,0,0.5416667,0.37592593,0.06875,0.2462963
000063,67.66,pedestrian,0,0.8802083,0.39444444,0.075,0.26481482
000063,67.66,pedestrian,0,0.45625,0.44074073,0.071875,0.2537037
000063,67.66,pedestrian,0,0.16666667,0.45925927,0.08229167,0.29074073
000063,67.66,pedestrian,0,0.21770833,0.4722222,0.078125,0.2777778
000063,67.66,pedestrian,0,0.27708334,0.49814814,0.077083334,0.27592593
000063,67.66,pedestrian,0,0.425,0.41666666,0.077083334,0.27407408
000063,67.66,pedestrian,0,0.809375,0.5537037,0.08020833,0.28703704
000064,69.74,pedestrian,0,0.48020834,0,0.067708336,0.24074075
000064,69.74,pedestrian,0,0.5072917,0.014814815,0.06979167,0.24814814
000064,69.74,pedestrian,0,0.21458334,0.037037037,0.072916664,0.2574074
000064,69.74,pedestrian,0,0.21666667,0.25,0.072916664,0.25925925
000064,69.74,pedestrian,0,0.55,0.38148147,0.07395833,0.2611111
000064,69.74,pedestrian,0,0.87916666,0.39444444,0.075,0.26666668
000064,69.74,pedestrian,0,0.42395833,0.42592594,0.078125,0.27592593
000064,69.74,pedestrian,0,0.45625,0.4425926,0.07395833,0.26296297
000064,69.74,pedestrian,0,0.159375,0.4648148,0.08125,0.2888889
000064,69.74,pedestrian,0,0.215625,0.4888889,0.07604167,0.2685185
000065,70.19,pedestrian,0,0.47916666,0,0.06875,0.2462963
000065,70.19,pedestrian,0,0.50625,0.0074074073,0.071875,0.25555557
000065,70.19,pedestrian,0,0.16666667,0.04074074,0.06979167,0.24814814
000065,70.19,pedestrian,0,0.21666667,0.037037037,0.07604167,0.2685185
000065,70.19,pedestrian,0,0.21666667,0.23518519,0.07604167,0.27037036
000065,70.19,pedestrian,0,0.559375,0.3888889,0.071875,0.25555557
000065,70.19,pedestrian,0,0.87708336,0.3888889,0.078125,0.2777778
000065,70.19,pedestrian,0,0.425,0.43333334,0.072916664,0.2574074
000065,70.19,pedestrian,0,0.45833334,0.4462963,0.07395833,0.2611111
000065,70.19,pedestrian,0,0.21041666,0.4962963,0.078125,0.2777778
000065,70.19,pedestrian,0,0.15625,0.47407407,0.08229167,0.29074073
000065,70.19,pedestrian,0,0.903125,0.02037037,0.075,0.2685185
000066,67.60,pedestrian,0,0.48020834,0,0.067708336,0.24074075
000066,67.60,pedestrian,0,0.50625,0.0037037036,0.07083333,0.25185186
000066,67.60,pedestrian,0,0.21979167,0.02962963,0.077083334,0.27407408
000066,67.60,pedestrian,0,0.90416664,0.018518519,0.078125,0.2777778
000066,67.60,pedestrian,0,0.21770833,0.23333333,0.07604167,0.2685185
000066,67.60,pedestrian,0,0.87708336,0.39074075,0.079166666,0.27962962
000066,67.60,pedestrian,0,0.42395833,0.44074073,0.077083334,0.27407408
000066,67.60,pedestrian,0,0.15104167,0.4814815,0.083333336,0.2962963
000066,67.60,pedestrian,0,0.20625,0.49814814,0.079166666,0.28333333
000066,67.60,pedestrian,0,0.46041667,0.4537037,0.075,0.26666668
000067,69.46,pedestrian,0,0.50625,0.0037037036,0.071875,0.25555557
000067,69.46,pedestrian,0,0.22395833,0.033333335,0.071875,0.25555557
000067,69.46,pedestrian,0,0.8989583,0.027777778,0.078125,0.2777778
000067,69.46,pedestrian,0,0.390625,0.10555556,0.07083333,0.2537037
000067,69.46,pedestrian,0,0.21666667,0.22037037,0.077083334,0.27407408
000067,69.46,pedestrian,0,0.87916666,0.3962963,0.075,0.26666668
000067,69.46,pedestrian,0,0.42708334,0.45555556,0.075,0.26481482
000067,69.46,pedestrian,0,0.46458334,0.46296296,0.07083333,0.25185186
000067,69.46,pedestrian,0,0.146875,0.4925926,0.083333336,0.29444444
000067,69.46,pedestrian,0,0.20520833,0.5185185,0.077083334,0.27592593
000068,69.57,pedestrian,0,0.22395833,0.033333335,0.071875,0.25555557
000068,69.57,pedestrian,0,0.903125,0.06111111,0.067708336,0.24074075
000068,69.57,pedestrian,0,0.13125,0.06111111,0.06979167,0.24814814
000068,69.57,pedestrian,0,0.21875,0.21666667,0.075,0.26666668
000068,69.57,pedestrian,0,0.8802083,0.3962963,0.072916664,0.25925925
000068,69.57,pedestrian,0,0.59270835,0.40185186,0.07395833,0.26296297
000068,69.57,pedestrian,0,0.428125,0.45555556,0.07604167,0.27037036
000068,69.57,pedestrian,0,0.14166667,0.49814814,0.083333336,0.2962963
000068,69.57,pedestrian,0,0.19791667,0.52037036,0.079166666,0.28148147
000068,69.57,pedestrian,0,0.46354166,0.4648148,0.077083334,0.27592593
000069,68.56,pedestrian,0,0.22395833,0.02962963,0.07395833,0.2611111
000069,68.56,pedestrian,0,0.13125,0.06111111,0.06979167,0.24814814
000069,68.56,pedestrian,0,0.39166668,0.10185185,0.07083333,0.25185186
000069,68.56,pedestrian,0,0.21770833,0.20925926,0.077083334,0.27222222
000069,68.56,pedestrian,0,0.8802083,0.39444444,0.075,0.26481482
000069,68.56,pedestrian,0,0.42916667,0.46296296,0.077083334,0.27407408
000069,68.56,pedestrian,0,0.19375,0.5314815,0.08020833,0.2851852
000069,68.56,pedestrian,0,0.13541667,0.5074074,0.08645833,0.30555555
000069,68.56,pedestrian,0,0.465625,0.47962964,0.077083334,0.27407408
000069,68.56,pedestrian,0,0.81875,0.53518516,0.08541667,0.3037037
000070,68.53,pedestrian,0,0.21666667,0.022222223,0.08229167,0.29259259
000070,68.53,pedestrian,0,0.12916666,0.05925926,0.071875,0.25555557
000070,68.53,pedestrian,0,0.22083333,0.2,0.07395833,0.26296297
000070,68.53,pedestrian,0,0.8802083,0.3962963,0.072916664,0.25925925
000070,68.53,pedestrian,0,0.42916667,0.47407407,0.079166666,0.27962962
000070,68.53,pedestrian,0,0.13333334,0.5222222,0.08229167,0.29444444
000070,68.53,pedestrian,0,0.1875,0.5425926,0.08020833,0.2851852
000070,68.53,pedestrian,0,0.46875,0.4888889,0.07395833,0.2611111
000070,68.53,pedestrian,0,0.8197917,0.5388889,0.08020833,0.28703704
000071,68.03,pedestrian,0,0.21666667,0.022222223,0.07395833,0.26481482
000071,68.03,pedestrian,0,0.21770833,0.19444445,0.07604167,0.2685185
000071,68.03,pedestrian,0,0.8802083,0.39444444,0.075,0.26481482
000071,68.03,pedestrian,0,0.43020833,0.47592592,0.07604167,0.27222222
000071,68.03,pedestrian,0,0.36041668,0.48703703,0.072916664,0.2574074
000071,68.03,pedestrian,0,0.12916666,0.52592593,0.0875,0.31111112
000071,68.03,pedestrian,0,0.18125,0.54814816,0.08229167,0.29074073
000071,68.03,pedestrian,0,0.12604167,0.046296295,0.07604167,0.2685185
000071,68.03,pedestrian,0,0.46979168,0.4925926,0.078125,0.2777778
000071,68.03,pedestrian,0,0.8125,0.53333336,0.08645833,0.30555555
000072,67.90,pedestrian,0,0.21666667,0.02037037,0.071875,0.25555557
000072,67.90,pedestrian,0,0.91979164,0.02962963,0.067708336,0.24074075
000072,67.90,pedestrian,0,0.390625,0.10555556,0.07083333,0.2537037
000072,67.90,pedestrian,0,0.21666667,0.18333334,0.075,0.26481482
000072,67.90,pedestrian,0,0.8802083,0.3962963,0.072916664,0.25925925
000072,67.90,pedestrian,0,0.365625,0.48518518,0.077083334,0.27222222
000072,67.90,pedestrian,0,0.17916666,0.5648148,0.08020833,0.28333333
000072,67.90,pedestrian,0,0.12604167,0.046296295,0.07604167,0.2685185
000072,67.90,pedestrian,0,0.43125,0.48333332,0.08020833,0.2851852
000072,67.90,pedestrian,0,0.475,0.5037037,0.078125,0.2777778
000072,67.90,pedestrian,0,0.12916666,0.53518516,0.0875,0.31296295
000072,67.90,pedestrian,0,0.8052083,0.5314815,0.0875,0.31111112
000073,69.97,pedestrian,0,0.215625,0.018518519,0.07083333,0.25185186
000073,69.97,pedestrian,0,0.89479166,0.085185185,0.067708336,0.24074075
000073,69.97,pedestrian,0,0.390625,0.10555556,0.07083333,0.2537037
000073,69.97,pedestrian,0,0.215625,0.17592593,0.075,0.26481482
000073,69.97,pedestrian,0,0.8802083,0.3962963,0.072916664,0.25925925
000073,69.97,pedestrian,0,0.43645832,0.4962963,0.08020833,0.28333333
000073,69.97,pedestrian,0,0.47916666,0.51296294,0.072916664,0.25925925
000073,69.97,pedestrian,0,0.12604167,0.537037,0.08958333,0.31851852
000073,69.97,pedestrian,0,0.12604167,0.046296295,0.07604167,0.2685185
000073,69.97,pedestrian,0,0.37083334,0.48703703,0.08125,0.2888889
000073,69.97,pedestrian,0,0.17083333,0.5703704,0.083333336,0.2962963
000074,70.30,pedestrian,0,0.21458334,0.018518519,0.072916664,0.2574074
000074,70.30,pedestrian,0,0.390625,0.10555556,0.07083333,0.2537037
000074,70.30,pedestrian,0,0.215625,0.17222223,0.075,0.26481482
000074,70.30,pedestrian,0,0.87916666,0.39444444,0.07604167,0.2685185
000074,70.30,pedestrian,0,0.37916666,0.49814814,0.078125,0.27592593
000074,70.30,pedestrian,0,0.16666667,0.58148146,0.083333336,0.2962963
000074,70.30,pedestrian,0,0.12708333,0.05,0.075,0.2685185
000074,70.30,pedestrian,0,0.121875,0.55,0.088541664,0.31296295
000074,70.30,pedestrian,0,0.4375,0.4962963,0.08125,0.2888889
000075,68.62,pedestrian,0,0.21458334,0.014814815,0.071875,0.25555557
000075,68.62,pedestrian,0,0.38958332,0.10185185,0.071875,0.2537037
000075,68.62,pedestrian,0,0.21666667,0.16666667,0.071875,0.2574074
000075,68.62,pedestrian,0,0.87916666,0.39444444,0.07604167,0.2685185
000075,68.62,pedestrian,0,0.38541666,0.5,0.079166666,0.27962962
000075,68.62,pedestrian,0,0.44166666,0.51296294,0.078125,0.2777778
000075,68.62,pedestrian,0,0.11666667,0.5703704,0.08645833,0.3074074
000075,68.62,pedestrian,0,0.159375,0.587037,0.0875,0.31111112
000075,68.62,pedestrian,0,0.19895834,0.033333335,0.11354167,0.40555555
000076,68.90,pedestrian,0,0.215625,0.014814815,0.06875,0.24444444
000076,68.90,pedestrian,0,0.21666667,0.16296296,0.072916664,0.25925925
000076,68.90,pedestrian,0,0.87916666,0.39444444,0.07604167,0.2685185
000076,68.90,pedestrian,0,0.440625,0.52037036,0.08229167,0.29074073
000076,68.90,pedestrian,0,0.115625,0.58148146,0.084375,0.29814816
000076,68.90,pedestrian,0,0.15833333,0.5962963,0.084375,0.29814816
000076,68.90,pedestrian,0,0.38854167,0.49814814,0.084375,0.29814816
000076,68.90,pedestrian,0,0.48541668,0.5314815,0.077083334,0.27407408
000077,69.17,pedestrian,0,0.2125,0.009259259,0.06979167,0.24814814
000077,69.17,pedestrian,0,0.21458334,0.14814815,0.07395833,0.2611111
000077,69.17,pedestrian,0,0.87916666,0.39444444,0.07604167,0.2685185
000077,69.17,pedestrian,0,0.44479167,0.5277778,0.078125,0.27592593
000077,69.17,pedestrian,0,0.15520833,0.60555553,0.084375,0.3
000077,69.17,pedestrian,0,0.39375,0.5037037,0.083333336,0.29444444
000077,69.17,pedestrian,0,0.109375,0.5796296,0.08958333,0.32037038
000078,69.75,pedestrian,0,0.21458334,0.1388889,0.075,0.26481482
000078,69.75,pedestrian,0,0.93125,0.31666666,0.067708336,0.24074075
000078,69.75,pedestrian,0,0.8802083,0.39814815,0.072916664,0.25925925
000078,69.75,pedestrian,0,0.40208334,0.50185186,0.08541667,0.30185184
000078,69.75,pedestrian,0,0.15208334,0.62222224,0.08229167,0.29259259
000078,69.75,pedestrian,0,0.44895834,0.537037,0.08229167,0.29259259
000078,69.75,pedestrian,0,0.49270833,0.55,0.079166666,0.27962962
000078,69.75,pedestrian,0,0.10625,0.59074074,0.090625,0.32222223
000079,70.25,pedestrian,0,0.21041666,0,0.06979167,0.24814814
000079,70.25,pedestrian,0,0.215625,0.14074074,0.075,0.26481482
000079,70.25,pedestrian,0,0.9291667,0.31851852,0.067708336,0.24074075
000079,70.25,pedestrian,0,0.8802083,0.3962963,0.072916664,0.25925925
000079,70.25,pedestrian,0,0.45104167,0.54444444,0.08229167,0.29074073
000079,70.25,pedestrian,0,0.15,0.62777776,0.08229167,0.29074073
000079,70.25,pedestrian,0,0.10625,0.6037037,0.08541667,0.30185184
000079,70.25,pedestrian,0,0.49375,0.56296295,0.08020833,0.2851852
000079,70.25,pedestrian,0,0.40104166,0.50555557,0.088541664,0.31296295
000080,67.75,pedestrian,0,0.2125,0,0.06979167,0.24814814
000080,67.75,pedestrian,0,0.21666667,0.13333334,0.07395833,0.26296297
000080,67.75,pedestrian,0,0.83958334,0.27962962,0.06979167,0.24814814
000080,67.75,pedestrian,0,0.92083335,0.3074074,0.071875,0.25555557
000080,67.75,pedestrian,0,0.87916666,0.39444444,0.07604167,0.2685185
000080,67.75,pedestrian,0,0.45520833,0.5537037,0.079166666,0.28148147
000080,67.75,pedestrian,0,0.10208333,0.61851853,0.08645833,0.30555555
000080,67.75,pedestrian,0,0.40208334,0.51111114,0.0875,0.31111112
000080,67.75,pedestrian,0,0.140625,0.62777776,0.09166667,0.32592592
000081,67.83,pedestrian,0,0.9125,0.09259259,0.06979167,0.24814814
000081,67.83,pedestrian,0,0.8802083,0.107407406,0.072916664,0.2574074
000081,67.83,pedestrian,0,0.21770833,0.12962963,0.071875,0.25555557
000081,67.83,pedestrian,0,0.9166667,0.30185184,0.072916664,0.2574074
000081,67.83,pedestrian,0,0.8822917,0.40185186,0.07083333,0.25185186
000081,67.83,pedestrian,0,0.140625,0.65,0.08541667,0.30185184
000081,67.83,pedestrian,0,0.45729166,0.5685185,0.08020833,0.28333333
000081,67.83,pedestrian,0,0.096875,0.6333333,0.08541667,0.30185184
000081,67.83,pedestrian,0,0.39895833,0.5148148,0.08645833,0.3074074
000082,68.82,pedestrian,0,0.22083333,0.12222222,0.072916664,0.2574074
000082,68.82,pedestrian,0,0.87604165,0.107407406,0.079166666,0.28148147
000082,68.82,pedestrian,0,0.91041666,0.29444444,0.071875,0.25555557
000082,68.82,pedestrian,0,0.87916666,0.3888889,0.078125,0.27592593
000082,68.82,pedestrian,0,0.39895833,0.5185185,0.08645833,0.3074074
000082,68.82,pedestrian,0,0.46041667,0.5777778,0.078125,0.2777778
000082,68.82,pedestrian,0,0.11666667,0.6462963,0.08541667,0.30185184
000083,67.37,pedestrian,0,0.88125,0.12777779,0.07395833,0.2611111
000083,67.37,pedestrian,0,0.82916665,0.26481482,0.06875,0.2462963
000083,67.37,pedestrian,0,0.90729165,0.2962963,0.07083333,0.25185186
000083,67.37,pedestrian,0,0.87916666,0.39259258,0.077083334,0.27222222
000083,67.37,pedestrian,0,0.40104166,0.53518516,0.084375,0.3
000083,67.37,pedestrian,0,0.46041667,0.5796296,0.08229167,0.29074073
000083,67.37,pedestrian,0,0.13541667,0.6796296,0.079166666,0.28148147
000083,67.37,pedestrian,0,0.094791666,0.6481481,0.08541667,0.3037037
000084,68.43,pedestrian,0,0.22395833,0.11481482,0.06979167,0.24814814
000084,68.43,pedestrian,0,0.8833333,0.12962963,0.072916664,0.2574074
000084,68.43,pedestrian,0,0.87916666,0.38703704,0.077083334,0.27592593
000084,68.43,pedestrian,0,0.40520832,0.5277778,0.084375,0.3
000084,68.43,pedestrian,0,0.46041667,0.59444445,0.08541667,0.30185184
000084,68.43,pedestrian,0,0.092708334,0.65,0.08645833,0.30555555
000084,68.43,pedestrian,0,0.13125,0.6796296,0.084375,0.3
000085,69.87,pedestrian,0,0.225,0.10555556,0.07083333,0.2537037
000085,69.87,pedestrian,0,0.18958333,0.12037037,0.06979167,0.24814814
000085,69.87,pedestrian,0,0.884375,0.12777779,0.07083333,0.2537037
000085,69.87,pedestrian,0,0.88958335,0.27592593,0.075,0.26481482
000085,69.87,pedestrian,0,0.87916666,0.3888889,0.07604167,0.2685185
000085,69.87,pedestrian,0,0.409375,0.52962965,0.083333336,0.2962963
000085,69.87,pedestrian,0,0.7916667,0.55,0.072916664,0.25925925
000085,69.87,pedestrian,0,0.465625,0.6037037,0.083333336,0.2962963
000085,69.87,pedestrian,0,0.10729167,0.67777777,0.083333336,0.29814816
000086,68.48,pedestrian,0,0.22604166,0.10185185,0.06875,0.24444444
000086,68.48,pedestrian,0,0.88125,0.4037037,0.06979167,0.25
000086,68.48,pedestrian,0,0.41041666,0.52962965,0.084375,0.3
000086,68.48,pedestrian,0,0.12708333,0.7111111,0.077083334,0.27222222
000086,68.48,pedestrian,0,0.088541664,0.6851852,0.084375,0.29814816
000086,68.48,pedestrian,0,0.46875,0.6074074,0.0875,0.31111112
000087,70.09,pedestrian,0,0.12916666,0.05925926,0.071875,0.25555557
000087,70.09,pedestrian,0,0.22604166,0.094444446,0.067708336,0.24074075
000087,70.09,pedestrian,0,0.4125,0.5407407,0.08020833,0.2851852
000087,70.09,pedestrian,0,0.47083333,0.62222224,0.08541667,0.3037037
000087,70.09,pedestrian,0,0.12604167,0.7185185,0.077083334,0.27037036
000087,70.09,pedestrian,0,0.084375,0.6851852,0.083333336,0.2962963
000088,69.22,pedestrian,0,0.40729168,0.5425926,0.08020833,0.28333333
000088,69.22,pedestrian,0,0.47604167,0.6333333,0.08229167,0.29259259
000088,69.22,pedestrian,0,0.12291667,0.7351852,0.06979167,0.24814814
000089,67.84,pedestrian,0,0.18333334,0.15,0.06979167,0.24814814
000089,67.84,pedestrian,0,0.875,0.25555557,0.06979167,0.2462963
000089,67.84,pedestrian,0,0.8833333,0.40185186,0.06875,0.24444444
000089,67.84,pedestrian,0,0.40520832,0.52962965,0.08125,0.29074073
000089,67.84,pedestrian,0,0.478125,0.63703704,0.0875,0.31111112
000090,69.34,pedestrian,0,0.18333334,0.15555556,0.06979167,0.24814814
000090,69.34,pedestrian,0,0.865625,0.24814814,0.06979167,0.24814814
000090,69.34,pedestrian,0,0.8822917,0.40185186,0.07083333,0.25185186
000090,69.34,pedestrian,0,0.40104166,0.52592593,0.08229167,0.29259259
000090,69.34,pedestrian,0,0.48645833,0.6537037,0.088541664,0.3148148
000091,67.88,pedestrian,0,0.86354166,0.23518519,0.071875,0.25555557
000091,67.88,pedestrian,0,0.8802083,0.3962963,0.072916664,0.25925925
000091,67.88,pedestrian,0,0.39166668,0.5185185,0.088541664,0.3148148
000091,67.88,pedestrian,0,0.49479166,0.66851854,0.08125,0.28703704
000092,68.17,pedestrian,0,0.85833335,0.23148148,0.07083333,0.2537037
000092,68.17,pedestrian,0,0.8802083,0.3962963,0.072916664,0.25925925
000092,68.17,pedestrian,0,0.38229167,0.51666665,0.09375,0.3314815
000092,68.17,pedestrian,0,0.49791667,0.67407405,0.083333336,0.29814816
000093,69.88,pedestrian,0,0.17708333,0.16851851,0.07083333,0.25185186
000093,69.88,pedestrian,0,0.85625,0.22777778,0.07395833,0.2611111
000093,69.88,pedestrian,0,0.87916666,0.39444444,0.075,0.26666668
000093,69.88,pedestrian,0,0.378125,0.5185185,0.0875,0.31111112
000093,69.88,pedestrian,0,0.5052083,0.6851852,0.08125,0.2888889
000094,67.43,pedestrian,0,0.22083333,0.053703703,0.06875,0.2462963
000094,67.43,pedestrian,0,0.17708333,0.16666667,0.071875,0.2537037
000094,67.43,pedestrian,0,0.8541667,0.21851853,0.075,0.26666668
000094,67.43,pedestrian,0,0.8802083,0.3962963,0.07395833,0.26296297
000094,67.43,pedestrian,0,0.51354164,0.7037037,0.07395833,0.2611111
000094,67.43,pedestrian,0,0.36979166,0.51666665,0.08541667,0.30185184
000095,68.03,pedestrian,0,0.178125,0.18703704,0.06979167,0.24814814
000095,68.03,pedestrian,0,0.055208333,0.21851853,0.06979167,0.24814814
000095,68.03,pedestrian,0,0.853125,0.21666667,0.071875,0.25555557
000095,68.03,pedestrian,0,0.88125,0.4037037,0.06979167,0.25
000095,68.03,pedestrian,0,0.36145833,0.5148148,0.083333336,0.2962963
000096,68.69,pedestrian,0,0.178125,0.18703704,0.071875,0.2537037
000096,68.69,pedestrian,0,0.8489583,0.21296297,0.07083333,0.25185186
000096,68.69,pedestrian,0,0.35729167,0.5148148,0.084375,0.3
000097,67.56,pedestrian,0,0.178125,0.19629629,0.06979167,0.24814814
000097,67.56,pedestrian,0,0.846875,0.20185184,0.06875,0.24444444
000097,67.56,pedestrian,0,0.34583333,0.5,0.08958333,0.31666666
000098,68.30,pedestrian,0,0.40416667,0.027777778,0.07083333,0.25185186
000098,68.30,pedestrian,0,0.84791666,0.2,0.06875,0.2462963
000098,68.30,pedestrian,0,0.17708333,0.2037037,0.06875,0.2462963
000098,68.30,pedestrian,0,0.34270832,0.49444443,0.08229167,0.29259259
000099,68.70,pedestrian,0,0.84791666,0.19444445,0.06979167,0.24814814
000099,68.70,pedestrian,0,0.175,0.2074074,0.07083333,0.25185186
000099,68.70,pedestrian,0,0.128125,0.053703703,0.07395833,0.2611111
000100,67.70,pedestrian,0,0.84791666,0.18518518,0.06875,0.2462963
000100,67.70,pedestrian,0,0.175,0.20925926,0.06979167,0.24814814
000100,67.70,pedestrian,0,0.87916666,0.39444444,0.075,0.26666668
000101,67.77,pedestrian,0,0.84583336,0.17592593,0.071875,0.2537037
000101,67.77,pedestrian,0,0.87708336,0.38703704,0.078125,0.2777778
000102,68.54,pedestrian,0,0.83958334,0.17777778,0.071875,0.2537037
000102,68.54,pedestrian,0,0.175,0.22222222,0.06979167,0.24814814
000102,68.54,pedestrian,0,0.87604165,0.38518518,0.079166666,0.27962962
000103,66.97,pedestrian,0,0.40416667,0.1,0.06875,0.2462963
000103,66.97,pedestrian,0,0.8354167,0.16851851,0.06875,0.24444444
000103,66.97,pedestrian,0,0.16875,0.23148148,0.07083333,0.25185186
000103,66.97,pedestrian,0,0.87604165,0.38703704,0.077083334,0.27407408
000103,66.97,pedestrian,0,0.2875,0.47407407,0.08229167,0.29259259
000104,69.44,pedestrian,0,0.403125,0.094444446,0.06979167,0.2462963
000104,69.44,pedestrian,0,0.83229166,0.16111112,0.071875,0.2537037
000104,69.44,pedestrian,0,0.165625,0.23703703,0.07083333,0.25185186
000104,69.44,pedestrian,0,0.87604165,0.3888889,0.077083334,0.27222222
000104,69.44,pedestrian,0,0.27708334,0.47037038,0.08020833,0.2851852
000105,68.05,pedestrian,0,0.40416667,0.1,0.06875,0.2462963
000105,68.05,pedestrian,0,0.83125,0.1574074,0.07083333,0.2537037
000105,68.05,pedestrian,0,0.16041666,0.23888889,0.07083333,0.2537037
000105,68.05,pedestrian,0,0.87708336,0.3888889,0.077083334,0.27407408
000105,68.05,pedestrian,0,0.26770833,0.47037038,0.079166666,0.27962962
000106,68.87,pedestrian,0,0.403125,0.10185185,0.06875,0.24259259
000106,68.87,pedestrian,0,0.83020836,0.15,0.06979167,0.24814814
000106,68.87,pedestrian,0,0.15833333,0.2462963,0.071875,0.25555557
000106,68.87,pedestrian,0,0.87708336,0.3888889,0.07604167,0.27037036
000106,68.87,pedestrian,0,0.25625,0.4611111,0.083333336,0.29444444
000107,69.42,pedestrian,0,0.403125,0.10185185,0.06875,0.24259259
000107,69.42,pedestrian,0,0.83020836,0.14444445,0.06979167,0.24814814
000107,69.42,pedestrian,0,0.08958333,0.18333334,0.071875,0.25555557
000107,69.42,pedestrian,0,0.15520833,0.25555557,0.07395833,0.26296297
000107,69.42,pedestrian,0,0.87708336,0.3888889,0.077083334,0.27407408
000107,69.42,pedestrian,0,0.240625,0.46296296,0.08125,0.2888889
000108,68.05,pedestrian,0,0.403125,0.10185185,0.06979167,0.2462963
000108,68.05,pedestrian,0,0.828125,0.14444445,0.06979167,0.2462963
000108,68.05,pedestrian,0,0.15833333,0.2611111,0.071875,0.25555557
000108,68.05,pedestrian,0,0.87916666,0.39444444,0.07604167,0.2685185
000108,68.05,pedestrian,0,0.23333333,0.4648148,0.08125,0.28703704
000109,67.23,pedestrian,0,0.40208334,0.1,0.071875,0.25555557
000109,67.23,pedestrian,0,0.825,0.13518518,0.06979167,0.24814814
000109,67.23,pedestrian,0,0.15520833,0.26481482,0.07395833,0.2611111
000109,67.23,pedestrian,0,0.87916666,0.39444444,0.07604167,0.2685185
000109,67.23,pedestrian,0,0.221875,0.46296296,0.08229167,0.29444444
000110,69.59,pedestrian,0,0.403125,0.10185185,0.06979167,0.2462963
000110,69.59,pedestrian,0,0.825,0.12407407,0.071875,0.25555557
000110,69.59,pedestrian,0,0.153125,0.27962962,0.07083333,0.25185186
000110,69.59,pedestrian,0,0.87916666,0.39444444,0.075,0.26666668
000110,69.59,pedestrian,0,0.21666667,0.47037038,0.08020833,0.28333333
000111,67.38,pedestrian,0,0.40416667,0.1,0.06875,0.2462963
000111,67.38,pedestrian,0,0.15104167,0.27962962,0.071875,0.2574074
000111,67.38,pedestrian,0,0.87916666,0.39444444,0.075,0.26666668
000111,67.38,pedestrian,0,0.128125,0.087037034,0.07395833,0.2611111
000111,67.38,pedestrian,0,0.20729166,0.4611111,0.08229167,0.29074073
000112,67.77,pedestrian,0,0.13125,0.087037034,0.06979167,0.24814814
000112,67.77,pedestrian,0,0.40208334,0.09074074,0.07083333,0.25185186
000112,67.77,pedestrian,0,0.83125,0.11666667,0.06979167,0.24814814
000112,67.77,pedestrian,0,0.146875,0.28148147,0.072916664,0.25925925
000112,67.77,pedestrian,0,0.878125,0.39074075,0.07604167,0.2685185
000112,67.77,pedestrian,0,0.19791667,0.45555556,0.084375,0.3
000113,67.98,pedestrian,0,0.13125,0.087037034,0.06979167,0.24814814
000113,67.98,pedestrian,0,0.40104166,0.08888889,0.06979167,0.2462963
000113,67.98,pedestrian,0,0.83020836,0.1037037,0.071875,0.2537037
000113,67.98,pedestrian,0,0.14583333,0.2962963,0.07395833,0.26296297
000113,67.98,pedestrian,0,0.878125,0.38703704,0.077083334,0.27407408
000113,67.98,pedestrian,0,0.1875,0.45,0.0875,0.31296295
000114,68.79,pedestrian,0,0.40208334,0.08888889,0.06979167,0.24814814
000114,68.79,pedestrian,0,0.83020836,0.10925926,0.06979167,0.24814814
000114,68.79,pedestrian,0,0.10625,0.16851851,0.06875,0.2462963
000114,68.79,pedestrian,0,0.14583333,0.3,0.072916664,0.2574074
000114,68.79,pedestrian,0,0.87708336,0.3888889,0.077083334,0.27407408
000114,68.79,pedestrian,0,0.17708333,0.4537037,0.088541664,0.31296295
000115,69.01,pedestrian,0,0.8229167,0.10925926,0.06979167,0.24814814
000115,69.01,pedestrian,0,0.10625,0.16111112,0.071875,0.25555557
000115,69.01,pedestrian,0,0.14375,0.3074074,0.07083333,0.25185186
000115,69.01,pedestrian,0,0.878125,0.39074075,0.077083334,0.27222222
000115,69.01,pedestrian,0,0.17395833,0.45555556,0.088541664,0.31296295
000115,69.01,pedestrian,0,0.12083333,0.09074074,0.20833333,0.7407407
000116,71.22,pedestrian,0,0.821875,0.1037037,0.06979167,0.24814814
000116,71.22,pedestrian,0,0.1125,0.1574074,0.06875,0.2462963
000116,71.22,pedestrian,0,0.13854167,0.31666666,0.072916664,0.25925925
000116,71.22,pedestrian,0,0.878125,0.38703704,0.077083334,0.27407408
000116,71.22,pedestrian,0,0.17604166,0.46296296,0.083333336,0.2962963
000117,70.13,pedestrian,0,0.11354167,0.15555556,0.06979167,0.24814814
000117,70.13,pedestrian,0,0.1375,0.32222223,0.072916664,0.25925925
000117,70.13,pedestrian,0,0.878125,0.39074075,0.07604167,0.2685185
000117,70.13,pedestrian,0,0.17916666,0.47777778,0.079166666,0.27962962
000118,70.80,pedestrian,0,0.114583336,0.1537037,0.06875,0.2462963
000118,70.80,pedestrian,0,0.1375,0.32037038,0.075,0.26666668
000118,70.80,pedestrian,0,0.87708336,0.3888889,0.077083334,0.27407408
000118,70.80,pedestrian,0,0.17708333,0.4722222,0.08020833,0.28333333
000118,70.80,pedestrian,0,0.66875,0.70185184,0.077083334,0.27407408
000119,69.47,pedestrian,0,0.114583336,0.1537037,0.06875,0.2462963
000119,69.47,pedestrian,0,0.13645834,0.3351852,0.075,0.26481482
000119,69.47,pedestrian,0,0.878125,0.3888889,0.077083334,0.27222222
000119,69.47,pedestrian,0,0.18125,0.4722222,0.079166666,0.27962962
000120,69.73,pedestrian,0,0.8177083,0.075925924,0.06875,0.24444444
000120,69.73,pedestrian,0,0.114583336,0.1537037,0.06875,0.2462963
000120,69.73,pedestrian,0,0.13645834,0.34444445,0.075,0.26481482
000120,69.73,pedestrian,0,0.878125,0.39074075,0.07604167,0.2685185
000120,69.73,pedestrian,0,0.18125,0.47407407,0.08125,0.29074073
000120,69.73,pedestrian,0,0.646875,0.6925926,0.08020833,0.2851852
000120,69.73,pedestrian,0,0.6041667,0.70185184,0.078125,0.2777778
000121,69.60,pedestrian,0,0.13645834,0.34444445,0.07604167,0.2685185
000121,69.60,pedestrian,0,0.878125,0.39074075,0.07604167,0.2685185
000121,69.60,pedestrian,0,0.184375,0.47777778,0.084375,0.3
000121,69.60,pedestrian,0,0.59791666,0.6944444,0.078125,0.27592593
000121,69.60,pedestrian,0,0.63645834,0.6796296,0.08229167,0.29259259
000122,70.23,pedestrian,0,0.13854167,0.35925925,0.07395833,0.26296297
000122,70.23,pedestrian,0,0.87708336,0.3888889,0.07604167,0.27037036
000122,70.23,pedestrian,0,0.19166666,0.47592592,0.084375,0.3
000122,70.23,pedestrian,0,0.5875,0.6759259,0.08229167,0.29259259
000122,70.23,pedestrian,0,0.62395835,0.65,0.0875,0.31111112
000123,68.71,pedestrian,0,0.8072917,0.062962964,0.071875,0.25555557
000123,68.71,pedestrian,0,0.14895834,0.14814815,0.06875,0.24444444
000123,68.71,pedestrian,0,0.13645834,0.36296296,0.07604167,0.2685185
000123,68.71,pedestrian,0,0.878125,0.38703704,0.077083334,0.27407408
000123,68.71,pedestrian,0,0.19895834,0.47037038,0.0875,0.31111112
000123,68.71,pedestrian,0,0.578125,0.6611111,0.08541667,0.30185184
000123,68.71,pedestrian,0,0.6166667,0.64444447,0.08958333,0.31666666
000124,70.54,pedestrian,0,0.8072917,0.062962964,0.071875,0.25555557
000124,70.54,pedestrian,0,0.13958333,0.37037036,0.07395833,0.26296297
000124,70.54,pedestrian,0,0.87916666,0.3888889,0.07604167,0.27037036
000124,70.54,pedestrian,0,0.20625,0.47962964,0.084375,0.3
000124,70.54,pedestrian,0,0.5708333,0.6462963,0.083333336,0.2962963
000124,70.54,pedestrian,0,0.61354166,0.6296296,0.08541667,0.30185184
000125,69.49,pedestrian,0,0.13854167,0.37407407,0.07604167,0.27222222
000125,69.49,pedestrian,0,0.87916666,0.3888889,0.07604167,0.27037036
000125,69.49,pedestrian,0,0.21666667,0.4888889,0.08125,0.29074073
000125,69.49,pedestrian,0,0.60625,0.6203704,0.08645833,0.30555555
000125,69.49,pedestrian,0,0.5625,0.6333333,0.0875,0.31111112
000126,69.20,pedestrian,0,0.140625,0.39074075,0.075,0.26666668
000126,69.20,pedestrian,0,0.87916666,0.39259258,0.077083334,0.27222222
000126,69.20,pedestrian,0,0.22708334,0.4925926,0.08229167,0.29074073
000126,69.20,pedestrian,0,0.57916665,0.6148148,0.084375,0.3
000127,69.24,pedestrian,0,0.21458334,0.014814815,0.07083333,0.25185186
000127,69.24,pedestrian,0,0.140625,0.39074075,0.07604167,0.27037036
000127,69.24,pedestrian,0,0.878125,0.39074075,0.077083334,0.27407408
000127,69.24,pedestrian,0,0.23854166,0.4888889,0.08020833,0.2851852
000127,69.24,pedestrian,0,0.5625,0.6018519,0.08541667,0.30555555
000127,69.24,pedestrian,0,0.21458334,0.11481482,0.079166666,0.27962962
000128,69.10,pedestrian,0,0.21458334,0.0074074073,0.07395833,0.26296297
000128,69.10,pedestrian,0,0.12291667,0.13518518,0.06979167,0.24814814
000128,69.10,pedestrian,0,0.87708336,0.3888889,0.077083334,0.27407408
000128,69.10,pedestrian,0,0.13854167,0.41111112,0.075,0.2685185
000128,69.10,pedestrian,0,0.24479167,0.48703703,0.084375,0.29814816
000128,69.10,pedestrian,0,0.58125,0.5888889,0.08541667,0.30185184
000128,69.10,pedestrian,0,0.54270834,0.5962963,0.088541664,0.3148148
000129,69.17,pedestrian,0,0.878125,0.39259258,0.077083334,0.27222222
000129,69.17,pedestrian,0,0.13645834,0.41296297,0.078125,0.27592593
000129,69.17,pedestrian,0,0.25520834,0.50185186,0.08229167,0.29259259
000129,69.17,pedestrian,0,0.57604164,0.57222223,0.08229167,0.29259259
000129,69.17,pedestrian,0,0.5364583,0.59074074,0.08645833,0.30925927
000130,68.78,pedestrian,0,0.60625,0.24814814,0.06979167,0.24814814
000130,68.78,pedestrian,0,0.878125,0.3888889,0.077083334,0.27407408
000130,68.78,pedestrian,0,0.134375,0.41296297,0.078125,0.27592593
000130,68.78,pedestrian,0,0.26875,0.5,0.078125,0.27592593
000130,68.78,pedestrian,0,0.5260417,0.57222223,0.08958333,0.31666666
000130,68.78,pedestrian,0,0.56666666,0.5555556,0.0875,0.31111112
000131,67.46,pedestrian,0,0.87916666,0.39074075,0.077083334,0.27407408
000131,67.46,pedestrian,0,0.13541667,0.43148148,0.07604167,0.27037036
000131,67.46,pedestrian,0,0.56041664,0.5555556,0.08229167,0.29074073
000131,67.46,pedestrian,0,0.525,0.5648148,0.084375,0.29814816
000131,67.46,pedestrian,0,0.27604166,0.50185186,0.079166666,0.28148147
000132,70.67,pedestrian,0,0.87916666,0.39074075,0.077083334,0.27407408
000132,70.67,pedestrian,0,0.13229166,0.42962962,0.08125,0.28703704
000132,70.67,pedestrian,0,0.5364583,0.55,0.08229167,0.29074073
000132,70.67,pedestrian,0,0.27916667,0.5037037,0.084375,0.3
000133,69.43,pedestrian,0,0.20625,0.046296295,0.07083333,0.25185186
000133,69.43,pedestrian,0,0.878125,0.39259258,0.077083334,0.27222222
000133,69.43,pedestrian,0,0.13333334,0.4425926,0.077083334,0.27407408
000133,69.43,pedestrian,0,0.51145834,0.54444444,0.08541667,0.3037037
000133,69.43,pedestrian,0,0.28854167,0.5074074,0.08541667,0.3037037
000133,69.43,pedestrian,0,0.546875,0.537037,0.084375,0.29814816
000134,70.64,pedestrian,0,0.20104167,0.05185185,0.06979167,0.24814814
000134,70.64,pedestrian,0,0.87916666,0.39074075,0.077083334,0.27407408
000134,70.64,pedestrian,0,0.13020833,0.45555556,0.077083334,0.27407408
000134,70.64,pedestrian,0,0.51875,0.52962965,0.0875,0.30925927
000135,72.19,pedestrian,0,0.878125,0.3888889,0.077083334,0.27407408
000135,72.19,pedestrian,0,0.12708333,0.46666667,0.077083334,0.27592593
000135,72.19,pedestrian,0,0.49895832,0.5240741,0.08541667,0.3037037
000135,72.19,pedestrian,0,0.5416667,0.51111114,0.08125,0.2888889
000136,69.09,pedestrian,0,0.87916666,0.39259258,0.075,0.26666668
000136,69.09,pedestrian,0,0.53541666,0.50555557,0.08020833,0.2851852
000136,69.09,pedestrian,0,0.49479166,0.51666665,0.08229167,0.29074073
000136,69.09,pedestrian,0,0.125,0.4648148,0.079166666,0.28333333
000137,69.88,pedestrian,0,0.87916666,0.39259258,0.075,0.26666668
000137,69.88,pedestrian,0,0.125,0.47962964,0.078125,0.2777778
000137,69.88,pedestrian,0,0.528125,0.48703703,0.08020833,0.2851852
000137,69.88,pedestrian,0,0.48854166,0.5092593,0.079166666,0.28333333
000138,70.79,pedestrian,0,0.215625,0.06481481,0.071875,0.25555557
000138,70.79,pedestrian,0,0.8802083,0.39259258,0.07604167,0.2685185
000138,70.79,pedestrian,0,0.484375,0.4962963,0.08020833,0.28703704
000138,70.79,pedestrian,0,0.5239583,0.48333332,0.084375,0.3
000138,70.79,pedestrian,0,0.12291667,0.4814815,0.08229167,0.29259259
000139,68.03,pedestrian,0,0.225,0.05740741,0.07083333,0.2537037
000139,68.03,pedestrian,0,0.20104167,0.083333336,0.06979167,0.24814814
000139,68.03,pedestrian,0,0.39583334,0.08888889,0.07083333,0.25185186
000139,68.03,pedestrian,0,0.8802083,0.39259258,0.07604167,0.2685185
000139,68.03,pedestrian,0,0.478125,0.49444443,0.08020833,0.28333333
000139,68.03,pedestrian,0,0.121875,0.4888889,0.08229167,0.29074073
000139,68.03,pedestrian,0,0.51979166,0.47777778,0.08229167,0.29259259
000140,68.95,pedestrian,0,0.40104166,0.094444446,0.067708336,0.24074075
000140,68.95,pedestrian,0,0.87916666,0.39074075,0.077083334,0.27407408
000140,68.95,pedestrian,0,0.47395834,0.4814815,0.08020833,0.28703704
000140,68.95,pedestrian,0,0.51875,0.46296296,0.08125,0.28703704
000140,68.95,pedestrian,0,0.12083333,0.5,0.083333336,0.2962963
000141,71.28,pedestrian,0,0.20104167,0.087037034,0.06979167,0.24814814
000141,71.28,pedestrian,0,0.403125,0.08888889,0.07083333,0.25
000141,71.28,pedestrian,0,0.87916666,0.39074075,0.077083334,0.27407408
000141,71.28,pedestrian,0,0.46875,0.46666667,0.08125,0.28703704
000141,71.28,pedestrian,0,0.51458335,0.45185184,0.08125,0.2888889
000141,71.28,pedestrian,0,0.119791664,0.51111114,0.08125,0.2888889
000142,70.94,pedestrian,0,0.40520832,0.087037034,0.07083333,0.25
000142,70.94,pedestrian,0,0.8802083,0.39259258,0.07604167,0.2685185
000142,70.94,pedestrian,0,0.46458334,0.4611111,0.079166666,0.28148147
000142,70.94,pedestrian,0,0.5083333,0.44444445,0.08125,0.28703704
000142,70.94,pedestrian,0,0.11770833,0.5185185,0.08125,0.28703704
000142,70.94,pedestrian,0,0.128125,0.011111111,0.11875,0.42222223
000143,70.37,pedestrian,0,0.2125,0.09074074,0.06979167,0.24814814
000143,70.37,pedestrian,0,0.40520832,0.087037034,0.071875,0.25555557
000143,70.37,pedestrian,0,0.878125,0.39259258,0.077083334,0.27222222
000143,70.37,pedestrian,0,0.46145833,0.45,0.08020833,0.2851852
000143,70.37,pedestrian,0,0.5,0.43333334,0.083333336,0.29814816
000143,70.37,pedestrian,0,0.11770833,0.5240741,0.08645833,0.30555555
000144,72.89,pedestrian,0,0.40520832,0.087037034,0.07083333,0.25
000144,72.89,pedestrian,0,0.87916666,0.39074075,0.077083334,0.27407408
000144,72.89,pedestrian,0,0.45833334,0.44444445,0.077083334,0.27592593
000144,72.89,pedestrian,0,0.49895832,0.42962962,0.08541667,0.30185184
000144,72.89,pedestrian,0,0.12083333,0.53333336,0.0875,0.31296295
000144,72.89,pedestrian,0,0.12916666,0.009259259,0.13229166,0.47037038
000145,69.94,pedestrian,0,0.40520832,0.09074074,0.071875,0.2537037
000145,69.94,pedestrian,0,0.87916666,0.39074075,0.077083334,0.27407408
000145,69.94,pedestrian,0,0.45208332,0.43888888,0.078125,0.2777778
000145,69.94,pedestrian,0,0.121875,0.54444444,0.08645833,0.3074074
000145,69.94,pedestrian,0,0.49583334,0.4148148,0.084375,0.3
000145,69.94,pedestrian,0,0.12916666,0.011111111,0.13854167,0.49074075
000146,70.12,pedestrian,0,0.40416667,0.09259259,0.06979167,0.24814814
000146,70.12,pedestrian,0,0.87916666,0.39259258,0.075,0.26666668
000146,70.12,pedestrian,0,0.49583334,0.4074074,0.077083334,0.27407408
000146,70.12,pedestrian,0,0.45104167,0.42407408,0.07604167,0.2685185
000146,70.12,pedestrian,0,0.123958334,0.55185187,0.08541667,0.30185184
000146,70.12,pedestrian,0,0.13125,0.009259259,0.14166667,0.50185186
000147,67.52,pedestrian,0,0.403125,0.087037034,0.07083333,0.25
000147,67.52,pedestrian,0,0.8802083,0.39444444,0.075,0.26666668
000147,67.52,pedestrian,0,0.44895834,0.41666666,0.07604167,0.2685185
000147,67.52,pedestrian,0,0.49375,0.40555555,0.077083334,0.27222222
000147,67.52,pedestrian,0,0.12291667,0.55185187,0.092708334,0.32962963
000147,67.52,pedestrian,0,0.13125,0.0055555557,0.14375,0.5092593
000148,68.95,pedestrian,0,0.403125,0.09074074,0.06979167,0.2462963
000148,68.95,pedestrian,0,0.48645833,0.38703704,0.08020833,0.2851852
000148,68.95,pedestrian,0,0.8802083,0.3962963,0.075,0.26481482
000148,68.95,pedestrian,0,0.44375,0.40555555,0.078125,0.2777778
000148,68.95,pedestrian,0,0.13020833,0.5648148,0.08541667,0.3037037
000149,69.98,pedestrian,0,0.403125,0.094444446,0.06875,0.24444444
000149,69.98,pedestrian,0,0.48541668,0.38518518,0.078125,0.27592593
000149,69.98,pedestrian,0,0.440625,0.39074075,0.079166666,0.28148147
000149,69.98,pedestrian,0,0.87916666,0.39259258,0.075,0.26666668
000149,69.98,pedestrian,0,0.128125,0.5740741,0.08958333,0.31666666
000150,69.48,pedestrian,0,0.40520832,0.098148145,0.06979167,0.24814814
000150,69.48,pedestrian,0,0.16666667,0.2685185,0.06979167,0.24814814
000150,69.48,pedestrian,0,0.19791667,0.27222222,0.07083333,0.2537037
000150,69.48,pedestrian,0,0.48541668,0.38148147,0.078125,0.27592593
000150,69.48,pedestrian,0,0.43854168,0.39259258,0.078125,0.27592593
000150,69.48,pedestrian,0,0.87916666,0.39259258,0.075,0.26666668
000150,69.48,pedestrian,0,0.89375,0.59444445,0.08125,0.2888889
000150,69.48,pedestrian,0,0.13229166,0.5796296,0.092708334,0.32962963
000151,69.66,pedestrian,0,0.40416667,0.09074074,0.07083333,0.25185186
000151,69.66,pedestrian,0,0.48645833,0.36666667,0.077083334,0.27222222
000151,69.66,pedestrian,0,0.43645832,0.38518518,0.07395833,0.2611111
000151,69.66,pedestrian,0,0.87916666,0.39259258,0.075,0.26666668
000151,69.66,pedestrian,0,0.13645834,0.5888889,0.090625,0.32222223
000151,69.66,pedestrian,0,0.89270836,0.5888889,0.08645833,0.3074074
000152,70.39,pedestrian,0,0.403125,0.09259259,0.06979167,0.24814814
000152,70.39,pedestrian,0,0.43125,0.37037036,0.078125,0.2777778
000152,70.39,pedestrian,0,0.484375,0.35185185,0.078125,0.2777778
000152,70.39,pedestrian,0,0.87916666,0.39259258,0.075,0.26666668
000152,70.39,pedestrian,0,0.19270833,0.27962962,0.077083334,0.27407408
000152,70.39,pedestrian,0,0.13854167,0.6,0.08958333,0.31851852
000152,70.39,pedestrian,0,0.89270836,0.5888889,0.08645833,0.3074074
000153,70.05,pedestrian,0,0.40416667,0.09259259,0.06979167,0.24814814
000153,70.05,pedestrian,0,0.15625,0.29074073,0.071875,0.25555557
000153,70.05,pedestrian,0,0.484375,0.35740742,0.075,0.26481482
000153,70.05,pedestrian,0,0.43020833,0.36666667,0.078125,0.2777778
000153,70.05,pedestrian,0,0.87916666,0.39259258,0.075,0.26666668
000153,70.05,pedestrian,0,0.1375,0.6074074,0.090625,0.32222223
000154,70.17,pedestrian,0,0.56145835,0,0.06875,0.2462963
000154,70.17,pedestrian,0,0.403125,0.094444446,0.06979167,0.2462963
000154,70.17,pedestrian,0,0.15520833,0.29259259,0.07395833,0.26296297
000154,70.17,pedestrian,0,0.475,0.33333334,0.077083334,0.27222222
000154,70.17,pedestrian,0,0.43125,0.35555556,0.07395833,0.26296297
000154,70.17,pedestrian,0,0.87916666,0.39259258,0.075,0.26666668
000154,70.17,pedestrian,0,0.1375,0.6111111,0.09166667,0.32592592
000155,68.94,pedestrian,0,0.403125,0.094444446,0.06979167,0.2462963
000155,68.94,pedestrian,0,0.221875,0.15,0.06979167,0.24814814
000155,68.94,pedestrian,0,0.42916667,0.3462963,0.078125,0.27592593
000155,68.94,pedestrian,0,0.87916666,0.39074075,0.077083334,0.27407408
000155,68.94,pedestrian,0,0.47395834,0.3314815,0.08020833,0.28333333
000155,68.94,pedestrian,0,0.13645834,0.6203704,0.09166667,0.32592592
000156,68.55,pedestrian,0,0.40416667,0.09259259,0.06979167,0.24814814
000156,68.55,pedestrian,0,0.175,0.3037037,0.075,0.26481482
000156,68.55,pedestrian,0,0.428125,0.33333334,0.077083334,0.27222222
000156,68.55,pedestrian,0,0.475,0.32962963,0.07604167,0.27037036
000156,68.55,pedestrian,0,0.8802083,0.39259258,0.07604167,0.2685185
000156,68.55,pedestrian,0,0.140625,0.6351852,0.08958333,0.31851852
000156,68.55,pedestrian,0,0.89270836,0.5888889,0.08645833,0.3074074
000157,70.71,pedestrian,0,0.403125,0.094444446,0.06979167,0.2462963
000157,70.71,pedestrian,0,0.471875,0.30925927,0.077083334,0.27222222
000157,70.71,pedestrian,0,0.428125,0.32592592,0.075,0.26481482
000157,70.71,pedestrian,0,0.87916666,0.39074075,0.07604167,0.2685185
000157,70.71,pedestrian,0,0.18333334,0.30925927,0.077083334,0.27407408
000157,70.71,pedestrian,0,0.146875,0.64444447,0.090625,0.32222223
000158,67.20,pedestrian,0,0.40416667,0.09259259,0.06979167,0.24814814
000158,67.20,pedestrian,0,0.14791666,0.12592593,0.07083333,0.2537037
000158,67.20,pedestrian,0,0.47083333,0.31296295,0.07395833,0.26296297
000158,67.20,pedestrian,0,0.15729167,0.32962963,0.06875,0.2462963
000158,67.20,pedestrian,0,0.42708334,0.32407406,0.075,0.26481482
000158,67.20,pedestrian,0,0.87916666,0.39074075,0.07604167,0.2685185
000158,67.20,pedestrian,0,0.18229167,0.31296295,0.079166666,0.27962962
000158,67.20,pedestrian,0,0.63958335,0.69814813,0.078125,0.2777778
000158,67.20,pedestrian,0,0.14791666,0.66481483,0.0875,0.31111112
000159,66.87,pedestrian,0,0.83125,0.046296295,0.06979167,0.2462963
000159,66.87,pedestrian,0,0.89166665,0.07962963,0.067708336,0.24074075
000159,66.87,pedestrian,0,0.40520832,0.098148145,0.06979167,0.24814814
000159,66.87,pedestrian,0,0.428125,0.31296295,0.07395833,0.2611111
000159,66.87,pedestrian,0,0.46666667,0.3037037,0.07395833,0.26296297
000159,66.87,pedestrian,0,0.15520833,0.32777777,0.07395833,0.26296297
000159,66.87,pedestrian,0,0.184375,0.32037038,0.07604167,0.2685185
000159,66.87,pedestrian,0,0.8802083,0.39259258,0.07604167,0.2685185
000159,66.87,pedestrian,0,0.6322917,0.6796296,0.084375,0.3
000159,66.87,pedestrian,0,0.14895834,0.6851852,0.084375,0.29814816
000160,70.08,pedestrian,0,0.8333333,0.055555556,0.067708336,0.24074075
000160,70.08,pedestrian,0,0.403125,0.094444446,0.06979167,0.2462963
000160,70.08,pedestrian,0,0.46354166,0.29259259,0.07604167,0.27037036
000160,70.08,pedestrian,0,0.42708334,0.3074074,0.072916664,0.2611111
000160,70.08,pedestrian,0,0.87916666,0.39074075,0.07604167,0.2685185
000160,70.08,pedestrian,0,0.18229167,0.32592592,0.078125,0.2777778
000160,70.08,pedestrian,0,0.625,0.65925926,0.08645833,0.3074074
000160,70.08,pedestrian,0,0.14791666,0.6814815,0.08645833,0.30555555
000161,67.59,pedestrian,0,0.58020836,0.03888889,0.075,0.26666668
000161,67.59,pedestrian,0,0.8385417,0.06111111,0.06979167,0.2462963
000161,67.59,pedestrian,0,0.40416667,0.1,0.06875,0.2462963
000161,67.59,pedestrian,0,0.42291668,0.2962963,0.075,0.26481482
000161,67.59,pedestrian,0,0.4625,0.29259259,0.075,0.26666668
000161,67.59,pedestrian,0,0.8802083,0.39259258,0.07604167,0.2685185
000161,67.59,pedestrian,0,0.18333334,0.34444445,0.075,0.26666668
000161,67.59,pedestrian,0,0.61875,0.6481481,0.08645833,0.3074074
000162,68.25,pedestrian,0,0.83958334,0.06851852,0.06875,0.24444444
000162,68.25,pedestrian,0,0.403125,0.1,0.067708336,0.24074075
000162,68.25,pedestrian,0,0.9,0.10555556,0.067708336,0.24074075
000162,68.25,pedestrian,0,0.42395833,0.28703704,0.07083333,0.25185186
000162,68.25,pedestrian,0,0.46354166,0.2777778,0.075,0.2685185
000162,68.25,pedestrian,0,0.18333334,0.3462963,0.075,0.26666668
000162,68.25,pedestrian,0,0.8802083,0.39259258,0.07604167,0.2685185
000162,68.25,pedestrian,0,0.61041665,0.62222224,0.092708334,0.32962963
000162,68.25,pedestrian,0,0.15416667,0.712963,0.077083334,0.27407408
000163,72.02,pedestrian,0,0.840625,0.072222225,0.067708336,0.24074075
000163,72.02,pedestrian,0,0.40520832,0.098148145,0.06979167,0.24814814
000163,72.02,pedestrian,0,0.23854166,0.18703704,0.06979167,0.24814814
000163,72.02,pedestrian,0,0.46458334,0.27037036,0.07083333,0.25
000163,72.02,pedestrian,0,0.42083332,0.27962962,0.072916664,0.25925925
000163,72.02,pedestrian,0,0.8802083,0.39444444,0.072916664,0.2611111
000163,72.02,pedestrian,0,0.18229167,0.3537037,0.078125,0.2777778
000163,72.02,pedestrian,0,0.60625,0.61296296,0.09166667,0.32592592
000164,69.87,pedestrian,0,0.84270835,0.07962963,0.06979167,0.2462963
000164,69.87,pedestrian,0,0.403125,0.1,0.067708336,0.24074075
000164,69.87,pedestrian,0,0.16666667,0.12962963,0.06979167,0.24814814
000164,69.87,pedestrian,0,0.4625,0.25925925,0.075,0.26666668
000164,69.87,pedestrian,0,0.41770834,0.27222222,0.078125,0.27592593
000164,69.87,pedestrian,0,0.14791666,0.37777779,0.07083333,0.25185186
000164,69.87,pedestrian,0,0.8802083,0.39444444,0.072916664,0.2611111
000164,69.87,pedestrian,0,0.18229167,0.3611111,0.077083334,0.27407408
000164,69.87,pedestrian,0,0.6020833,0.6,0.092708334,0.3314815
000165,70.06,pedestrian,0,0.8489583,0.09259259,0.06979167,0.2462963
000165,70.06,pedestrian,0,0.40416667,0.09259259,0.06979167,0.24814814
000165,70.06,pedestrian,0,0.45833334,0.2462963,0.07604167,0.27037036
000165,70.06,pedestrian,0,0.41875,0.2611111,0.072916664,0.2574074
000165,70.06,pedestrian,0,0.184375,0.36851853,0.07395833,0.26481482
000165,70.06,pedestrian,0,0.146875,0.38148147,0.072916664,0.25925925
000165,70.06,pedestrian,0,0.87916666,0.39074075,0.07604167,0.2685185
000165,70.06,pedestrian,0,0.6010417,0.58518517,0.090625,0.32037038
000166,70.15,pedestrian,0,0.85,0.1,0.07083333,0.25185186
000166,70.15,pedestrian,0,0.40416667,0.09259259,0.06979167,0.24814814
000166,70.15,pedestrian,0,0.24375,0.21111111,0.06875,0.24444444
000166,70.15,pedestrian,0,0.46041667,0.24444444,0.072916664,0.25925925
000166,70.15,pedestrian,0,0.41770834,0.25925925,0.07395833,0.26296297
000166,70.15,pedestrian,0,0.18333334,0.37962964,0.072916664,0.2574074
000166,70.15,pedestrian,0,0.87916666,0.39444444,0.075,0.26666668
000166,70.15,pedestrian,0,0.596875,0.57592595,0.08958333,0.31666666
000167,70.65,pedestrian,0,0.40416667,0.094444446,0.07083333,0.25185186
000167,70.65,pedestrian,0,0.8541667,0.10925926,0.072916664,0.2574074
000167,70.65,pedestrian,0,0.246875,0.20925926,0.06875,0.24444444
000167,70.65,pedestrian,0,0.46145833,0.24259259,0.07395833,0.26481482
000167,70.65,pedestrian,0,0.41875,0.24444444,0.072916664,0.2574074
000167,70.65,pedestrian,0,0.8802083,0.39444444,0.075,0.26481482
000167,70.65,pedestrian,0,0.18333334,0.39074075,0.072916664,0.2574074
000167,70.65,pedestrian,0,0.59166664,0.56296295,0.08958333,0.31666666
000168,71.59,pedestrian,0,0.40520832,0.098148145,0.06979167,0.24814814
000168,71.59,pedestrian,0,0.85625,0.11111111,0.06979167,0.24814814
000168,71.59,pedestrian,0,0.24375,0.21111111,0.071875,0.25555557
000168,71.59,pedestrian,0,0.46458334,0.23333333,0.07083333,0.2537037
000168,71.59,pedestrian,0,0.41875,0.23888889,0.075,0.26481482
000168,71.59,pedestrian,0,0.8802083,0.39444444,0.075,0.26481482
000168,71.59,pedestrian,0,0.5885417,0.54814816,0.08958333,0.31851852
000168,71.59,pedestrian,0,0.178125,0.39259258,0.075,0.26481482
000169,71.31,pedestrian,0,0.40416667,0.09259259,0.06979167,0.24814814
000169,71.31,pedestrian,0,0.85729164,0.11481482,0.06979167,0.24814814
000169,71.31,pedestrian,0,0.24166666,0.22222222,0.071875,0.25555557
000169,71.31,pedestrian,0,0.42083332,0.23703703,0.072916664,0.2611111
000169,71.31,pedestrian,0,0.46458334,0.23333333,0.07083333,0.2537037
000169,71.31,pedestrian,0,0.8802083,0.39444444,0.075,0.26481482
000169,71.31,pedestrian,0,0.5833333,0.54444444,0.088541664,0.3148148
000169,71.31,pedestrian,0,0.28854167,0.47407407,0.08541667,0.3037037
000170,69.77,pedestrian,0,0.40416667,0.1,0.06875,0.2462963
000170,69.77,pedestrian,0,0.42083332,0.22592592,0.072916664,0.25925925
000170,69.77,pedestrian,0,0.46354166,0.21481481,0.075,0.26481482
000170,69.77,pedestrian,0,0.13958333,0.24444444,0.06875,0.2462963
000170,69.77,pedestrian,0,0.24166666,0.22777778,0.06979167,0.24814814
000170,69.77,pedestrian,0,0.87708336,0.39074075,0.077083334,0.27407408
000170,69.77,pedestrian,0,0.146875,0.42962962,0.06875,0.2462963
000170,69.77,pedestrian,0,0.28541666,0.47407407,0.08229167,0.29259259
000170,69.77,pedestrian,0,0.5833333,0.5277778,0.0875,0.30925927
000171,71.31,pedestrian,0,0.403125,0.094444446,0.06979167,0.2462963
000171,71.31,pedestrian,0,0.865625,0.12407407,0.06979167,0.24814814
000171,71.31,pedestrian,0,0.46458334,0.21111111,0.06979167,0.24814814
000171,71.31,pedestrian,0,0.41979167,0.22222222,0.07395833,0.2611111
000171,71.31,pedestrian,0,0.24166666,0.22592592,0.071875,0.25555557
000171,71.31,pedestrian,0,0.13958333,0.24814814,0.06979167,0.24814814
000171,71.31,pedestrian,0,0.87916666,0.39259258,0.077083334,0.27222222
000171,71.31,pedestrian,0,0.58125,0.5185185,0.08541667,0.30185184
000171,71.31,pedestrian,0,0.171875,0.4148148,0.08125,0.2888889
000171,71.31,pedestrian,0,0.28229168,0.47407407,0.083333336,0.2962963
000172,70.04,pedestrian,0,0.40416667,0.1,0.06875,0.2462963
000172,70.04,pedestrian,0,0.8666667,0.13333334,0.07083333,0.25185186
000172,70.04,pedestrian,0,0.421875,0.21296297,0.072916664,0.2574074
000172,70.04,pedestrian,0,0.465625,0.21111111,0.07083333,0.25185186
000172,70.04,pedestrian,0,0.23854166,0.24814814,0.06979167,0.24814814
000172,70.04,pedestrian,0,0.87708336,0.3888889,0.078125,0.2777778
000172,70.04,pedestrian,0,0.57708335,0.51296294,0.08229167,0.29444444
000172,70.04,pedestrian,0,0.28125,0.4722222,0.08125,0.28703704
000172,70.04,pedestrian,0,0.16875,0.40185186,0.0875,0.30925927
000173,70.30,pedestrian,0,0.40416667,0.1,0.06875,0.2462963
000173,70.30,pedestrian,0,0.421875,0.2074074,0.071875,0.25555557
000173,70.30,pedestrian,0,0.46666667,0.2,0.071875,0.2537037
000173,70.30,pedestrian,0,0.2375,0.24074075,0.072916664,0.25925925
000173,70.30,pedestrian,0,0.13958333,0.26481482,0.06979167,0.24814814
000173,70.30,pedestrian,0,0.8802083,0.39444444,0.075,0.26481482
000173,70.30,pedestrian,0,0.17291667,0.42962962,0.078125,0.2777778
000173,70.30,pedestrian,0,0.13854167,0.45740741,0.07083333,0.25185186
000173,70.30,pedestrian,0,0.27916667,0.46851853,0.083333336,0.29814816
000173,70.30,pedestrian,0,0.571875,0.49814814,0.08541667,0.30555555
000173,70.30,pedestrian,0,0.8625,0.59444445,0.08020833,0.28333333
000174,69.46,pedestrian,0,0.40416667,0.1,0.06875,0.2462963
000174,69.46,pedestrian,0,0.87291664,0.13518518,0.07083333,0.2537037
000174,69.46,pedestrian,0,0.46875,0.18888889,0.071875,0.25555557
000174,69.46,pedestrian,0,0.42395833,0.2,0.071875,0.2537037
000174,69.46,pedestrian,0,0.23333333,0.25185186,0.07395833,0.2611111
000174,69.46,pedestrian,0,0.878125,0.39444444,0.077083334,0.27407408
000174,69.46,pedestrian,0,0.13854167,0.4611111,0.071875,0.25555557
000174,69.46,pedestrian,0,0.17291667,0.43148148,0.08020833,0.2851852
000174,69.46,pedestrian,0,0.5697917,0.48703703,0.08541667,0.3037037
000174,69.46,pedestrian,0,0.27916667,0.46666667,0.08541667,0.30185184
000174,69.46,pedestrian,0,0.85833335,0.5925926,0.08229167,0.29259259
000175,69.07,pedestrian,0,0.40416667,0.1,0.06875,0.2462963
000175,69.07,pedestrian,0,0.875,0.16111112,0.06979167,0.2462963
000175,69.07,pedestrian,0,0.42708334,0.19074073,0.071875,0.25555557
000175,69.07,pedestrian,0,0.46979168,0.18703704,0.06979167,0.2462963
000175,69.07,pedestrian,0,0.23333333,0.2685185,0.06875,0.2462963
000175,69.07,pedestrian,0,0.1375,0.27962962,0.06875,0.2462963
000175,69.07,pedestrian,0,0.878125,0.39444444,0.077083334,0.27222222
000175,69.07,pedestrian,0,0.13229166,0.45740741,0.072916664,0.2574074
000175,69.07,pedestrian,0,0.56458336,0.47962964,0.08541667,0.30185184
000175,69.07,pedestrian,0,0.17395833,0.45,0.07604167,0.27037036
000175,69.07,pedestrian,0,0.28125,0.46851853,0.08229167,0.29259259
