000001,107.18,pedestrian,0,0.7609375,0.043055557,0.053125,0.19027779
000001,107.18,pedestrian,0,0.396875,0.11111111,0.06484375,0.22916667
000001,107.18,pedestrian,0,0.259375,0.108333334,0.0609375,0.21666667
000001,107.18,pedestrian,0,0.18203124,0.37638888,0.07265625,0.25833333
000001,107.18,pedestrian,0,0.44375,0.0875,0.06171875,0.21944444
000001,107.18,pedestrian,0,0.10078125,0.3402778,0.06875,0.24444444
000001,107.18,pedestrian,0,0.1671875,0.072222225,0.0609375,0.21666667
000001,107.18,pedestrian,0,0.5296875,0.09583333,0.0640625,0.22777778
000001,107.18,pedestrian,0,0.8375,0.21527778,0.0609375,0.21666667
000001,107.18,pedestrian,0,0.0359375,0.06388889,0.06640625,0.23472223
000001,107.18,pedestrian,0,0.5609375,0.16944444,0.0640625,0.22777778
000001,107.18,pedestrian,0,0.7953125,0.20972222,0.065625,0.23333333
000001,107.18,pedestrian,0,0.884375,0.39583334,0.075,0.26805556
000001,107.18,pedestrian,0,0.69921875,0.50277776,0.07734375,0.275
000001,107.18,pedestrian,0,0.0328125,0.48472223,0.08046875,0.2875
000001,107.18,pedestrian,0,0.1578125,0.33055556,0.11484375,0.40694445
000002,90.15,pedestrian,0,0.7609375,0.043055557,0.053125,0.19027779
000002,90.15,pedestrian,0,0.528125,0.108333334,0.0578125,0.20416667
000002,90.15,pedestrian,0,0.396875,0.11388889,0.06328125,0.225
000002,90.15,pedestrian,0,0.93125,0.20972222,0.05234375,0.18611111
000002,90.15,pedestrian,0,0.253125,0.1125,0.0625,0.22222222
000002,90.15,pedestrian,0,0.44609374,0.09861111,0.06015625,0.21388888
000002,90.15,pedestrian,0,0.16875,0.07638889,0.059375,0.21111111
000002,90.15,pedestrian,0,0.18359375,0.34305555,0.0765625,0.27083334
000002,90.15,pedestrian,0,0.0359375,0.06388889,0.06640625,0.23472223
000002,90.15,pedestrian,0,0.0328125,0.4861111,0.07890625,0.28055555
000002,90.15,pedestrian,0,0.69609374,0.5069444,0.06640625,0.23472223
000002,90.15,pedestrian,0,0.88125,0.39583334,0.07265625,0.25833333
000002,90.15,pedestrian,0,0.0875,0.3125,0.075,0.26666668
000002,90.15,pedestrian,0,0.7046875,0.50555557,0.08125,0.29027778
000003,88.83,pedestrian,0,0.7609375,0.043055557,0.053125,0.19027779
000003,88.83,pedestrian,0,0.1984375,0.048611112,0.05625,0.19861111
000003,88.83,pedestrian,0,0.4390625,0.11111111,0.05859375,0.20694445
000003,88.83,pedestrian,0,0.39609376,0.1125,0.0640625,0.22777778
000003,88.83,pedestrian,0,0.22109374,0.031944446,0.05625,0.2
000003,88.83,pedestrian,0,0.5203125,0.11805555,0.059375,0.21111111
000003,88.83,pedestrian,0,0.18515626,0.33333334,0.0765625,0.27083334
000003,88.83,pedestrian,0,0.2515625,0.12777779,0.06640625,0.2361111
000003,88.83,pedestrian,0,0.0359375,0.06388889,0.06640625,0.23472223
000003,88.83,pedestrian,0,0.81171876,0.19583334,0.06484375,0.23055555
000003,88.83,pedestrian,0,0.6984375,0.50277776,0.071875,0.25694445
000003,88.83,pedestrian,0,0.8804687,0.3986111,0.07265625,0.25833333
000003,88.83,pedestrian,0,0.03046875,0.48194444,0.08203125,0.29166666
000004,89.30,pedestrian,0,0.215625,0.020833334,0.0546875,0.19444445
000004,89.30,pedestrian,0,0.43515626,0.12222222,0.059375,0.21111111
000004,89.30,pedestrian,0,0.24140625,0.0125,0.05546875,0.19583334
000004,89.30,pedestrian,0,0.39609376,0.1125,0.06484375,0.23055555
000004,89.30,pedestrian,0,0.24375,0.13194445,0.06796875,0.24166666
000004,89.30,pedestrian,0,0.1671875,0.075,0.0609375,0.21666667
000004,89.30,pedestrian,0,0.5171875,0.12361111,0.06328125,0.225
000004,89.30,pedestrian,0,0.18671875,0.3125,0.07734375,0.275
000004,89.30,pedestrian,0,0.8804687,0.40416667,0.071875,0.25555557
000004,89.30,pedestrian,0,0.0359375,0.06388889,0.06640625,0.23472223
000004,89.30,pedestrian,0,0.69609374,0.50555557,0.0734375,0.25972223
000004,89.30,pedestrian,0,0.07265625,0.3125,0.0671875,0.23888889
000004,89.30,pedestrian,0,0.0328125,0.48472223,0.08046875,0.2875
000005,90.33,pedestrian,0,0.21328124,0.0069444445,0.0578125,0.20555556
000005,90.33,pedestrian,0,0.7609375,0.043055557,0.053125,0.19027779
000005,90.33,pedestrian,0,0.39609376,0.1125,0.06328125,0.225
000005,90.33,pedestrian,0,0.19609375,0.31805557,0.0703125,0.25
000005,90.33,pedestrian,0,0.7484375,0.17638889,0.0625,0.22083333
000005,90.33,pedestrian,0,0.51171875,0.13333334,0.06328125,0.225
000005,90.33,pedestrian,0,0.24296875,0.14583333,0.06796875,0.24166666
000005,90.33,pedestrian,0,0.0359375,0.06388889,0.06640625,0.23472223
000005,90.33,pedestrian,0,0.16171876,0.05277778,0.0671875,0.23888889
000005,90.33,pedestrian,0,0.60546875,0.25138888,0.06796875,0.24166666
000005,90.33,pedestrian,0,0.8796875,0.3986111,0.071875,0.25555557
000005,90.33,pedestrian,0,0.03359375,0.49027777,0.078125,0.2777778
000005,90.33,pedestrian,0,0.7007812,0.50416666,0.07578125,0.26805556
000006,89.99,pedestrian,0,0.21171875,0.0027777778,0.053125,0.18888889
000006,89.99,pedestrian,0,0.234375,0.08888889,0.05546875,0.19722222
000006,89.99,pedestrian,0,0.40078124,0.119444445,0.05390625,0.19166666
000006,89.99,pedestrian,0,0.503125,0.14305556,0.06484375,0.22916667
000006,89.99,pedestrian,0,0.7328125,0.16388889,0.06640625,0.2361111
000006,89.99,pedestrian,0,0.19765624,0.29444444,0.071875,0.25555557
000006,89.99,pedestrian,0,0.24375,0.15694444,0.06796875,0.24027778
000006,89.99,pedestrian,0,0.0359375,0.06388889,0.06640625,0.23472223
000006,89.99,pedestrian,0,0.8796875,0.3986111,0.0734375,0.2611111
000006,89.99,pedestrian,0,0.0328125,0.48194444,0.08125,0.2888889
000006,89.99,pedestrian,0,0.7007812,0.49166667,0.0875,0.30972221
000007,91.19,pedestrian,0,0.7609375,0.043055557,0.053125,0.19027779
000007,91.19,pedestrian,0,0.4078125,0.13333334,0.06015625,0.21388888
000007,91.19,pedestrian,0,0.49296874,0.15,0.065625,0.23333333
000007,91.19,pedestrian,0,0.203125,0.2777778,0.07109375,0.25277779
000007,91.19,pedestrian,0,0.6984375,0.50972223,0.0625,0.22083333
000007,91.19,pedestrian,0,0.36484376,0.15,0.06171875,0.22083333
000007,91.19,pedestrian,0,0.7171875,0.15833333,0.065625,0.23194444
000007,91.19,pedestrian,0,0.0359375,0.06388889,0.06640625,0.23472223
000007,91.19,pedestrian,0,0.246875,0.17083333,0.06796875,0.24166666
000007,91.19,pedestrian,0,0.6046875,0.24861111,0.0703125,0.25138888
000007,91.19,pedestrian,0,0.8796875,0.40138888,0.071875,0.25416666
000007,91.19,pedestrian,0,0,0.6319444,0.0703125,0.25
000007,91.19,pedestrian,0,0.03359375,0.4861111,0.0796875,0.2847222
000008,88.12,pedestrian,0,0.7609375,0.043055557,0.053125,0.19027779
000008,88.12,pedestrian,0,0.33515626,0.094444446,0.053125,0.19027779
000008,88.12,pedestrian,0,0.39921874,0.12777779,0.06484375,0.23055555
000008,88.12,pedestrian,0,0.48046875,0.15972222,0.06171875,0.21805556
000008,88.12,pedestrian,0,0.16875,0.079166666,0.06015625,0.2125
000008,88.12,pedestrian,0,0.25,0.18611111,0.0671875,0.23888889
000008,88.12,pedestrian,0,0.2078125,0.2611111,0.07109375,0.25416666
000008,88.12,pedestrian,0,0.0359375,0.06388889,0.06640625,0.23472223
000008,88.12,pedestrian,0,0.87890625,0.3986111,0.07421875,0.2625
000008,88.12,pedestrian,0,0.00234375,0.6097222,0.07421875,0.2638889
000008,88.12,pedestrian,0,0.0328125,0.48194444,0.08203125,0.29166666
000009,89.67,pedestrian,0,0.7609375,0.043055557,0.053125,0.19027779
000009,89.67,pedestrian,0,0.46875,0.17083333,0.0609375,0.21805556
000009,89.67,pedestrian,0,0.16796875,0.07777778,0.06015625,0.2125
000009,89.67,pedestrian,0,0.3890625,0.10277778,0.07734375,0.27638888
000009,89.67,pedestrian,0,0.25625,0.19583334,0.06953125,0.24722221
000009,89.67,pedestrian,0,0.0359375,0.06388889,0.06640625,0.23472223
000009,89.67,pedestrian,0,0.69609374,0.5069444,0.06640625,0.23472223
000009,89.67,pedestrian,0,0.8796875,0.3986111,0.0734375,0.2611111
000009,89.67,pedestrian,0,0.2046875,0.2375,0.07578125,0.26944444
000009,89.67,pedestrian,0,0.19296876,0.6958333,0.08125,0.29027778
000009,89.67,pedestrian,0,0.01953125,0.46666667,0.10078125,0.35694444
000009,89.67,pedestrian,0,0.684375,0.12638889,0.08984375,0.31944445
000010,86.63,pedestrian,0,0.7609375,0.043055557,0.053125,0.19027779
000010,86.63,pedestrian,0,0.5453125,0.11388889,0.06015625,0.21388888
000010,86.63,pedestrian,0,0.453125,0.16527778,0.06484375,0.23055555
000010,86.63,pedestrian,0,0.20859376,0.24583334,0.06640625,0.2361111
000010,86.63,pedestrian,0,0.16484375,0.06666667,0.06484375,0.22916667
000010,86.63,pedestrian,0,0.1,0.09166667,0.059375,0.20972222
000010,86.63,pedestrian,0,0.38984376,0.10555556,0.0734375,0.2611111
000010,86.63,pedestrian,0,0.0359375,0.06388889,0.06640625,0.23472223
000010,86.63,pedestrian,0,0.03125,0.4763889,0.08046875,0.28611112
000010,86.63,pedestrian,0,0.8796875,0.3986111,0.0734375,0.2611111
000010,86.63,pedestrian,0,0.18515626,0.64444447,0.09296875,0.32916668
000011,89.59,pedestrian,0,0.2234375,0.0055555557,0.05546875,0.19722222
000011,89.59,pedestrian,0,0.39453125,0.11111111,0.06640625,0.2361111
000011,89.59,pedestrian,0,0.5203125,0.11111111,0.0578125,0.20416667
000011,89.59,pedestrian,0,0.4359375,0.15972222,0.065625,0.23194444
000011,89.59,pedestrian,0,0.384375,0.21388888,0.06015625,0.21388888
000011,89.59,pedestrian,0,0.2,0.2125,0.07421875,0.26527777
000011,89.59,pedestrian,0,0.0359375,0.06388889,0.06640625,0.23472223
000011,89.59,pedestrian,0,0.1640625,0.06666667,0.06484375,0.23055555
000011,89.59,pedestrian,0,0.03125,0.48055556,0.08046875,0.2875
000011,89.59,pedestrian,0,0.2578125,0.22222222,0.0703125,0.25138888
000011,89.59,pedestrian,0,0.8804687,0.40138888,0.0703125,0.24861111
000011,89.59,pedestrian,0,0.0765625,0.5416667,0.07421875,0.2625
000011,89.59,pedestrian,0,0.184375,0.6125,0.0953125,0.3402778
000012,88.22,pedestrian,0,0.3,0.24444444,0.05625,0.19861111
000012,88.22,pedestrian,0,0.1671875,0.06944445,0.06171875,0.21805556
000012,88.22,pedestrian,0,0.3984375,0.12083333,0.0578125,0.20555556
000012,88.22,pedestrian,0,0.43046874,0.15,0.06484375,0.23055555
000012,88.22,pedestrian,0,0.24609375,0.17916666,0.0578125,0.20555556
000012,88.22,pedestrian,0,0.2015625,0.2,0.071875,0.25416666
000012,88.22,pedestrian,0,0.37734374,0.22638889,0.0640625,0.22777778
000012,88.22,pedestrian,0,0.6984375,0.51111114,0.06171875,0.22083333
000012,88.22,pedestrian,0,0.2578125,0.24305555,0.06796875,0.24166666
000012,88.22,pedestrian,0,0.03125,0.4861111,0.0796875,0.28194445
000012,88.22,pedestrian,0,0.87890625,0.3986111,0.07421875,0.2638889
000012,88.22,pedestrian,0,0.09140625,0.51805556,0.07734375,0.27638888
000012,88.22,pedestrian,0,0.19140625,0.5875,0.0921875,0.32916668
000013,90.41,pedestrian,0,0.20390625,0.018055556,0.053125,0.18888889
000013,90.41,pedestrian,0,0.1171875,0.06666667,0.053125,0.19027779
000013,90.41,pedestrian,0,0.13984375,0.11666667,0.05234375,0.18611111
000013,90.41,pedestrian,0,0.4390625,0.1375,0.06328125,0.225
000013,90.41,pedestrian,0,0.203125,0.19722222,0.06953125,0.24583334
000013,90.41,pedestrian,0,0.39375,0.1125,0.06875,0.24305555
000013,90.41,pedestrian,0,0.16875,0.075,0.0609375,0.21527778
000013,90.41,pedestrian,0,0.3,0.24166666,0.06796875,0.24027778
000013,90.41,pedestrian,0,0.265625,0.1125,0.0609375,0.21666667
000013,90.41,pedestrian,0,0.2546875,0.24722221,0.06953125,0.24722221
000013,90.41,pedestrian,0,0.6984375,0.51111114,0.06171875,0.22083333
000013,90.41,pedestrian,0,0.4703125,0.08888889,0.0640625,0.22777778
000013,90.41,pedestrian,0,0.03125,0.48333332,0.07890625,0.28055555
000013,90.41,pedestrian,0,0.87890625,0.4,0.0734375,0.2611111
000013,90.41,pedestrian,0,0.10546875,0.5,0.07109375,0.25277779
000013,90.41,pedestrian,0,0.1921875,0.5611111,0.09140625,0.3236111
000013,90.41,pedestrian,0,0.240625,0.11388889,0.11875,0.42083332
000014,90.59,pedestrian,0,0.259375,0.10277778,0.06171875,0.21805556
000014,90.59,pedestrian,0,0.44453126,0.119444445,0.06640625,0.23472223
000014,90.59,pedestrian,0,0.38046876,0.27916667,0.05234375,0.18611111
000014,90.59,pedestrian,0,0.5914062,0.11388889,0.0609375,0.21666667
000014,90.59,pedestrian,0,0.39453125,0.11388889,0.06640625,0.2361111
000014,90.59,pedestrian,0,0.296875,0.25833333,0.065625,0.23333333
000014,90.59,pedestrian,0,0.16796875,0.07638889,0.06015625,0.2125
000014,90.59,pedestrian,0,0.20234375,0.17916666,0.07109375,0.25277779
000014,90.59,pedestrian,0,0.134375,0.08055556,0.06484375,0.23194444
000014,90.59,pedestrian,0,0.103125,0.47916666,0.06953125,0.24583334
000014,90.59,pedestrian,0,0.87890625,0.3986111,0.07421875,0.2625
000014,90.59,pedestrian,0,0.253125,0.24722221,0.078125,0.2777778
000014,90.59,pedestrian,0,0.0203125,0.47083333,0.0921875,0.32777777
000014,90.59,pedestrian,0,0.69609374,0.4763889,0.0875,0.31111112
000014,90.59,pedestrian,0,0.19296876,0.5277778,0.090625,0.32222223
000015,90.88,pedestrian,0,0.25390625,0.097222224,0.05546875,0.19583334
000015,90.88,pedestrian,0,0.45390624,0.1125,0.06328125,0.225
000015,90.88,pedestrian,0,0.209375,0.17638889,0.065625,0.23333333
000015,90.88,pedestrian,0,0.39609376,0.115277775,0.06328125,0.22638889
000015,90.88,pedestrian,0,0.29765624,0.2777778,0.0609375,0.21805556
000015,90.88,pedestrian,0,0.5757812,0.104166664,0.0625,0.22222222
000015,90.88,pedestrian,0,0.1,0.4611111,0.06953125,0.24722221
000015,90.88,pedestrian,0,0.38359374,0.2625,0.06484375,0.23194444
000015,90.88,pedestrian,0,0.0359375,0.06388889,0.06640625,0.23472223
000015,90.88,pedestrian,0,0.1328125,0.068055555,0.06875,0.24444444
000015,90.88,pedestrian,0,0.25078124,0.26805556,0.07265625,0.25833333
000015,90.88,pedestrian,0,0.87890625,0.3986111,0.07421875,0.2625
000015,90.88,pedestrian,0,0.03671875,0.5861111,0.0796875,0.28333333
000015,90.88,pedestrian,0,0.7007812,0.5013889,0.08046875,0.28611112
000015,90.88,pedestrian,0,0.18828125,0.5083333,0.08671875,0.30694443
000016,90.93,pedestrian,0,0.5625,0.09166667,0.0625,0.22222222
000016,90.93,pedestrian,0,0.4609375,0.10138889,0.0609375,0.21527778
000016,90.93,pedestrian,0,0.2515625,0.09166667,0.059375,0.21111111
000016,90.93,pedestrian,0,0.6015625,0.09166667,0.059375,0.21111111
000016,90.93,pedestrian,0,0.3984375,0.11805555,0.059375,0.21111111
000016,90.93,pedestrian,0,0.2109375,0.15833333,0.06796875,0.24027778
000016,90.93,pedestrian,0,0.29296875,0.29444444,0.06484375,0.23055555
000016,90.93,pedestrian,0,0.25078124,0.28611112,0.07109375,0.25138888
000016,90.93,pedestrian,0,0.38984376,0.275,0.06640625,0.23472223
000016,90.93,pedestrian,0,0.09296875,0.4375,0.06875,0.24444444
000016,90.93,pedestrian,0,0.87890625,0.3986111,0.07421875,0.2625
000016,90.93,pedestrian,0,0.0546875,0.5972222,0.0875,0.31111112
000016,90.93,pedestrian,0,0.1859375,0.47916666,0.08828125,0.3125
000016,90.93,pedestrian,0,0.69453126,0.5,0.08515625,0.30416667
000017,91.03,pedestrian,0,0.7601563,0.03888889,0.05234375,0.18611111
000017,91.03,pedestrian,0,0.590625,0.08472222,0.06015625,0.2125
000017,91.03,pedestrian,0,0.46640626,0.083333336,0.065625,0.23194444
000017,91.03,pedestrian,0,0.39765626,0.119444445,0.06171875,0.21944444
000017,91.03,pedestrian,0,0.2921875,0.31527779,0.06015625,0.21388888
000017,91.03,pedestrian,0,0.08359375,0.6402778,0.07421875,0.2638889
000017,91.03,pedestrian,0,0.546875,0.083333336,0.065625,0.23333333
000017,91.03,pedestrian,0,0.0984375,0.41805556,0.0640625,0.22777778
000017,91.03,pedestrian,0,0.21796875,0.14305556,0.06796875,0.24027778
000017,91.03,pedestrian,0,0.39375,0.29305556,0.065625,0.23333333
000017,91.03,pedestrian,0,0.2421875,0.29444444,0.0765625,0.2736111
000017,91.03,pedestrian,0,0.8796875,0.3986111,0.0734375,0.25972223
000017,91.03,pedestrian,0,0.03984375,0.49166667,0.0796875,0.28194445
000017,91.03,pedestrian,0,0.18671875,0.4611111,0.07890625,0.27916667
000017,91.03,pedestrian,0,0.6976563,0.49444443,0.08671875,0.30972221
000018,88.44,pedestrian,0,0.75703126,0.030555556,0.0546875,0.19444445
000018,88.44,pedestrian,0,0.4734375,0.06944445,0.06484375,0.23055555
000018,88.44,pedestrian,0,0.578125,0.07638889,0.059375,0.21111111
000018,88.44,pedestrian,0,0.4015625,0.125,0.05703125,0.20277777
000018,88.44,pedestrian,0,0.5390625,0.07638889,0.06484375,0.22916667
000018,88.44,pedestrian,0,0.2859375,0.3375,0.06328125,0.22361112
000018,88.44,pedestrian,0,0.25859374,0.033333335,0.05625,0.19861111
000018,88.44,pedestrian,0,0.221875,0.1375,0.06640625,0.2361111
000018,88.44,pedestrian,0,0.40078124,0.29722223,0.06953125,0.24722221
000018,88.44,pedestrian,0,0.43828124,0.30555555,0.065625,0.23194444
000018,88.44,pedestrian,0,0.1015625,0.3986111,0.065625,0.23333333
000018,88.44,pedestrian,0,0.87890625,0.40138888,0.0734375,0.25972223
000018,88.44,pedestrian,0,0.05703125,0.49444443,0.08203125,0.29166666
000018,88.44,pedestrian,0,0.0921875,0.62083334,0.090625,0.32083333
000018,88.44,pedestrian,0,0.2375,0.31666666,0.075,0.26666668
000018,88.44,pedestrian,0,0.18515626,0.43333334,0.08125,0.2888889
000018,88.44,pedestrian,0,0.7125,0.49861112,0.08203125,0.29166666
000019,89.95,pedestrian,0,0.8414062,0,0.05234375,0.18611111
000019,89.95,pedestrian,0,0.7523438,0.013888889,0.05859375,0.20833333
000019,89.95,pedestrian,0,0.4765625,0.059722222,0.06171875,0.21805556
000019,89.95,pedestrian,0,0.56640625,0.06527778,0.06171875,0.21944444
000019,89.95,pedestrian,0,0.528125,0.06666667,0.0671875,0.23888889
000019,89.95,pedestrian,0,0.39765626,0.12083333,0.06015625,0.2125
000019,89.95,pedestrian,0,0.43984374,0.3361111,0.0609375,0.21527778
000019,89.95,pedestrian,0,0.278125,0.3513889,0.0640625,0.22777778
000019,89.95,pedestrian,0,0.25078124,0.08888889,0.059375,0.20972222
000019,89.95,pedestrian,0,0.2265625,0.13055556,0.06484375,0.23055555
000019,89.95,pedestrian,0,0.13671875,0.094444446,0.0609375,0.21666667
000019,89.95,pedestrian,0,0.1046875,0.38055557,0.0625,0.22222222
000019,89.95,pedestrian,0,0.23125,0.33055556,0.07578125,0.26805556
000019,89.95,pedestrian,0,0.7242187,0.5125,0.07734375,0.2736111
000019,89.95,pedestrian,0,0.4046875,0.32083333,0.06953125,0.24583334
000019,89.95,pedestrian,0,0.8796875,0.3986111,0.0734375,0.2611111
000019,89.95,pedestrian,0,0.0765625,0.50416666,0.07890625,0.28055555
000019,89.95,pedestrian,0,0.18125,0.4027778,0.08515625,0.3013889
000019,89.95,pedestrian,0,0.11484375,0.68472224,0.08359375,0.29722223
000020,86.03,pedestrian,0,0.75,0.008333334,0.05703125,0.2013889
000020,86.03,pedestrian,0,0.8546875,0.0027777778,0.0546875,0.19305556
000020,86.03,pedestrian,0,0.4765625,0.045833334,0.0609375,0.21666667
000020,86.03,pedestrian,0,0.55546874,0.0625,0.05703125,0.2013889
000020,86.03,pedestrian,0,0.51484376,0.06388889,0.06328125,0.22361112
000020,86.03,pedestrian,0,0.253125,0.083333336,0.05703125,0.2013889
000020,86.03,pedestrian,0,0.26953125,0.37222221,0.06484375,0.22916667
000020,86.03,pedestrian,0,0.1953125,0,0.05546875,0.19583334
000020,86.03,pedestrian,0,0.13671875,0.10138889,0.0578125,0.20555556
000020,86.03,pedestrian,0,0.396875,0.11805555,0.06015625,0.2125
000020,86.03,pedestrian,0,0.16640624,0.08194444,0.0578125,0.20555556
000020,86.03,pedestrian,0,0.225,0.115277775,0.06640625,0.2361111
000020,86.03,pedestrian,0,0.38984376,0.3,0.0625,0.22083333
000020,86.03,pedestrian,0,0.10078125,0.35416666,0.07109375,0.25277779
000020,86.03,pedestrian,0,0.15078124,0.6638889,0.065625,0.23333333
000020,86.03,pedestrian,0,0.409375,0.33055556,0.07109375,0.25416666
000020,86.03,pedestrian,0,0.44609374,0.34583333,0.06484375,0.23055555
000020,86.03,pedestrian,0,0.18515626,0.3861111,0.0796875,0.28194445
000020,86.03,pedestrian,0,0.87890625,0.4,0.0734375,0.2611111
000020,86.03,pedestrian,0,0.21953125,0.34444445,0.0796875,0.28194445
000021,86.38,pedestrian,0,0.8609375,0.008333334,0.05625,0.19861111
000021,86.38,pedestrian,0,0.5445312,0.054166667,0.05859375,0.20694445
000021,86.38,pedestrian,0,0.2625,0.39444444,0.065625,0.23333333
000021,86.38,pedestrian,0,0.2,0.008333334,0.05625,0.2
000021,86.38,pedestrian,0,0.4734375,0.033333335,0.06015625,0.2125
000021,86.38,pedestrian,0,0.1671875,0.08055556,0.05859375,0.20833333
000021,86.38,pedestrian,0,0.50859374,0.05138889,0.0671875,0.24027778
000021,86.38,pedestrian,0,0.4,0.11805555,0.059375,0.21111111
000021,86.38,pedestrian,0,0.225,0.11111111,0.06328125,0.225
000021,86.38,pedestrian,0,0.446875,0.3625,0.0671875,0.2375
000021,86.38,pedestrian,0,0.1078125,0.3402778,0.06484375,0.22916667
000021,86.38,pedestrian,0,0.16484375,0.6875,0.07421875,0.2638889
000021,86.38,pedestrian,0,0.0359375,0.068055555,0.06640625,0.23472223
000021,86.38,pedestrian,0,0.21875,0.3611111,0.0765625,0.27222222
000021,86.38,pedestrian,0,0.184375,0.3625,0.07890625,0.27916667
000021,86.38,pedestrian,0,0.87890625,0.4,0.0734375,0.2611111
000021,86.38,pedestrian,0,0.75078124,0.5125,0.08359375,0.29722223
000021,86.38,pedestrian,0,0.41015625,0.3375,0.07578125,0.27083334
000021,86.38,pedestrian,0,0.12421875,0.5083333,0.08203125,0.29027778
000022,88.92,pedestrian,0,0.203125,0.015277778,0.0578125,0.20694445
000022,88.92,pedestrian,0,0.471875,0.013888889,0.0609375,0.21666667
000022,88.92,pedestrian,0,0.534375,0.05138889,0.0578125,0.20555556
000022,88.92,pedestrian,0,0.87578124,0.020833334,0.05703125,0.2013889
000022,88.92,pedestrian,0,0.5054687,0.05138889,0.06171875,0.21944444
000022,88.92,pedestrian,0,0.22578125,0.09583333,0.0640625,0.22638889
000022,88.92,pedestrian,0,0.44921875,0.325,0.05859375,0.20694445
000022,88.92,pedestrian,0,0.25625,0.4125,0.06796875,0.24027778
000022,88.92,pedestrian,0,0.16875,0.07777778,0.06171875,0.21944444
000022,88.92,pedestrian,0,0.128125,0.08888889,0.0625,0.22222222
000022,88.92,pedestrian,0,0.10546875,0.32222223,0.065625,0.23194444
000022,88.92,pedestrian,0,0.41640624,0.38333333,0.065625,0.23194444
000022,88.92,pedestrian,0,0.8796875,0.4,0.07421875,0.2638889
000022,88.92,pedestrian,0,0.3921875,0.06388889,0.075,0.26805556
000022,88.92,pedestrian,0,0.2015625,0.37222221,0.07578125,0.26805556
000022,88.92,pedestrian,0,0.153125,0.5125,0.078125,0.2777778
000022,88.92,pedestrian,0,0.775,0.5361111,0.07734375,0.2736111
000022,88.92,pedestrian,0,0.184375,0.7236111,0.0703125,0.25
000023,88.70,pedestrian,0,0.4703125,0.0055555557,0.05703125,0.20277777
000023,88.70,pedestrian,0,0.8851563,0.03888889,0.05234375,0.18611111
000023,88.70,pedestrian,0,0.52421874,0.043055557,0.06171875,0.21944444
000023,88.70,pedestrian,0,0.24765626,0.42916667,0.06953125,0.24722221
000023,88.70,pedestrian,0,0.3984375,0.119444445,0.059375,0.21111111
000023,88.70,pedestrian,0,0.203125,0.022222223,0.059375,0.20972222
000023,88.70,pedestrian,0,0.49609375,0.0375,0.0640625,0.22638889
000023,88.70,pedestrian,0,0.12578125,0.08055556,0.0671875,0.2375
000023,88.70,pedestrian,0,0.2203125,0.08194444,0.06484375,0.23055555
000023,88.70,pedestrian,0,0.10546875,0.30277777,0.065625,0.23333333
000023,88.70,pedestrian,0,0.4234375,0.3888889,0.0671875,0.23888889
000023,88.70,pedestrian,0,0.16875,0.06111111,0.06796875,0.24027778
000023,88.70,pedestrian,0,0.18671875,0.5222222,0.078125,0.2777778
000023,88.70,pedestrian,0,0.8796875,0.4,0.07265625,0.25833333
000023,88.70,pedestrian,0,0.19609375,0.31666666,0.075,0.26666668
000023,88.70,pedestrian,0,0.20078126,0.4027778,0.07890625,0.28194445
000023,88.70,pedestrian,0,0.4703125,0.32777777,0.07421875,0.2625
000023,88.70,pedestrian,0,0.7835938,0.5361111,0.07890625,0.28055555
000024,88.50,pedestrian,0,0.47109374,0,0.053125,0.18888889
000024,88.50,pedestrian,0,0.49375,0.02638889,0.06171875,0.21805556
000024,88.50,pedestrian,0,0.52265626,0.0375,0.06015625,0.2125
000024,88.50,pedestrian,0,0.89140624,0.041666668,0.05625,0.2
000024,88.50,pedestrian,0,0.13515624,0.108333334,0.05546875,0.19722222
000024,88.50,pedestrian,0,0.39609376,0.11666667,0.0625,0.22222222
000024,88.50,pedestrian,0,0.5023438,0.3513889,0.0640625,0.22638889
000024,88.50,pedestrian,0,0.2421875,0.44583333,0.0671875,0.2375
000024,88.50,pedestrian,0,0.4234375,0.39722222,0.06875,0.24305555
000024,88.50,pedestrian,0,0.0359375,0.06388889,0.06640625,0.23472223
000024,88.50,pedestrian,0,0.21640626,0.06527778,0.06875,0.24444444
000024,88.50,pedestrian,0,0.19140625,0.43194443,0.075,0.26666668
000024,88.50,pedestrian,0,0.8804687,0.3986111,0.071875,0.25555557
000024,88.50,pedestrian,0,0.20625,0.29166666,0.078125,0.2777778
000024,88.50,pedestrian,0,0.21640626,0.45972222,0.09296875,0.33055556
000024,88.50,pedestrian,0,0.79375,0.5416667,0.0796875,0.28333333
000025,88.71,pedestrian,0,0.5171875,0.029166667,0.06328125,0.225
000025,88.71,pedestrian,0,0.8984375,0.055555556,0.05703125,0.2013889
000025,88.71,pedestrian,0,0.3984375,0.12222222,0.059375,0.21111111
000025,88.71,pedestrian,0,0.48359376,0.019444445,0.06484375,0.23055555
000025,88.71,pedestrian,0,0.215625,0.055555556,0.0671875,0.2375
000025,88.71,pedestrian,0,0.0359375,0.06388889,0.06640625,0.23472223
000025,88.71,pedestrian,0,0.42421874,0.40833333,0.07421875,0.2638889
000025,88.71,pedestrian,0,0.6046875,0.24861111,0.0703125,0.25138888
000025,88.71,pedestrian,0,0.096875,0.26666668,0.06875,0.24444444
000025,88.71,pedestrian,0,0.21015625,0.275,0.0765625,0.27222222
000025,88.71,pedestrian,0,0.5265625,0.36666667,0.06875,0.24305555
000025,88.71,pedestrian,0,0.8796875,0.39722222,0.07421875,0.2625
000025,88.71,pedestrian,0,0.2265625,0.45972222,0.0734375,0.2611111
000025,88.71,pedestrian,0,0.18125,0.44722223,0.078125,0.27638888
000025,88.71,pedestrian,0,0.7984375,0.5416667,0.0859375,0.30416667
000026,89.67,pedestrian,0,0.48046875,0.011111111,0.0625,0.22083333
000026,89.67,pedestrian,0,0.5132812,0.025,0.0609375,0.21666667
000026,89.67,pedestrian,0,0.909375,0.06944445,0.05546875,0.19722222
000026,89.67,pedestrian,0,0.5492188,0.3861111,0.0640625,0.22916667
000026,89.67,pedestrian,0,0.1625,0.46805555,0.08046875,0.28611112
000026,89.67,pedestrian,0,0.246875,0.055555556,0.0609375,0.21666667
000026,89.67,pedestrian,0,0.39609376,0.115277775,0.06171875,0.21805556
000026,89.67,pedestrian,0,0.440625,0.43611112,0.0703125,0.24861111
000026,89.67,pedestrian,0,0.21953125,0.49166667,0.07109375,0.25277779
000026,89.67,pedestrian,0,0.2140625,0.041666668,0.06875,0.24444444
000026,89.67,pedestrian,0,0.0359375,0.06388889,0.06640625,0.23472223
000026,89.67,pedestrian,0,0.215625,0.25694445,0.07265625,0.25694445
000026,89.67,pedestrian,0,0.8796875,0.39722222,0.0734375,0.2611111
000026,89.67,pedestrian,0,0.6046875,0.24861111,0.0703125,0.25138888
000026,89.67,pedestrian,0,0.12890625,0.054166667,0.07421875,0.2625
000026,89.67,pedestrian,0,0.28359374,0.49722221,0.0765625,0.2736111
000026,89.67,pedestrian,0,0.8125,0.5555556,0.08359375,0.29722223
000027,90.08,pedestrian,0,0.4828125,0.004166667,0.06015625,0.21388888
000027,90.08,pedestrian,0,0.83984375,0.004166667,0.05703125,0.20277777
000027,90.08,pedestrian,0,0.5125,0.018055556,0.05625,0.19861111
000027,90.08,pedestrian,0,0.9085938,0.056944445,0.0640625,0.22916667
000027,90.08,pedestrian,0,0.13515624,0.10277778,0.05625,0.2
000027,90.08,pedestrian,0,0.3984375,0.11805555,0.059375,0.21111111
000027,90.08,pedestrian,0,0.21015625,0.5152778,0.0734375,0.25972223
000027,90.08,pedestrian,0,0.22265625,0.036111113,0.071875,0.25555557
000027,90.08,pedestrian,0,0.090625,0.24166666,0.06328125,0.225
000027,90.08,pedestrian,0,0.42578125,0.44166666,0.07265625,0.25833333
000027,90.08,pedestrian,0,0.0359375,0.06388889,0.06640625,0.23472223
000027,90.08,pedestrian,0,0.21796875,0.23472223,0.075,0.26527777
000027,90.08,pedestrian,0,0.87890625,0.39444444,0.075,0.26666668
000027,90.08,pedestrian,0,0.153125,0.4861111,0.08125,0.2875
000027,90.08,pedestrian,0,0.4609375,0.45555556,0.07421875,0.2638889
000028,91.04,pedestrian,0,0.48125,0,0.05390625,0.19166666
000028,91.04,pedestrian,0,0.50703126,0.0069444445,0.06015625,0.21388888
000028,91.04,pedestrian,0,0.9078125,0.08888889,0.0578125,0.20555556
000028,91.04,pedestrian,0,0.39609376,0.115277775,0.0625,0.22222222
000028,91.04,pedestrian,0,0.2,0.5347222,0.07265625,0.25833333
000028,91.04,pedestrian,0,0.8453125,0.019444445,0.059375,0.21111111
000028,91.04,pedestrian,0,0.43125,0.45694444,0.07578125,0.26805556
000028,91.04,pedestrian,0,0.22578125,0.034722224,0.06953125,0.24722221
000028,91.04,pedestrian,0,0.22109374,0.22083333,0.071875,0.25416666
000028,91.04,pedestrian,0,0.0359375,0.06388889,0.06640625,0.23472223
000028,91.04,pedestrian,0,0.1328125,0.06666667,0.06796875,0.24166666
000028,91.04,pedestrian,0,0.6070312,0.25416666,0.06484375,0.23055555
000028,91.04,pedestrian,0,0.46796876,0.47777778,0.06953125,0.24722221
000028,91.04,pedestrian,0,0.8796875,0.39444444,0.0734375,0.2625
000028,91.04,pedestrian,0,0.13828126,0.50277776,0.08515625,0.3013889
000029,91.11,pedestrian,0,0.509375,0.0027777778,0.0578125,0.20555556
000029,91.11,pedestrian,0,0.85546875,0.0375,0.0578125,0.20555556
000029,91.11,pedestrian,0,0.9046875,0.09583333,0.06015625,0.21388888
000029,91.11,pedestrian,0,0.12890625,0.06388889,0.0703125,0.25138888
000029,91.11,pedestrian,0,0.39609376,0.11388889,0.06171875,0.21805556
000029,91.11,pedestrian,0,0.09375,0.21666667,0.06015625,0.21388888
000029,91.11,pedestrian,0,0.4328125,0.47777778,0.075,0.26527777
000029,91.11,pedestrian,0,0.36328125,0.49166667,0.0703125,0.25
000029,91.11,pedestrian,0,0.2203125,0.2,0.071875,0.25555557
000029,91.11,pedestrian,0,0.18359375,0.5541667,0.07734375,0.27638888
000029,91.11,pedestrian,0,0.21796875,0.025,0.0734375,0.2611111
000029,91.11,pedestrian,0,0.878125,0.39583334,0.07421875,0.2638889
000029,91.11,pedestrian,0,0.13125,0.5277778,0.08671875,0.30833334
000029,91.11,pedestrian,0,0.4703125,0.49722221,0.0765625,0.27083334
000030,91.99,pedestrian,0,0.5109375,0.0013888889,0.0546875,0.19444445
000030,91.99,pedestrian,0,0.2484375,0.031944446,0.053125,0.19027779
000030,91.99,pedestrian,0,0.8984375,0.11388889,0.05625,0.19861111
000030,91.99,pedestrian,0,0.39609376,0.1125,0.0625,0.22222222
000030,91.99,pedestrian,0,0.1015625,0.20694445,0.05625,0.2013889
000030,91.99,pedestrian,0,0.22109374,0.18888889,0.0671875,0.2375
000030,91.99,pedestrian,0,0.175,0.5847222,0.0734375,0.2611111
000030,91.99,pedestrian,0,0.8671875,0.059722222,0.0578125,0.20555556
000030,91.99,pedestrian,0,0.21953125,0.023611112,0.06640625,0.2361111
000030,91.99,pedestrian,0,0.44140625,0.50555557,0.0734375,0.2611111
000030,91.99,pedestrian,0,0.0359375,0.06388889,0.06640625,0.23472223
000030,91.99,pedestrian,0,0.12734374,0.058333334,0.071875,0.25694445
000030,91.99,pedestrian,0,0.6070312,0.25416666,0.06484375,0.23055555
000030,91.99,pedestrian,0,0.3765625,0.49166667,0.07734375,0.27638888
000030,91.99,pedestrian,0,0.48203126,0.51805556,0.07265625,0.25833333
000030,91.99,pedestrian,0,0.88125,0.39722222,0.0703125,0.25138888
000030,91.99,pedestrian,0,0.1234375,0.55138886,0.08671875,0.30833334
000031,89.46,pedestrian,0,0.3984375,0.115277775,0.059375,0.21111111
000031,89.46,pedestrian,0,0.896875,0.11805555,0.05625,0.2013889
000031,89.46,pedestrian,0,0.13515624,0.093055554,0.06015625,0.2125
000031,89.46,pedestrian,0,0.11484375,0.19027779,0.059375,0.21111111
000031,89.46,pedestrian,0,0.21796875,0.018055556,0.06328125,0.225
000031,89.46,pedestrian,0,0.21875,0.16805555,0.06953125,0.24583334
000031,89.46,pedestrian,0,0.0359375,0.06388889,0.06640625,0.23472223
000031,89.46,pedestrian,0,0.15859374,0.5986111,0.0828125,0.29305556
000031,89.46,pedestrian,0,0.8796875,0.39583334,0.0734375,0.25972223
000031,89.46,pedestrian,0,0.390625,0.50277776,0.078125,0.27638888
000031,89.46,pedestrian,0,0.115625,0.58194447,0.0828125,0.29305556
000031,89.46,pedestrian,0,0.440625,0.5222222,0.08203125,0.29305556
000031,89.46,pedestrian,0,0.48515624,0.5361111,0.07890625,0.28055555
000032,88.64,pedestrian,0,0.4015625,0.10972222,0.0609375,0.21666667
000032,88.64,pedestrian,0,0.21328124,0.0069444445,0.0640625,0.22777778
000032,88.64,pedestrian,0,0.2171875,0.14583333,0.06875,0.24583334
000032,88.64,pedestrian,0,0.93359375,0.325,0.0640625,0.22638889
000032,88.64,pedestrian,0,0.88125,0.3986111,0.071875,0.25555557
000032,88.64,pedestrian,0,0.153125,0.62777776,0.07890625,0.28055555
000032,88.64,pedestrian,0,0.4015625,0.5013889,0.08828125,0.31527779
000032,88.64,pedestrian,0,0.4515625,0.54444444,0.08046875,0.2847222
000032,88.64,pedestrian,0,0.10703125,0.59583336,0.0875,0.3125
000032,88.64,pedestrian,0,0.49453124,0.5541667,0.07890625,0.28055555
000033,89.50,pedestrian,0,0.875,0.027777778,0.0546875,0.19305556
000033,89.50,pedestrian,0,0.88359374,0.119444445,0.06640625,0.2361111
000033,89.50,pedestrian,0,0.83984375,0.30416667,0.05625,0.19861111
000033,89.50,pedestrian,0,0.21953125,0.004166667,0.06015625,0.2125
000033,89.50,pedestrian,0,0.221875,0.1375,0.06796875,0.24166666
000033,89.50,pedestrian,0,0.9171875,0.10694444,0.0640625,0.22777778
000033,89.50,pedestrian,0,0.9195312,0.30833334,0.06640625,0.2361111
000033,89.50,pedestrian,0,0.60546875,0.25138888,0.06796875,0.24166666
000033,89.50,pedestrian,0,0.13984375,0.6472222,0.0859375,0.30555555
000033,89.50,pedestrian,0,0.4546875,0.5694444,0.08125,0.2888889
000033,89.50,pedestrian,0,0.878125,0.39305556,0.07421875,0.2625
000033,89.50,pedestrian,0,0.4,0.51805556,0.08515625,0.30277777
000033,89.50,pedestrian,0,0.096875,0.62777776,0.08515625,0.30277777
000034,88.07,pedestrian,0,0.378125,0.05138889,0.05625,0.19861111
000034,88.07,pedestrian,0,0.8875,0.14305556,0.06484375,0.23194444
000034,88.07,pedestrian,0,0.83125,0.2847222,0.06015625,0.2125
000034,88.07,pedestrian,0,0.22109374,0,0.05625,0.2
000034,88.07,pedestrian,0,0.40234375,0.10694444,0.0609375,0.21666667
000034,88.07,pedestrian,0,0.22578125,0.11805555,0.065625,0.23333333
000034,88.07,pedestrian,0,0.88125,0.39583334,0.0734375,0.2611111
000034,88.07,pedestrian,0,0.90625,0.29722223,0.0671875,0.23888889
000034,88.07,pedestrian,0,0.4046875,0.5347222,0.08046875,0.2875
000034,88.07,pedestrian,0,0.13515624,0.6875,0.07734375,0.27638888
000034,88.07,pedestrian,0,0.4625,0.59166664,0.078125,0.27638888
000034,88.07,pedestrian,0,0.09375,0.65416664,0.08515625,0.30277777
000034,88.07,pedestrian,0,0.7921875,0.5388889,0.078125,0.27638888
000035,89.45,pedestrian,0,0.859375,0.0027777778,0.0546875,0.19444445
000035,89.45,pedestrian,0,0.8953125,0.16111112,0.059375,0.20972222
000035,89.45,pedestrian,0,0.23046875,0.1125,0.0609375,0.21666667
000035,89.45,pedestrian,0,0.15859374,0.14166667,0.05625,0.19861111
000035,89.45,pedestrian,0,0.1921875,0.15277778,0.0609375,0.21666667
000035,89.45,pedestrian,0,0.82890624,0.25416666,0.0640625,0.22777778
000035,89.45,pedestrian,0,0.8875,0.41944444,0.06171875,0.21944444
000035,89.45,pedestrian,0,0.41171876,0.5388889,0.07890625,0.28055555
000035,89.45,pedestrian,0,0.7945312,0.55,0.07421875,0.2638889
000035,89.45,pedestrian,0,0.47109374,0.6263889,0.07734375,0.275
000035,89.45,pedestrian,0,0.12890625,0.7125,0.075,0.26805556
000035,89.45,pedestrian,0,0.08828125,0.6875,0.08203125,0.29166666
000036,88.19,pedestrian,0,0.85625,0,0.05234375,0.18611111
000036,88.19,pedestrian,0,0.90625,0.17083333,0.05859375,0.20833333
000036,88.19,pedestrian,0,0.390625,0.11111111,0.06015625,0.21388888
000036,88.19,pedestrian,0,0.41015625,0.5375,0.0734375,0.2625
000036,88.19,pedestrian,0,0.5359375,0.66944444,0.059375,0.20972222
000036,88.19,pedestrian,0,0.2265625,0.08888889,0.06484375,0.22916667
000036,88.19,pedestrian,0,0.8828125,0.4097222,0.0671875,0.2361111
000036,88.19,pedestrian,0,0.4765625,0.63472223,0.08515625,0.3013889
000037,89.74,pedestrian,0,0.9117187,0.18333334,0.059375,0.2125
000037,89.74,pedestrian,0,0.1375,0.0125,0.0578125,0.20555556
000037,89.74,pedestrian,0,0.18828125,0.175,0.0625,0.22083333
000037,89.74,pedestrian,0,0.22734375,0.07638889,0.0625,0.22222222
000037,89.74,pedestrian,0,0.8640625,0.24444444,0.065625,0.23194444
000037,89.74,pedestrian,0,0.0359375,0.06388889,0.06640625,0.23472223
000037,89.74,pedestrian,0,0.49453124,0.6666667,0.08125,0.2888889
000037,89.74,pedestrian,0,0.878125,0.39166668,0.0734375,0.25972223
000037,89.74,pedestrian,0,0.3921875,0.51944447,0.0890625,0.31666666
000038,88.91,pedestrian,0,0.37890625,0.05,0.05546875,0.19583334
000038,88.91,pedestrian,0,0.56171876,0.70694447,0.05234375,0.18611111
000038,88.91,pedestrian,0,0.2234375,0.06111111,0.0625,0.22222222
000038,88.91,pedestrian,0,0.2671875,0.08194444,0.0578125,0.20555556
000038,88.91,pedestrian,0,0.396875,0.11111111,0.0625,0.22222222
000038,88.91,pedestrian,0,0.8578125,0.22777778,0.06953125,0.24583334
000038,88.91,pedestrian,0,0.88125,0.4027778,0.06953125,0.24722221
000038,88.91,pedestrian,0,0.17890625,0.17083333,0.06953125,0.24722221
000038,88.91,pedestrian,0,0.6046875,0.24861111,0.0703125,0.25138888
000038,88.91,pedestrian,0,0.50703126,0.7,0.07734375,0.2736111
000038,88.91,pedestrian,0,0.3734375,0.51666665,0.0859375,0.30416667
000039,89.28,pedestrian,0,0.85234374,0.22222222,0.06328125,0.225
000039,89.28,pedestrian,0,0.41015625,0.034722224,0.0625,0.22083333
000039,89.28,pedestrian,0,0.23046875,0.047222223,0.0609375,0.21666667
000039,89.28,pedestrian,0,0.403125,0.10972222,0.06171875,0.22083333
000039,89.28,pedestrian,0,0.18046875,0.19583334,0.06796875,0.24027778
000039,89.28,pedestrian,0,0.0578125,0.23055555,0.06640625,0.2361111
000039,89.28,pedestrian,0,0.87890625,0.3986111,0.0703125,0.25
000039,89.28,pedestrian,0,0.35625,0.5152778,0.08359375,0.29722223
000040,88.67,pedestrian,0,0.20625,0.047222223,0.05390625,0.19166666
000040,88.67,pedestrian,0,0.59375,0.7569444,0.0515625,0.18333334
000040,88.67,pedestrian,0,0.40703124,0.11111111,0.0609375,0.21666667
000040,88.67,pedestrian,0,0.85,0.20416667,0.06484375,0.23055555
000040,88.67,pedestrian,0,0.17890625,0.21527778,0.065625,0.23333333
000040,88.67,pedestrian,0,0.40859374,0.030555556,0.06328125,0.225
000040,88.67,pedestrian,0,0.8804687,0.41111112,0.0671875,0.2375
000041,90.46,pedestrian,0,0.2359375,0.016666668,0.06328125,0.22361112
000041,90.46,pedestrian,0,0.1328125,0.09166667,0.06015625,0.2125
000041,90.46,pedestrian,0,0.8484375,0.1875,0.06484375,0.23055555
000041,90.46,pedestrian,0,0.2078125,0.036111113,0.0609375,0.21666667
000041,90.46,pedestrian,0,0.40703124,0.108333334,0.0625,0.22222222
000041,90.46,pedestrian,0,0.0359375,0.06388889,0.06640625,0.23472223
000041,90.46,pedestrian,0,0.8765625,0.39027777,0.075,0.26805556
000042,90.01,pedestrian,0,0.4078125,0.108333334,0.06171875,0.21944444
000042,90.01,pedestrian,0,0.8375,0.175,0.0640625,0.22638889
000042,90.01,pedestrian,0,0.0359375,0.06388889,0.06640625,0.23472223
000042,90.01,pedestrian,0,0.16875,0.24027778,0.06796875,0.24166666
000042,90.01,pedestrian,0,0.87578124,0.39027777,0.0765625,0.27222222
000042,90.01,pedestrian,0,0.28203124,0.475,0.0796875,0.2847222
000043,89.79,pedestrian,0,0.7734375,0.08888889,0.05234375,0.18611111
000043,89.79,pedestrian,0,0.40859374,0.11111111,0.059375,0.21111111
000043,89.79,pedestrian,0,0.8375,0.15833333,0.0609375,0.21666667
000043,89.79,pedestrian,0,0.17109375,0.07083333,0.06171875,0.21944444
000043,89.79,pedestrian,0,0.25859374,0.47083333,0.0765625,0.27222222
000043,89.79,pedestrian,0,0.0359375,0.06388889,0.06640625,0.23472223
000043,89.79,pedestrian,0,0.1609375,0.24861111,0.0703125,0.25
000043,89.79,pedestrian,0,0.8773438,0.39305556,0.075,0.26666668
000044,88.53,pedestrian,0,0.7734375,0.08888889,0.05234375,0.18611111
000044,88.53,pedestrian,0,0.40859374,0.108333334,0.06015625,0.21527778
000044,88.53,pedestrian,0,0.83125,0.14861111,0.06171875,0.21805556
000044,88.53,pedestrian,0,0.1703125,0.068055555,0.0625,0.22222222
000044,88.53,pedestrian,0,0.16015625,0.26944444,0.06796875,0.24305555
000044,88.53,pedestrian,0,0.878125,0.39583334,0.07421875,0.26527777
000044,88.53,pedestrian,0,0.2296875,0.47361112,0.078125,0.2777778
000045,88.97,pedestrian,0,0.17109375,0.07083333,0.059375,0.21111111
000045,88.97,pedestrian,0,0.7734375,0.08888889,0.05234375,0.18611111
000045,88.97,pedestrian,0,0.4078125,0.108333334,0.06171875,0.21805556
000045,88.97,pedestrian,0,0.8304688,0.13194445,0.0640625,0.22638889
000045,88.97,pedestrian,0,0.15,0.2875,0.06875,0.24444444
000045,88.97,pedestrian,0,0.0359375,0.06388889,0.06640625,0.23472223
000045,88.97,pedestrian,0,0.87890625,0.39583334,0.07265625,0.25833333
000045,88.97,pedestrian,0,0.20625,0.45833334,0.0828125,0.29583332
000046,90.17,pedestrian,0,0.40859374,0.108333334,0.06015625,0.2125
000046,90.17,pedestrian,0,0.20859376,0.108333334,0.0546875,0.19444445
000046,90.17,pedestrian,0,0.83515626,0.11805555,0.0625,0.22083333
000046,90.17,pedestrian,0,0.234375,0.09861111,0.059375,0.20972222
000046,90.17,pedestrian,0,0.10703125,0.18472221,0.0625,0.22222222
000046,90.17,pedestrian,0,0.14609376,0.3013889,0.071875,0.25694445
000046,90.17,pedestrian,0,0.8773438,0.39305556,0.075,0.26666668
000046,90.17,pedestrian,0,0.1828125,0.45277777,0.0890625,0.31666666
000047,90.35,pedestrian,0,0.37890625,0.05138889,0.0546875,0.19305556
000047,90.35,pedestrian,0,0.21015625,0.119444445,0.053125,0.18888889
000047,90.35,pedestrian,0,0.8257812,0.10694444,0.06328125,0.22361112
000047,90.35,pedestrian,0,0.403125,0.10138889,0.06328125,0.22361112
000047,90.35,pedestrian,0,0.11328125,0.17222223,0.0640625,0.22777778
000047,90.35,pedestrian,0,0.175,0.45972222,0.0859375,0.30416667
000047,90.35,pedestrian,0,0.13984375,0.32083333,0.07109375,0.25277779
000047,90.35,pedestrian,0,0.878125,0.39305556,0.0734375,0.2625
000048,90.94,pedestrian,0,0.1203125,0.17083333,0.0609375,0.21527778
000048,90.94,pedestrian,0,0.825,0.09861111,0.05859375,0.20833333
000048,90.94,pedestrian,0,0.18203124,0.48194444,0.071875,0.25555557
000048,90.94,pedestrian,0,0.0359375,0.06388889,0.06640625,0.23472223
000048,90.94,pedestrian,0,0.878125,0.39444444,0.0734375,0.25972223
000048,90.94,pedestrian,0,0.1375,0.32916668,0.07421875,0.26527777
000049,91.86,pedestrian,0,0.275,0.09583333,0.0546875,0.19444445
000049,91.86,pedestrian,0,0.821875,0.08472222,0.06171875,0.21944444
000049,91.86,pedestrian,0,0.12109375,0.16805555,0.06171875,0.21805556
000049,91.86,pedestrian,0,0.14453125,0.16111112,0.0609375,0.21666667
000049,91.86,pedestrian,0,0.18671875,0.48055556,0.0796875,0.28333333
000049,91.86,pedestrian,0,0.0359375,0.06388889,0.06640625,0.23472223
000049,91.86,pedestrian,0,0.13984375,0.35277778,0.0703125,0.25
000049,91.86,pedestrian,0,0.878125,0.39305556,0.0734375,0.2625
000049,91.86,pedestrian,0,0.59765625,0.6888889,0.0796875,0.28333333
000049,91.86,pedestrian,0,0.64140624,0.70555556,0.07421875,0.2625
000049,91.86,pedestrian,0,0.121875,0.090277776,0.209375,0.74583334
000050,91.11,pedestrian,0,0.8171875,0.072222225,0.059375,0.21111111
000050,91.11,pedestrian,0,0.153125,0.15833333,0.0625,0.22222222
000050,91.11,pedestrian,0,0.20546874,0.47777778,0.08203125,0.29305556
000050,91.11,pedestrian,0,0.0359375,0.06388889,0.06640625,0.23472223
000050,91.11,pedestrian,0,0.1375,0.36666667,0.07421875,0.2638889
000050,91.11,pedestrian,0,0.878125,0.39444444,0.0734375,0.25972223
000050,91.11,pedestrian,0,0.578125,0.6625,0.08125,0.2888889
000050,91.11,pedestrian,0,0.61875,0.6402778,0.0828125,0.29583332
000051,90.26,pedestrian,0,0.7476562,0.06666667,0.053125,0.19027779
000051,90.26,pedestrian,0,0.81875,0.06666667,0.05703125,0.2013889
000051,90.26,pedestrian,0,0.2734375,0.090277776,0.05859375,0.20694445
000051,90.26,pedestrian,0,0.14453125,0.4027778,0.06953125,0.24583334
000051,90.26,pedestrian,0,0.19296876,0.030555556,0.0578125,0.20555556
000051,90.26,pedestrian,0,0.12109375,0.15833333,0.0609375,0.21527778
000051,90.26,pedestrian,0,0.159375,0.15694444,0.059375,0.20972222
000051,90.26,pedestrian,0,0.23046875,0.49583334,0.0765625,0.2736111
000051,90.26,pedestrian,0,0.0359375,0.06388889,0.06640625,0.23472223
000051,90.26,pedestrian,0,0.8804687,0.39444444,0.0734375,0.2625
000051,90.26,pedestrian,0,0.5804688,0.61944443,0.08359375,0.29583332
000052,89.63,pedestrian,0,0.19765624,0.03888889,0.059375,0.20972222
000052,89.63,pedestrian,0,0.74609375,0.048611112,0.05625,0.19861111
000052,89.63,pedestrian,0,0.27109376,0.094444446,0.05703125,0.20277777
000052,89.63,pedestrian,0,0.8,0.55972224,0.05234375,0.18611111
000052,89.63,pedestrian,0,0.15625,0.15416667,0.0578125,0.20555556
000052,89.63,pedestrian,0,0.12890625,0.15277778,0.0609375,0.21666667
000052,89.63,pedestrian,0,0.8804687,0.3986111,0.0703125,0.25
000052,89.63,pedestrian,0,0.13984375,0.42222223,0.071875,0.25416666
000052,89.63,pedestrian,0,0.253125,0.49861112,0.078125,0.2777778
000052,89.63,pedestrian,0,0.6046875,0.24861111,0.0703125,0.25138888
000052,89.63,pedestrian,0,0.55078125,0.5847222,0.090625,0.32083333
000053,89.11,pedestrian,0,0.7398437,0.044444446,0.05546875,0.19583334
000053,89.11,pedestrian,0,0.26953125,0.09583333,0.05546875,0.19861111
000053,89.11,pedestrian,0,0.12890625,0.14722222,0.0609375,0.21666667
000053,89.11,pedestrian,0,0.546875,0.55694443,0.08046875,0.2875
000053,89.11,pedestrian,0,0.228125,0.027777778,0.0640625,0.22777778
000053,89.11,pedestrian,0,0.8804687,0.39444444,0.0734375,0.2625
000053,89.11,pedestrian,0,0.1359375,0.43611112,0.07421875,0.2638889
000053,89.11,pedestrian,0,0.275,0.50277776,0.0796875,0.2847222
000054,90.38,pedestrian,0,0.2734375,0.094444446,0.05703125,0.20277777
000054,90.38,pedestrian,0,0.7375,0.030555556,0.0578125,0.20555556
000054,90.38,pedestrian,0,0.215625,0.05,0.06328125,0.225
000054,90.38,pedestrian,0,0.19375,0.19861111,0.06015625,0.21388888
000054,90.38,pedestrian,0,0.12890625,0.14722222,0.0609375,0.21666667
000054,90.38,pedestrian,0,0.8804687,0.39444444,0.0734375,0.2625
000054,90.38,pedestrian,0,0.16171876,0.14444445,0.06328125,0.225
000054,90.38,pedestrian,0,0.1296875,0.44583333,0.07890625,0.28055555
000054,90.38,pedestrian,0,0.521875,0.53194445,0.08828125,0.31388888
000055,89.20,pedestrian,0,0.753125,0.004166667,0.05703125,0.20277777
000055,89.20,pedestrian,0,0.175,0.079166666,0.053125,0.19027779
000055,89.20,pedestrian,0,0.275,0.097222224,0.05546875,0.19583334
000055,89.20,pedestrian,0,0.18984374,0.22916667,0.05234375,0.18611111
000055,89.20,pedestrian,0,0.734375,0.025,0.05546875,0.19583334
000055,89.20,pedestrian,0,0.20703125,0.072222225,0.0640625,0.22777778
000055,89.20,pedestrian,0,0.1296875,0.14583333,0.06015625,0.21388888
000055,89.20,pedestrian,0,0.16640624,0.14166667,0.059375,0.21111111
000055,89.20,pedestrian,0,0.88125,0.39722222,0.071875,0.25555557
000055,89.20,pedestrian,0,0.5375,0.50555557,0.078125,0.2777778
000055,89.20,pedestrian,0,0.49609375,0.51805556,0.0796875,0.28333333
000055,89.20,pedestrian,0,0.12421875,0.45972222,0.08203125,0.29166666
000056,90.36,pedestrian,0,0.7289063,0.015277778,0.0546875,0.19305556
000056,90.36,pedestrian,0,0.75390625,0.016666668,0.05703125,0.2013889
000056,90.36,pedestrian,0,0.175,0.079166666,0.053125,0.19027779
000056,90.36,pedestrian,0,0.20703125,0.08472222,0.0609375,0.21666667
000056,90.36,pedestrian,0,0.275,0.094444446,0.05625,0.2013889
000056,90.36,pedestrian,0,0.18828125,0.2361111,0.05546875,0.19583334
000056,90.36,pedestrian,0,0.88203126,0.39583334,0.07109375,0.25277779
000056,90.36,pedestrian,0,0.228125,0.06666667,0.065625,0.23194444
000056,90.36,pedestrian,0,0.1359375,0.14583333,0.06171875,0.22083333
000056,90.36,pedestrian,0,0.39765626,0.10138889,0.065625,0.23333333
000056,90.36,pedestrian,0,0.12734374,0.49583334,0.078125,0.2777778
000056,90.36,pedestrian,0,0.48125,0.49722221,0.0796875,0.28194445
000056,90.36,pedestrian,0,0.5210937,0.47916666,0.08359375,0.29583332
000057,88.95,pedestrian,0,0.72734374,0.0069444445,0.053125,0.19027779
000057,88.95,pedestrian,0,0.75390625,0.030555556,0.05546875,0.19722222
000057,88.95,pedestrian,0,0.0921875,0.07777778,0.05234375,0.18611111
000057,88.95,pedestrian,0,0.4078125,0.104166664,0.06328125,0.225
000057,88.95,pedestrian,0,0.275,0.094444446,0.05625,0.2013889
000057,88.95,pedestrian,0,0.18046875,0.24583334,0.0578125,0.20555556
000057,88.95,pedestrian,0,0.2125,0.25,0.06015625,0.21388888
000057,88.95,pedestrian,0,0.20390625,0.09583333,0.06015625,0.21388888
000057,88.95,pedestrian,0,0.515625,0.45277777,0.0796875,0.2847222
000057,88.95,pedestrian,0,0.46953124,0.47083333,0.07890625,0.28055555
000057,88.95,pedestrian,0,0.87890625,0.39583334,0.07578125,0.26805556
000057,88.95,pedestrian,0,0.11953125,0.51805556,0.07890625,0.28055555
000058,90.34,pedestrian,0,0.7234375,0,0.05234375,0.18611111
000058,90.34,pedestrian,0,0.8546875,0.0069444445,0.0546875,0.19444445
000058,90.34,pedestrian,0,0.7546875,0.034722224,0.053125,0.19027779
000058,90.34,pedestrian,0,0.409375,0.10277778,0.0625,0.22222222
000058,90.34,pedestrian,0,0.1703125,0.2625,0.0578125,0.20416667
000058,90.34,pedestrian,0,0.275,0.094444446,0.05625,0.2013889
000058,90.34,pedestrian,0,0.21171875,0.09861111,0.0671875,0.2375
000058,90.34,pedestrian,0,0.4609375,0.44583333,0.07421875,0.26527777
000058,90.34,pedestrian,0,0.8804687,0.39722222,0.0734375,0.25972223
000058,90.34,pedestrian,0,0.49921876,0.4263889,0.08359375,0.29722223
000058,90.34,pedestrian,0,0.11796875,0.5277778,0.08671875,0.30972221
000058,90.34,pedestrian,0,0.1296875,0.018055556,0.13046876,0.4652778
000059,90.41,pedestrian,0,0.409375,0.104166664,0.0609375,0.21666667
000059,90.41,pedestrian,0,0.171875,0.275,0.059375,0.20972222
000059,90.41,pedestrian,0,0.453125,0.43472221,0.06953125,0.24583334
000059,90.41,pedestrian,0,0.8804687,0.39722222,0.07265625,0.25833333
000059,90.41,pedestrian,0,0.49609375,0.4097222,0.078125,0.27638888
000059,90.41,pedestrian,0,0.12265625,0.55138886,0.0875,0.31111112
000059,90.41,pedestrian,0,0.1296875,0.011111111,0.13828126,0.49305555
000060,90.21,pedestrian,0,0.81328124,0.011111111,0.05234375,0.18611111
000060,90.21,pedestrian,0,0.4078125,0.09861111,0.0625,0.22222222
000060,90.21,pedestrian,0,0.275,0.094444446,0.05625,0.2013889
000060,90.21,pedestrian,0,0.48828125,0.3875,0.075,0.26527777
000060,90.21,pedestrian,0,0.16484375,0.2888889,0.0609375,0.21666667
000060,90.21,pedestrian,0,0.446875,0.4097222,0.06953125,0.24722221
000060,90.21,pedestrian,0,0.88125,0.39722222,0.07109375,0.25277779
000060,90.21,pedestrian,0,0.6046875,0.24861111,0.0703125,0.25138888
000060,90.21,pedestrian,0,0.1296875,0.56666666,0.0875,0.30972221
000061,85.88,pedestrian,0,0.565625,0,0.05390625,0.19166666
000061,85.88,pedestrian,0,0.81640625,0.022222223,0.05703125,0.20277777
000061,85.88,pedestrian,0,0.4078125,0.1,0.06328125,0.22361112
000061,85.88,pedestrian,0,0.684375,0.7847222,0.05234375,0.18611111
000061,85.88,pedestrian,0,0.275,0.094444446,0.05625,0.2013889
000061,85.88,pedestrian,0,0.2328125,0.13611111,0.059375,0.21111111
000061,85.88,pedestrian,0,0.16796875,0.31388888,0.0578125,0.20555556
000061,85.88,pedestrian,0,0.43515626,0.38333333,0.07421875,0.2638889
000061,85.88,pedestrian,0,0.8828125,0.3986111,0.06875,0.24583334
000061,85.88,pedestrian,0,0.48671874,0.3625,0.0765625,0.27083334
000061,85.88,pedestrian,0,0.1359375,0.5875,0.0921875,0.3263889
000062,89.94,pedestrian,0,0.5671875,0.0069444445,0.0578125,0.20555556
000062,89.94,pedestrian,0,0.8226563,0.0375,0.05625,0.19861111
000062,89.94,pedestrian,0,0.88203126,0.07361111,0.05625,0.19861111
000062,89.94,pedestrian,0,0.40859374,0.104166664,0.06171875,0.21944444
000062,89.94,pedestrian,0,0.275,0.094444446,0.05625,0.2013889
000062,89.94,pedestrian,0,0.16015625,0.30972221,0.0671875,0.2375
000062,89.94,pedestrian,0,0.43515626,0.37083334,0.06796875,0.24166666
000062,89.94,pedestrian,0,0.88125,0.39583334,0.071875,0.25555557
000062,89.94,pedestrian,0,0.4796875,0.35,0.07578125,0.26944444
000062,89.94,pedestrian,0,0.1359375,0.6097222,0.0921875,0.32916668
000063,85.84,pedestrian,0,0.571875,0.020833334,0.05859375,0.20694445
000063,85.84,pedestrian,0,0.8304688,0.05138889,0.05625,0.19861111
000063,85.84,pedestrian,0,0.41015625,0.10694444,0.059375,0.21111111
000063,85.84,pedestrian,0,0.1640625,0.3402778,0.06015625,0.2125
000063,85.84,pedestrian,0,0.19921875,0.35694444,0.05546875,0.19722222
000063,85.84,pedestrian,0,0.209375,0.03888889,0.059375,0.20972222
000063,85.84,pedestrian,0,0.275,0.094444446,0.05625,0.2013889
000063,85.84,pedestrian,0,0.8882812,0.08888889,0.0578125,0.20416667
000063,85.84,pedestrian,0,0.43125,0.34861112,0.06796875,0.24166666
000063,85.84,pedestrian,0,0.88125,0.39722222,0.071875,0.25416666
000063,85.84,pedestrian,0,0.1859375,0.30833334,0.071875,0.25416666
000063,85.84,pedestrian,0,0.47421876,0.33333334,0.075,0.26666668
000063,85.84,pedestrian,0,0.13984375,0.63611114,0.09140625,0.325
000064,87.90,pedestrian,0,0.57734376,0.03888889,0.05859375,0.20694445
000064,87.90,pedestrian,0,0.834375,0.0625,0.05859375,0.20694445
000064,87.90,pedestrian,0,0.1375,0.097222224,0.05234375,0.18611111
000064,87.90,pedestrian,0,0.8960937,0.09861111,0.0578125,0.20555556
000064,87.90,pedestrian,0,0.40859374,0.104166664,0.06171875,0.21944444
000064,87.90,pedestrian,0,0.159375,0.13611111,0.05546875,0.19722222
000064,87.90,pedestrian,0,0.275,0.094444446,0.05625,0.2013889
000064,87.90,pedestrian,0,0.47109374,0.31388888,0.06953125,0.24583334
000064,87.90,pedestrian,0,0.43046874,0.33194444,0.0671875,0.23888889
000064,87.90,pedestrian,0,0.159375,0.35694444,0.06328125,0.22361112
000064,87.90,pedestrian,0,0.88203126,0.39722222,0.07109375,0.25138888
000064,87.90,pedestrian,0,0.184375,0.32083333,0.07578125,0.27083334
000064,87.90,pedestrian,0,0.6351563,0.6861111,0.08125,0.29027778
000064,87.90,pedestrian,0,0.14921875,0.6722222,0.0859375,0.30416667
000065,88.51,pedestrian,0,0.8421875,0.07777778,0.05859375,0.20833333
000065,88.51,pedestrian,0,0.409375,0.10555556,0.0609375,0.21666667
000065,88.51,pedestrian,0,0.90234375,0.11111111,0.05859375,0.20833333
000065,88.51,pedestrian,0,0.240625,0.19444445,0.0578125,0.20555556
000065,88.51,pedestrian,0,0.58515626,0.05138889,0.0609375,0.21666667
000065,88.51,pedestrian,0,0.134375,0.09583333,0.05703125,0.20277777
000065,88.51,pedestrian,0,0.42734376,0.30277777,0.0671875,0.24027778
000065,88.51,pedestrian,0,0.8828125,0.39722222,0.06875,0.24583334
000065,88.51,pedestrian,0,0.15546875,0.13333334,0.06015625,0.21388888
000065,88.51,pedestrian,0,0.46484375,0.29722223,0.07265625,0.25694445
000065,88.51,pedestrian,0,0.15703125,0.37777779,0.0609375,0.21666667
000065,88.51,pedestrian,0,0.18515626,0.3513889,0.0703125,0.25138888
000065,88.51,pedestrian,0,0.61875,0.6513889,0.08671875,0.30694443
000065,88.51,pedestrian,0,0.15234375,0.6958333,0.08125,0.29027778
000066,88.63,pedestrian,0,0.59453124,0.072222225,0.0578125,0.20416667
000066,88.63,pedestrian,0,0.846875,0.093055554,0.059375,0.2125
000066,88.63,pedestrian,0,0.4078125,0.10555556,0.06171875,0.21944444
000066,88.63,pedestrian,0,0.1375,0.09861111,0.05546875,0.19583334
000066,88.63,pedestrian,0,0.15703125,0.21805556,0.0578125,0.20555556
000066,88.63,pedestrian,0,0.42421874,0.2875,0.06640625,0.2361111
000066,88.63,pedestrian,0,0.91015625,0.12638889,0.06171875,0.22083333
000066,88.63,pedestrian,0,0.2421875,0.19722222,0.06484375,0.23055555
000066,88.63,pedestrian,0,0.1671875,0.13055556,0.06640625,0.23472223
000066,88.63,pedestrian,0,0.4640625,0.2638889,0.075,0.26527777
000066,88.63,pedestrian,0,0.15078124,0.37638888,0.0671875,0.23888889
000066,88.63,pedestrian,0,0.88125,0.39722222,0.071875,0.25555557
000066,88.63,pedestrian,0,0.18359375,0.3611111,0.0765625,0.27222222
000066,88.63,pedestrian,0,0.6046875,0.6097222,0.0921875,0.32777777
000067,88.47,pedestrian,0,0.409375,0.10555556,0.06015625,0.21388888
000067,88.47,pedestrian,0,0.85625,0.108333334,0.06015625,0.21388888
000067,88.47,pedestrian,0,0.246875,0.21944444,0.0609375,0.21666667
000067,88.47,pedestrian,0,0.1375,0.09861111,0.05546875,0.19583334
000067,88.47,pedestrian,0,0.42265624,0.27083334,0.06640625,0.23472223
000067,88.47,pedestrian,0,0.4640625,0.2638889,0.06640625,0.23472223
000067,88.47,pedestrian,0,0.14921875,0.41944444,0.0609375,0.21388888
000067,88.47,pedestrian,0,0.21796875,0.036111113,0.0609375,0.21666667
000067,88.47,pedestrian,0,0.1515625,0.22916667,0.0609375,0.21666667
000067,88.47,pedestrian,0,0.88125,0.39583334,0.071875,0.25555557
000067,88.47,pedestrian,0,0.596875,0.57916665,0.0890625,0.31805557
000068,89.38,pedestrian,0,0.1375,0.10138889,0.05234375,0.18611111
000068,89.38,pedestrian,0,0.27109376,0.09861111,0.0546875,0.19444445
000068,89.38,pedestrian,0,0.409375,0.10555556,0.0609375,0.21666667
000068,89.38,pedestrian,0,0.86015624,0.12361111,0.0609375,0.21666667
000068,89.38,pedestrian,0,0.4234375,0.25416666,0.06484375,0.22916667
000068,89.38,pedestrian,0,0.6195313,0.11111111,0.05625,0.2
000068,89.38,pedestrian,0,0.2453125,0.22361112,0.0671875,0.23888889
000068,89.38,pedestrian,0,0.146875,0.24444444,0.0609375,0.21666667
000068,89.38,pedestrian,0,0.9320313,0.15972222,0.06328125,0.225
000068,89.38,pedestrian,0,0.46640626,0.24166666,0.06875,0.24444444
000068,89.38,pedestrian,0,0.0359375,0.06388889,0.06640625,0.23472223
000068,89.38,pedestrian,0,0.87890625,0.39722222,0.07421875,0.2638889
000068,89.38,pedestrian,0,0.2921875,0.48055556,0.08046875,0.2875
000068,89.38,pedestrian,0,0.58515626,0.5472222,0.0890625,0.31805557
000069,86.99,pedestrian,0,0.26953125,0.094444446,0.05625,0.19861111
000069,86.99,pedestrian,0,0.4078125,0.10555556,0.0625,0.22083333
000069,86.99,pedestrian,0,0.871875,0.14166667,0.0578125,0.20694445
000069,86.99,pedestrian,0,0.42421874,0.22916667,0.06640625,0.2361111
000069,86.99,pedestrian,0,0.46875,0.22222222,0.065625,0.23194444
000069,86.99,pedestrian,0,0.14296874,0.25416666,0.0640625,0.22777778
000069,86.99,pedestrian,0,0.24140625,0.23333333,0.06875,0.24444444
000069,86.99,pedestrian,0,0.878125,0.39444444,0.07578125,0.26805556
000069,86.99,pedestrian,0,0.28359374,0.47777778,0.07890625,0.28055555
000069,86.99,pedestrian,0,0.57890624,0.51666665,0.0859375,0.30694443
000069,86.99,pedestrian,0,0.1734375,0.4097222,0.08046875,0.28611112
000070,92.28,pedestrian,0,0.271875,0.10138889,0.05390625,0.19166666
000070,92.28,pedestrian,0,0.4078125,0.10555556,0.06171875,0.21805556
000070,92.28,pedestrian,0,0.875,0.16527778,0.059375,0.21111111
000070,92.28,pedestrian,0,0.134375,0.1,0.05625,0.2
000070,92.28,pedestrian,0,0.42890626,0.21388888,0.06328125,0.225
000070,92.28,pedestrian,0,0.14140625,0.27638888,0.0640625,0.22638889
000070,92.28,pedestrian,0,0.4703125,0.20416667,0.06796875,0.24027778
000070,92.28,pedestrian,0,0.2375,0.2625,0.065625,0.23333333
000070,92.28,pedestrian,0,0.140625,0.47361112,0.0671875,0.23888889
000070,92.28,pedestrian,0,0.8804687,0.39722222,0.0734375,0.2611111
000070,92.28,pedestrian,0,0.17578125,0.44027779,0.07734375,0.2736111
000070,92.28,pedestrian,0,0.57109374,0.49444443,0.0828125,0.29583332
000070,92.28,pedestrian,0,0.27890626,0.46666667,0.08359375,0.29722223
000070,92.28,pedestrian,0,0.8578125,0.58194447,0.0859375,0.30555555
