1,49362
2,34060
3,36733
4,30597
5,27016
6,26413
7,30046
8,27609
9,31565
10,34301
11,99666
12,26572
13,29032
14,35158
15,28931
16,33677
17,30755
18,32224
19,27698
20,25261
21,103582
22,22814
23,24193
24,24118
25,25609
26,27278
27,26717
28,24748
29,24101
30,25215
31,108326
32,22497
33,25189
34,27071
35,33744
