1,591747
2,611008
3,635272
4,624706
5,610472
6,633304
7,622394
8,600902
9,625754
10,612896
11,599981
12,626635
13,614785
14,598037
15,622200
16,615566
17,612735
18,628030
19,618666
20,609418
21,627612
22,621645
23,609408
24,626255
25,618780
26,599955
27,629633
28,630896
29,615962
30,639603
31,600331
32,614830
33,634751
34,634013
35,621851
36,646457
37,629062
38,612600
39,640135
40,626266
41,609345
42,637187
43,624697
44,621290
45,640660
46,623646
47,597142
48,623138
49,614506
50,615532
51,629247
52,626374
53,613341
54,638571
55,626880
56,598816
57,624918
58,619270
59,608929
60,625214
61,586342
62,607232
63,618849
64,608229
65,608169
66,623303
67,610823
68,599797
69,630360
70,610285
71,610723
72,630892
73,600911
74,600238
75,624142
76,616743
77,609435
78,639787
79,620364
80,616427
81,629405
82,616282
83,608971
84,627203
85,626441
86,606625
87,639633
88,635652
89,623071
90,645876
91,594518
92,615373
93,633555
94,643446
95,619145
96,640061
97,633932
98,615847
99,639390
100,637213
101,619242
102,645967
103,639114
104,624007
105,641660
