1,38392
2,4245
3,5262
4,7447
5,7107
6,7167
7,6704
8,6191
9,6602
10,7183
11,7178
12,7056
13,7261
14,6711
15,7551
16,5896
17,6662
18,8423
19,6683
20,7316
21,6389
22,7124
23,6334
24,6917
25,7638
26,7469
27,6237
28,7628
29,7111
30,7698
31,7915
32,7477
33,7533
34,8774
35,7765
36,9056
37,9067
38,7648
39,9355
40,8104
41,7889
42,9258
43,8365
44,8643
45,8225
46,8043
47,8459
48,8529
49,8653
50,8639
51,59025
52,5708
53,7454
54,7164
55,8186
56,7934
57,9306
58,9377
59,8222
60,7948
61,7947
62,10403
63,10324
64,8041
65,9685
66,8338
67,8033
68,8317
69,9343
70,9281
71,9538
72,8853
73,8670
74,8247
75,9027
76,8093
77,7944
78,8703
79,9635
80,8769
81,8040
82,8628
83,8039
84,8211
85,8567
86,8563
87,7991
88,8088
89,7951
90,7793
91,7415
92,6716
93,6512
94,7576
95,7713
96,6878
97,6432
98,6417
99,7071
100,6881
101,55352
102,4075
103,5812
104,6911
105,6502
106,6714
107,6028
108,6957
109,6925
110,7467
111,7556
112,6508
113,7065
114,7163
115,6955
116,7155
117,5684
118,7414
119,6013
120,5584
121,6241
122,5938
123,6111
124,6188
125,6060
126,5443
127,6795
128,5729
129,6845
130,6944
131,6588
132,6305
133,7252
134,6312
135,6631
136,6661
137,5220
138,5997
139,5657
140,6587
141,6632
142,6220
143,6521
144,6540
145,6701
146,6727
147,6708
148,7082
149,7131
150,7050
151,58409
152,4232
153,5367
154,6939
155,7048
156,7134
157,7231
158,7336
159,7610
160,7537
161,7303
162,7381
163,7292
164,7759
165,7828
166,7572
167,8064
168,8290
169,8649
170,8880
171,8247
172,7490
173,9206
174,7368
175,8995
