1,488766
2,547023
3,610385
4,608954
5,612260
6,620444
7,617252
8,613949
9,615486
10,606003
11,613188
12,621698
13,614828
14,624068
15,621050
16,626614
17,625332
18,631498
19,640957
20,655181
21,806894
22,561573
23,582546
24,652516
25,632259
26,646844
27,632800
28,622227
29,626340
30,628168
31,631217
32,621543
33,619125
34,635195
35,624371
36,625425
37,627619
38,607946
39,610536
40,704131
41,790426
42,541687
43,602477
44,608270
45,615055
46,632214
47,615664
48,630645
49,603041
50,695605
51,693564
52,694677
53,718320
54,707004
55,695743
56,687138
57,703187
58,693356
59,693016
60,704930
61,803499
62,550471
63,627564
64,614544
65,620612
66,617754
67,619431
68,633507
69,654377
70,648729
