1,859042
2,880849
3,879627
4,897846
5,886319
6,910175
7,883682
8,884240
9,899105
10,884638
11,903534
12,868475
13,877328
14,893115
15,880879
16,895131
17,868205
18,873395
19,889120
20,874698
21,896061
22,866956
23,869503
24,885990
25,874385
26,898602
27,879438
28,891904
29,898864
30,881834
31,902184
32,867717
33,885675
34,897627
35,879826
36,908180
37,872933
38,878314
39,896086
40,882380
41,905438
42,861706
43,879573
44,901924
45,884170
46,921109
47,888505
48,898292
49,918519
50,891050
51,867451
52,884641
53,883976
54,904896
55,894544
56,915555
57,881223
58,901102
59,910347
60,890630
61,917693
62,882731
63,889613
64,908532
65,886074
66,912551
67,884030
68,888511
69,906692
70,879246
71,904652
72,889083
73,891989
74,903842
75,881913
76,913354
77,877850
78,885892
79,885608
80,875517
81,903995
82,881835
83,883966
84,904131
85,896841
86,910824
87,879812
88,897893
89,907589
90,896862
91,906588
92,880243
93,882180
94,893324
95,882211
96,902426
97,881457
98,883428
99,895127
100,890203
101,851824
102,879128
103,889822
104,894434
105,886814
106,887313
107,867280
108,876855
109,891894
110,883684
111,888327
112,865952
113,879348
114,892880
115,890485
116,887189
117,882561
118,878774
119,892987
120,877397
121,876857
122,852990
123,874457
124,894965
125,871159
126,900119
127,874233
128,880799
129,901622
130,891874
131,902216
132,874453
133,891673
134,888810
135,885952
136,900130
137,870793
138,884392
139,897351
140,882693
141,910174
142,871348
143,889156
144,906873
145,890137
146,920509
147,890775
148,894932
149,921726
150,899771
151,863756
152,887439
153,892960
154,905858
155,893744
156,927636
157,894529
158,896704
159,913974
160,888528
161,923648
162,887745
163,889251
164,915389
165,891230
166,928767
167,895520
168,897397
169,916783
170,898254
171,927799
172,898458
173,892669
174,908354
175,898219
