1,488766
2,383269
3,384485
4,463780
5,450297
6,478902
7,463703
8,451788
9,466887
10,458321
11,476175
12,461802
13,465646
14,479780
15,472779
16,469160
17,456349
18,465556
19,477613
20,461053
21,479390
22,457498
23,451072
24,470545
25,464763
26,485630
27,470559
28,480352
29,490098
30,466094
31,488226
32,462507
33,465115
34,484954
35,462518
36,493190
37,476648
38,462819
39,495776
40,470877
41,488504
42,475601
43,467969
44,485158
45,427760
46,442615
47,418572
48,430199
49,440499
50,421436
51,735420
52,385389
53,401062
54,419599
55,427016
56,433928
57,471536
58,479569
59,447486
60,418120
61,441505
62,476993
63,480222
64,438979
65,473140
66,492933
67,469243
68,468987
69,496199
70,471509
71,495847
72,478966
73,474025
74,440033
75,473362
76,447695
77,422909
78,476229
79,489553
80,469531
81,490598
82,484840
83,466388
84,486934
85,484634
86,493172
87,470964
88,477015
89,493289
90,476373
91,484440
92,458752
93,458049
94,475229
95,465250
96,484607
97,456567
98,459250
99,477416
100,473159
101,720080
102,379278
103,393826
104,473412
105,458331
106,477979
107,469957
108,484657
109,478970
110,479857
111,494747
112,456848
113,488769
114,484393
115,470887
116,491152
117,473997
118,482957
119,468124
120,454691
121,471506
122,447421
123,459883
124,471030
125,455380
126,477334
127,464598
128,454237
129,486367
130,480153
131,482262
132,458329
133,484973
134,469885
135,464724
136,485169
137,446881
138,457774
139,470112
140,460997
141,486760
142,454541
143,457747
144,479090
145,461044
146,492759
147,468804
148,465316
149,488277
150,465083
151,731814
152,371611
153,392553
154,469736
155,464136
156,498194
157,462351
158,463051
159,486862
160,464177
161,492110
162,464112
163,462772
164,484438
165,465724
166,492027
167,471520
168,475697
169,492230
170,476606
171,505135
172,435771
173,485688
174,438498
175,478014
