1,49362
2,17122
3,20923
4,17801
5,19836
6,18211
7,18472
8,19043
9,17361
10,16382
11,17912
12,18268
13,16262
14,16453
15,18393
16,20072
17,19501
18,19796
19,21856
20,22123
21,90733
22,15781
23,17964
24,22092
25,22416
26,22905
27,19890
28,18206
29,19929
30,21265
31,21296
32,19604
33,18763
34,19565
35,19056
36,18534
37,17809
38,15898
39,15584
40,17138
41,85475
42,12169
43,15335
44,15301
45,17751
46,15666
47,16340
48,16235
49,14336
50,15449
51,17181
52,15289
53,15502
54,16661
55,15851
56,15840
57,16470
58,16943
59,15154
60,17185
61,89717
62,11097
63,15379
64,15519
65,16380
66,16674
67,16970
68,18248
69,22126
70,20956
