1,859042
2,884206
3,918092
4,906962
5,886753
6,919475
7,899436
8,872072
9,910218
10,889347
11,873365
12,915571
13,892639
14,866004
15,904584
16,896068
17,882839
18,915210
19,899140
20,883483
21,917644
22,904877
23,887239
24,907049
25,899651
26,874043
27,921616
28,916360
29,898181
30,932335
31,867451
32,888970
33,920236
34,911741
35,901305
36,929745
37,907987
38,887412
39,923193
40,906616
41,885901
42,919341
43,901649
44,897650
45,929574
46,904143
47,869745
48,907902
49,894039
50,890585
51,913415
52,905824
53,889564
54,926812
55,909208
56,873990
57,908939
58,899545
59,882548
60,908701
61,851824
62,882581
63,903675
64,883602
65,878014
66,906357
67,878426
68,871960
69,911596
70,882682
71,885135
72,915419
73,870096
74,869546
75,909360
76,895703
77,882260
78,922897
79,898960
80,889176
81,912532
82,895354
83,884311
84,913915
85,903357
86,884133
87,926057
88,916331
89,904039
90,934348
91,863756
92,891074
93,922459
94,927517
95,899771
96,930529
97,919025
98,895281
99,929816
100,922808
101,896124
102,936792
103,920020
104,899215
105,927684
