1,46104
2,43549
3,46668
4,47071
5,50611
6,50334
7,55818
8,47758
9,49897
10,51114
11,69218
12,46027
13,47065
14,51623
15,48786
16,50066
17,49730
18,50133
19,49534
20,48506
21,67571
22,41695
23,46221
24,50755
25,50310
26,50918
27,53964
28,53733
29,50741
30,50847
31,68900
32,42429
33,47823
34,48384
35,52099
