1,22531
2,3618
3,5507
4,7124
5,6273
6,8494
7,7148
8,7302
9,7079
10,7129
11,7947
12,7191
13,6986
14,7053
15,6523
16,7387
17,6965
18,7055
19,7641
20,7160
21,7263
22,6927
23,7440
24,7230
25,7182
26,7529
27,7084
28,7837
29,7811
30,7334
31,7245
32,6847
33,7063
34,7109
35,8076
36,7372
37,7337
38,7593
39,7037
40,7006
41,7456
42,7001
43,7348
44,6794
45,6597
46,7190
47,6738
48,7193
49,7444
50,7466
51,7503
52,6709
53,8041
54,9948
55,8879
56,8758
57,7592
58,7582
59,7304
60,7263
61,8003
62,7439
63,7534
64,7206
65,7205
66,8209
67,7595
68,6696
69,6427
70,6641
71,7041
72,6942
73,7585
74,7911
75,7607
76,7986
77,6868
78,7453
79,7471
80,7451
81,7970
82,7421
83,6684
84,8244
85,7045
86,7643
87,7468
88,7124
89,7827
90,7463
91,8227
92,7534
93,7636
94,7954
95,8443
96,8604
97,7911
98,8000
99,8108
100,7701
101,28294
102,4576
103,6297
104,6939
105,6581
106,8233
107,7394
108,7879
109,8512
110,7467
111,7856
112,7116
113,7253
114,7490
115,8047
116,9092
117,8094
118,8034
119,7726
120,7501
121,7990
122,7649
123,7716
124,7834
125,8072
126,8558
127,7726
128,7506
129,7150
130,7082
131,9242
132,7979
133,8056
134,8174
135,8029
136,6988
137,6748
138,6854
139,6911
140,7064
141,7512
142,7155
143,6911
144,7195
145,6614
146,7306
147,8266
148,7877
149,8208
150,7930
151,7521
152,7394
153,8147
154,7635
155,7473
156,7715
157,7195
158,7725
159,7664
160,7655
161,8166
162,8554
163,7730
164,7125
165,6697
166,7360
167,7185
168,7199
169,7023
170,6842
171,7373
172,6997
173,6757
174,6724
175,8563
176,6686
177,8794
178,8478
179,8105
180,7763
181,8298
182,7160
183,7469
184,7739
185,7559
186,8013
187,7659
188,7753
189,7743
190,7716
191,7758
192,7128
193,7282
194,7070
195,6931
196,7742
197,7211
198,7511
199,7483
200,7165
201,29477
202,3801
203,4768
204,6044
205,5988
206,8270
207,7301
208,7489
209,7109
210,8228
211,7733
212,7051
213,8675
214,9407
215,8149
216,7693
217,7362
218,6927
219,8223
220,9378
221,9840
222,8783
223,7126
224,7156
225,8801
226,10397
227,9461
228,8398
229,7282
230,9744
231,8806
232,8048
233,7318
234,7588
235,8524
236,7743
237,6416
238,6643
239,6630
240,6941
241,7286
242,6150
243,6633
244,6395
245,7491
246,7221
247,6895
248,6742
249,6850
250,6466
251,7549
252,7163
253,6898
254,6943
255,6799
256,7354
257,7061
258,8230
259,8094
260,7586
261,7724
262,6413
263,6987
264,8468
265,7630
266,7224
267,7665
268,6711
269,7682
270,7663
271,7117
272,7436
273,7178
274,7186
275,6995
276,6739
277,7326
278,7388
279,6525
280,6490
281,7298
282,6595
283,7820
284,7658
285,7413
286,6990
287,6889
288,7742
289,6807
290,6905
291,7608
292,7041
293,7051
294,7043
295,7649
296,7610
297,7052
298,7118
299,7108
300,6930
301,30208
302,3390
303,5235
304,6327
305,5985
306,7842
307,7331
308,7267
309,7452
310,7335
311,7878
312,7367
313,7467
314,7395
315,7747
316,8355
317,7996
318,7854
319,7699
320,7732
321,8017
322,7519
323,7485
324,7387
325,7457
326,8154
327,7874
328,7879
329,7789
330,7498
331,8071
332,7703
333,7984
334,8015
335,8366
336,8885
337,8005
338,8018
339,9125
340,7846
341,7284
342,8032
343,8285
344,8083
345,9839
346,8402
347,6772
348,6975
349,7023
350,7020
