1,46104
2,23091
3,25022
4,31082
5,30059
6,31618
7,30571
8,33998
9,34660
10,34000
11,35346
12,34694
13,30581
14,31719
15,31639
16,30606
17,30193
18,30997
19,31608
20,30423
21,31492
22,30375
23,29596
24,30898
25,30673
26,31947
27,31675
28,34093
29,32698
30,30831
31,32556
32,30856
33,30908
34,32852
35,31330
36,33454
37,29336
38,27829
39,30595
40,28625
41,29486
42,29631
43,28800
44,29845
45,30649
46,31262
47,29345
48,30549
49,30891
50,29946
51,58554
52,23782
53,27332
54,27955
55,30574
56,30179
57,28384
58,29665
59,31736
60,29414
61,34468
62,29277
63,29712
64,34822
65,32513
66,33235
67,32015
68,31682
69,33483
70,32293
71,33749
72,32899
73,32200
74,30565
75,32501
76,30691
77,29460
78,28322
79,29993
80,28463
81,33507
82,29352
83,28172
84,33663
85,29526
86,29700
87,32450
88,32599
89,33864
90,32822
91,32983
92,31364
93,31184
94,32421
95,32077
96,32815
97,30634
98,30927
99,36815
100,36127
101,60884
102,24594
103,27134
104,28284
105,31235
106,32844
107,32253
108,33120
109,32246
110,36510
111,35162
112,35177
113,32868
114,35775
115,31389
116,34716
117,31592
118,32540
119,35404
120,33632
121,35022
122,32928
123,34147
124,35125
125,33915
126,35541
127,34697
128,33834
129,36264
130,31618
131,36303
132,34385
133,36461
134,34866
135,34598
136,36053
137,32914
138,33909
139,34765
140,34602
141,36476
142,34184
143,34563
144,36112
145,34902
146,37035
147,35331
148,35234
149,36661
150,35261
151,66744
152,21381
153,26996
154,27792
155,30935
156,33280
157,31087
158,31484
159,33173
160,31366
161,33027
162,31192
163,31157
164,32657
165,31705
166,33049
167,32134
168,32645
169,33554
170,32561
171,33953
172,34185
173,33141
174,33730
175,32255
