1,29132
2,442
3,1142
4,1933
5,2246
6,2479
7,2296
8,2799
9,2260
10,2149
11,2375
12,2400
13,2392
14,2163
15,2752
16,2272
17,2090
18,2186
19,2507
20,2076
21,2291
22,2693
23,2492
24,2315
25,2260
26,2749
27,2340
28,2287
29,2597
30,2641
31,2519
32,2300
33,2667
34,2311
35,2309
36,2669
37,2710
38,2251
39,2181
40,2606
41,2297
42,2312
43,2458
44,2644
45,2341
46,2502
47,2748
48,2560
49,2416
50,2426
51,2940
52,2515
53,2579
54,3156
55,2814
56,2610
57,2587
58,2915
59,2263
60,2341
61,2750
62,2858
63,2419
64,2290
65,2858
66,2507
67,2455
68,2441
69,2862
70,2417
71,2442
72,2774
73,2548
74,2456
75,2305
76,2604
77,2397
78,2385
79,2488
80,2772
81,2650
82,2368
83,3006
84,2653
85,2532
86,2726
87,2953
88,2484
89,2422
90,2725
91,2659
92,2429
93,2350
94,2587
95,2354
96,2302
97,2784
98,2572
99,2537
100,2498
101,3218
102,2949
103,2696
104,2379
105,2663
106,2608
107,2328
108,2698
109,2235
110,2240
111,2468
112,2763
113,2316
114,2483
115,2749
116,2741
117,2467
118,2469
119,2787
120,2370
121,2560
122,2702
123,2463
124,2313
125,2406
126,2797
127,2474
128,2393
129,2652
130,2664
131,2613
132,2455
133,2542
134,2408
135,2470
136,2483
137,2705
138,2225
139,2265
140,2618
141,2658
142,2357
143,2426
144,3176
145,2467
146,2598
147,2920
148,2683
149,2404
150,2480
151,2981
152,2422
153,2426
154,2482
155,2662
156,2534
157,2592
158,3054
159,3624
160,4245
161,3694
162,3816
163,3441
164,3231
165,3002
166,3184
167,2713
168,2712
169,3042
170,2537
171,2704
172,2977
173,3230
174,2812
175,2746
176,3007
177,2718
178,2683
179,2976
180,3133
181,2902
182,2783
183,3105
184,2703
185,2810
186,2762
187,3175
188,2676
189,2905
190,2902
191,3116
192,2957
193,2922
194,3304
195,3070
196,2514
197,2814
198,3943
199,3223
200,3234
201,3839
202,3315
203,3290
204,3534
205,2835
206,3760
207,2628
208,3229
209,2992
210,3070
211,3276
212,3430
213,3130
214,4029
215,2987
216,3334
217,3092
218,3004
219,3955
220,3032
221,2983
222,3430
223,3563
224,3013
225,2853
226,3913
227,3268
228,2896
229,3084
230,3656
231,3071
232,2980
233,3739
234,3662
235,2937
236,3135
237,3514
238,2939
239,2970
240,3238
241,3979
242,3110
243,3271
244,3748
245,3264
246,3171
247,3225
248,3907
249,3294
250,3045
251,3960
252,3196
253,3174
254,3103
255,4527
256,3241
257,3496
258,3962
259,3400
260,3368
261,3314
262,3945
263,3330
264,3223
265,3433
266,3865
267,3263
268,3297
269,3824
270,3306
271,3526
272,3416
273,3441
274,3111
275,3127
276,3706
277,3471
278,3344
279,3462
280,3824
281,3555
282,3831
283,3742
284,3717
285,3417
286,4158
287,4035
288,3529
289,3546
290,3663
291,3660
292,3763
293,3607
294,4054
295,3426
296,3267
297,3358
298,3679
299,5503
300,2862
301,29691
302,1362
303,2070
304,2598
305,3524
306,2970
307,3023
308,3231
309,3298
310,2919
311,3994
312,3071
313,2934
314,2993
315,3150
316,3497
317,2945
318,4091
319,4164
320,3794
321,2753
322,3238
323,4193
324,3305
325,3257
326,4871
327,2959
328,3002
329,4454
330,3139
331,3196
332,3120
333,4604
334,3895
335,3640
336,3552
337,4114
338,3527
339,3771
340,3884
341,4077
342,3669
343,2946
344,5296
345,3222
346,3732
347,3558
348,5294
349,4082
350,3903
351,4297
352,4084
353,3548
354,3747
355,4252
356,3614
357,3608
358,3914
359,4002
360,3743
361,2956
362,3615
363,4210
364,2672
365,4142
366,4101
367,3027
368,4094
369,3197
370,3207
371,3004
372,3173
373,3744
374,5440
375,4118
376,2936
377,3506
378,4718
379,3639
380,4083
381,3395
382,3346
383,3650
384,3662
385,3442
386,3207
387,3696
388,3091
389,3124
390,3008
391,2717
392,3533
393,3073
394,3490
395,3305
396,3326
397,3140
398,3659
399,3067
400,3240
401,3485
402,3537
403,3110
404,3139
405,3734
406,2775
407,2655
408,4260
409,3725
410,3337
411,3589
412,3856
413,3674
414,3744
415,3533
416,3992
417,3688
418,2624
419,4183
420,3838
421,2795
422,3018
423,4352
424,3307
425,3354
426,3601
427,2789
428,3789
429,2677
430,3361
431,2948
432,3021
433,2944
434,3373
435,3009
436,3059
437,3683
438,2985
439,2885
440,3018
441,3939
442,2919
443,2976
444,3390
445,3450
446,3254
447,3150
448,4089
449,3051
450,2950
451,3629
452,3454
453,2956
454,2883
455,3893
456,3178
457,2859
458,3338
459,3488
460,2834
461,2979
462,3566
463,3318
464,2887
465,2717
466,3522
467,2852
468,2838
469,3447
470,3950
471,3042
472,2717
473,3398
474,2831
475,2772
476,3042
477,3924
478,3000
479,2913
480,3587
481,3135
482,3043
483,2931
484,3841
485,3180
486,3202
487,3477
488,3119
489,2917
490,2858
491,4155
492,3370
493,3425
494,3366
495,3633
496,2668
497,2846
498,4171
499,3319
500,3655
501,2916
502,3214
503,3984
504,2614
505,3156
506,4002
507,3740
508,2639
509,4102
510,3477
511,2617
512,2892
513,3964
514,3302
515,3232
516,3600
517,3230
518,3380
519,3394
520,3238
521,3143
522,3197
523,3549
524,3178
525,3149
526,2513
527,3767
528,3006
529,3123
530,3499
531,3161
532,3058
533,3041
534,3457
535,3076
536,3169
537,3361
538,3336
539,3206
540,3008
541,2682
542,3485
543,3041
544,3071
545,3156
546,2875
547,2863
548,3114
549,2983
550,2874
551,2769
552,3074
553,2920
554,2747
555,3131
556,3130
557,3013
558,2885
559,3212
560,2880
561,2861
562,3140
563,3272
564,2804
565,2782
566,3209
567,2751
568,2699
569,2845
570,2960
571,2705
572,2617
573,2892
574,2517
575,2518
576,2574
577,2909
578,2606
579,2504
580,2764
581,2723
582,2605
583,2422
584,2876
585,2420
586,2603
587,2964
588,2816
589,2631
590,2634
591,3010
592,2662
593,2786
594,2684
595,2972
596,2583
597,2618
598,2885
599,2761
600,2557
601,30105
602,703
603,1664
604,1875
605,2415
606,2355
607,2330
608,2319
609,2501
610,2456
611,2478
612,2601
613,2807
614,2408
615,2537
616,3002
617,2634
618,2483
619,2460
620,2986
621,2518
622,2367
623,2705
624,2431
625,2341
626,2371
627,2831
628,2353
629,2318
630,2636
631,2674
632,2480
633,2238
634,2844
635,2337
636,2495
637,2958
638,3357
639,3786
640,2762
641,2833
642,2695
643,2566
644,2566
645,2816
646,2510
647,2500
648,2576
649,2845
650,2254
651,2569
652,2603
653,2277
654,2129
655,2686
656,3192
657,2750
658,3214
659,3443
660,3612
661,3286
662,3049
663,3612
664,2758
665,2486
666,2607
667,2248
668,2245
669,2282
670,2575
671,2266
672,2557
673,3029
674,3277
675,3324
676,4014
677,3824
678,3364
679,3034
680,3297
681,3394
682,2867
683,2429
684,3114
685,2198
686,2363
687,2740
688,3285
689,3292
690,2529
691,3196
692,2813
693,3129
694,2566
695,2342
696,2187
697,2305
698,2415
699,3030
700,2281
701,2457
702,3251
703,2649
704,2698
705,2658
706,2818
707,2169
708,2144
709,2291
710,2178
711,2208
712,2173
713,2637
714,2140
715,2141
716,2339
717,2210
718,2172
719,2266
720,2524
721,2264
722,2222
723,2101
724,2261
725,2059
726,2084
727,2487
728,2146
729,2326
730,2261
731,2460
732,2139
733,2290
734,2696
735,2274
736,2382
737,2304
738,2388
739,1981
740,2002
741,2465
742,2358
743,2049
744,2148
745,2764
746,2114
747,2049
748,2493
749,2530
750,2114
751,2478
752,2850
753,2679
754,2169
755,2466
756,2834
757,2388
758,2291
759,2754
760,2406
761,2301
762,2338
763,2587
764,2295
765,2253
766,2949
767,2599
768,2515
769,2697
770,3154
771,2881
772,3515
773,3749
774,3166
775,2877
776,2835
777,3205
778,2359
779,2464
780,2671
781,3029
782,2313
783,2377
784,2495
785,2474
786,2205
787,2161
788,2937
789,2803
790,2513
791,3028
792,2621
793,2584
794,2279
795,2692
796,2417
797,2453
798,2421
799,2472
800,2230
801,2484
802,2634
803,2262
804,2324
805,2538
806,2698
807,2675
808,2283
809,2720
810,2658
811,2387
812,2238
813,2635
814,2041
815,2080
816,2302
817,2457
818,2072
819,2055
820,2683
821,2053
822,2143
823,2336
824,2562
825,2376
826,2312
827,2654
828,2267
829,2181
830,2091
831,2577
832,2159
833,2422
834,2720
835,2434
836,2303
837,2395
838,2650
839,2317
840,2340
841,2889
842,2776
843,2351
844,2314
845,2674
846,2286
847,2203
848,2294
849,2889
850,2174
851,2291
852,2702
853,2465
854,2416
855,2501
856,2953
857,2670
858,2330
859,2570
860,2601
861,2221
862,2277
863,2725
864,2396
865,2709
866,2850
867,2790
868,2474
869,2398
870,2906
871,2713
872,2526
873,2828
874,2811
875,2482
876,2527
877,2976
878,2784
879,2541
880,2653
881,3415
882,2648
883,2750
884,2928
885,2840
886,2794
887,2774
888,3115
889,2557
890,2719
891,2882
892,3184
893,2794
894,2666
895,3054
896,2634
897,2632
898,2707
899,3093
900,2595
901,31939
902,772
903,1815
904,1960
905,1965
906,3047
907,2389
908,2346
909,2598
910,2794
911,2491
912,2570
913,2920
914,2478
915,2366
916,2763
917,3025
918,2439
919,2390
920,2876
921,2708
922,2607
923,2576
924,3250
925,2723
926,2794
927,3008
928,2696
929,2434
930,2527
931,3068
932,2717
933,2744
934,2963
935,3132
936,2923
937,2807
938,3185
939,2795
940,2749
941,2919
942,3025
943,2877
944,2723
945,3319
946,2342
947,3250
948,3041
949,3370
950,3018
951,2975
952,3378
953,3262
954,3039
955,2877
956,3503
957,2891
958,2681
959,3012
960,3023
961,2740
962,2805
963,3113
964,2556
965,3043
966,2857
967,3315
968,2816
969,2926
970,3222
971,2912
972,2779
973,2835
974,3508
975,2793
976,2277
977,3726
978,3321
979,2969
980,2886
981,3504
982,2887
983,2949
984,3091
985,3414
986,3084
987,3036
988,3507
989,3024
990,2884
991,2463
992,3783
993,3005
994,2824
995,3180
996,3166
997,3116
998,3112
999,3725
1000,3013
1001,3256
1002,3400
1003,3576
1004,3341
1005,3254
1006,2934
1007,2783
1008,3876
1009,3343
1010,3599
1011,3292
1012,3116
1013,3661
1014,3526
1015,2930
1016,4371
1017,5020
1018,3326
1019,3281
1020,3542
1021,2653
1022,2748
1023,4198
1024,4219
1025,4048
1026,3683
1027,4263
1028,4212
1029,3672
1030,4041
1031,3910
1032,3989
1033,3774
1034,3381
1035,3480
1036,3050
1037,2878
1038,4517
1039,3517
1040,3457
1041,3577
1042,3714
1043,3437
1044,3316
1045,3692
1046,3623
1047,3674
1048,3376
1049,3851
1050,4060
