1,4463
2,83
3,186
4,261
5,352
6,266
7,285
8,269
9,215
10,351
11,281
12,284
13,429
14,281
15,242
16,292
17,295
18,387
19,407
20,384
21,282
22,288
23,381
24,374
25,233
26,209
27,264
28,254
29,294
30,332
31,311
32,300
33,256
34,375
35,269
36,253
37,328
38,303
39,328
40,303
41,285
42,347
43,265
44,282
45,235
46,202
47,310
48,315
49,405
50,337
51,304
52,280
53,233
54,316
55,311
56,317
57,289
58,377
59,354
60,372
61,313
62,314
63,323
64,298
65,321
66,374
67,314
68,462
69,380
70,392
71,369
72,444
73,325
74,528
75,388
76,508
77,397
78,400
79,475
80,397
81,496
82,515
83,450
84,511
85,399
86,542
87,418
88,494
89,286
90,457
91,406
92,430
93,424
94,453
95,374
96,332
97,408
98,442
99,379
100,383
101,5771
102,90
103,287
104,361
105,306
106,348
107,403
108,306
109,324
110,391
111,369
112,398
113,329
114,368
115,405
116,409
117,330
118,367
119,351
120,379
121,389
122,389
123,415
124,384
125,345
126,316
127,351
128,278
129,327
130,271
131,329
132,328
133,297
134,366
135,353
136,375
137,399
138,386
139,333
140,353
141,464
142,367
143,393
144,373
145,352
146,460
147,388
148,508
149,428
150,443
151,371
152,330
153,430
154,400
155,428
156,336
157,252
158,418
159,346
160,481
161,355
162,436
163,386
164,398
165,245
166,321
167,255
168,295
169,251
170,285
171,329
172,258
173,248
174,286
175,288
176,278
177,289
178,352
179,250
180,291
181,291
182,235
183,203
184,239
185,241
186,314
187,296
188,241
189,268
190,265
191,228
192,510
193,311
194,300
195,264
196,271
197,313
198,267
199,276
200,280
201,5263
202,80
203,156
204,231
205,253
206,292
207,354
208,395
209,382
210,262
211,392
212,241
213,253
214,218
215,266
216,403
217,390
218,341
219,291
220,253
221,351
222,323
223,286
224,383
225,267
226,235
227,371
228,329
229,383
230,293
231,274
232,175
233,288
234,282
235,333
236,419
237,321
238,272
239,296
240,274
241,281
242,238
243,243
244,291
245,318
246,265
247,342
248,228
249,407
250,217
251,263
252,292
253,340
254,311
255,279
256,225
257,339
258,285
259,234
260,473
261,307
262,237
263,290
264,198
265,373
266,270
267,306
268,342
269,253
270,271
271,351
272,323
273,284
274,311
275,227
276,323
277,257
278,290
279,307
280,274
281,327
282,236
283,308
284,330
285,376
286,335
287,363
288,238
289,365
290,367
291,244
292,442
293,351
294,266
295,305
296,279
297,285
298,333
299,307
300,412
301,6418
302,121
303,238
304,220
305,234
306,228
307,249
308,273
309,312
310,259
311,313
312,249
313,299
314,280
315,317
316,306
317,343
318,255
319,303
320,338
321,308
322,287
323,345
324,262
325,236
326,316
327,297
328,341
329,309
330,296
331,268
332,268
333,378
334,338
335,360
336,341
337,314
338,293
339,370
340,357
341,333
342,286
343,297
344,290
345,319
346,572
347,288
348,354
349,328
350,268
