1,136773
2,23518
3,33562
4,43801
5,48468
6,52344
7,53761
8,52442
9,50476
10,53338
11,48917
12,52125
13,53373
14,49770
15,51896
16,66568
17,52905
18,40855
19,53902
20,49836
21,48897
22,54742
23,47667
24,51356
25,52526
26,51337
27,50342
28,52270
29,47724
30,53690
31,66000
32,54406
33,45274
34,52525
35,46971
36,52195
37,52970
38,47387
39,51604
40,53410
41,46183
42,51802
43,51795
44,48692
45,51892
46,65736
47,54989
48,43307
49,50892
50,47800
51,52931
52,51703
53,48233
54,53910
55,53585
56,47754
57,51796
58,54138
59,47816
60,51837
61,66092
62,55186
63,41563
64,50788
65,50183
66,51563
67,51724
68,47011
69,53220
70,51990
71,47493
72,54260
73,52846
74,48067
75,52751
76,65542
77,54173
78,42837
79,52189
80,50529
81,52985
82,52513
83,50469
84,52742
85,52290
86,48717
87,54317
88,52411
89,48105
90,53506
91,65430
92,53959
93,42422
94,53537
95,47613
96,50927
97,52817
98,47590
99,52172
100,51655
101,50074
102,53494
103,51770
104,47265
105,52658
106,65285
107,55061
108,48452
109,51400
110,48177
111,52868
112,53495
113,48336
114,51984
115,53101
116,49832
117,51617
118,51991
119,50351
120,52795
121,65297
122,54523
123,42611
124,50316
125,48490
126,53091
127,52263
128,48122
129,52320
130,52923
131,48148
132,52020
133,52618
134,48922
135,51423
136,64793
137,55307
138,41671
139,50166
140,48834
141,52835
142,51458
143,47135
144,55101
145,52506
146,50430
147,54516
148,53832
149,48257
150,52464
151,66132
152,52948
153,41167
154,52693
155,51101
156,52271
157,53669
158,51617
159,56512
160,57419
161,50766
162,56245
163,53766
164,49162
165,54922
166,66856
167,54395
168,41992
169,53029
170,49719
171,51259
172,53097
173,50142
174,52445
175,52428
176,50216
177,52837
178,52436
179,49580
180,54693
181,66711
182,56162
183,45367
184,51743
185,49976
186,52606
187,53841
188,48472
189,53181
190,52850
191,49470
192,53177
193,52293
194,50507
195,54238
196,61011
197,52630
198,49016
199,53352
200,49772
201,56577
202,54322
203,50891
204,54940
205,50063
206,51479
207,49347
208,50599
209,46639
210,50583
211,62964
212,55084
213,42751
214,52491
215,51979
216,51526
217,48749
218,47217
219,58792
220,50621
221,48785
222,53472
223,54026
224,46119
225,49564
226,67882
227,54584
228,41642
229,49094
230,51260
231,50025
232,49184
233,51206
234,52234
235,49323
236,47184
237,53858
238,50389
239,46950
240,52508
241,67288
242,56421
243,47997
244,56850
245,50321
246,49938
247,50983
248,57167
249,52529
250,47643
251,56931
252,53010
253,49343
254,48121
255,60681
256,65099
257,55939
258,52292
259,52673
260,49556
261,50950
262,54585
263,48506
264,49771
265,53133
266,53848
267,50559
268,51990
269,49744
270,51694
271,65403
272,55471
273,45491
274,50180
275,46946
276,52414
277,51711
278,47128
279,52193
280,53439
281,47532
282,52746
283,52856
284,48033
285,52157
286,65410
287,55253
288,44048
289,50316
290,47529
291,51689
292,51806
293,47440
294,52844
295,51404
296,46879
297,51164
298,52319
299,52864
300,50194
301,139015
302,34311
303,35295
304,44103
305,49990
306,49596
307,49503
308,47127
309,51592
310,49717
311,51800
312,51156
313,50258
314,45719
315,50981
316,64293
317,52599
318,48650
319,55559
320,51297
321,48860
322,51661
323,50609
324,50810
325,50087
326,53380
327,50885
328,49337
329,52741
330,51537
331,62423
332,52141
333,48875
334,54559
335,51072
336,53686
337,56239
338,49648
339,55244
340,55751
341,51880
342,55414
343,51034
344,54302
345,52477
346,63846
347,54164
348,50087
349,54986
350,49939
351,55877
352,55927
353,50186
354,54751
355,56712
356,49802
357,54539
358,55087
359,51767
360,54908
361,62944
362,55183
363,50369
364,48140
365,53367
366,56017
367,49931
368,52651
369,51344
370,50810
371,46632
372,51176
373,52740
374,54028
375,56587
376,64160
377,54721
378,48902
379,53527
380,51835
381,54807
382,54154
383,50009
384,55372
385,53752
386,49044
387,55612
388,53531
389,48809
390,54007
391,62293
392,57887
393,45774
394,54548
395,50053
396,53142
397,52645
398,51328
399,53824
400,53380
401,50882
402,54191
403,53522
404,49194
405,56044
406,62459
407,51877
408,48626
409,54358
410,50881
411,54327
412,55078
413,51105
414,54488
415,54468
416,50973
417,55191
418,48287
419,52361
420,55926
421,62041
422,53200
423,50543
424,53888
425,50692
426,54563
427,51320
428,51979
429,49436
430,51659
431,46715
432,50689
433,49881
434,47636
435,50945
436,63335
437,58443
438,45371
439,48232
440,46259
441,56958
442,50860
443,48732
444,55221
445,55928
446,48236
447,49903
448,58234
449,51904
450,46796
451,66029
452,54877
453,42012
454,47365
455,54937
456,51197
457,48184
458,49763
459,54771
460,49839
461,47339
462,56299
463,52662
464,51457
465,47258
466,65908
467,53696
468,41036
469,53228
470,56081
471,46293
472,46843
473,53126
474,50225
475,48151
476,47236
477,56262
478,50264
479,47871
480,56001
481,64563
482,55197
483,45203
484,55866
485,51440
486,49501
487,55107
488,49450
489,48746
490,49178
491,52690
492,54405
493,54200
494,49876
495,54779
496,61772
497,52028
498,50947
499,54571
500,50351
501,50075
502,51411
503,52770
504,49333
505,50810
506,52588
507,55871
508,49080
509,53381
510,55546
511,61664
512,53379
513,51505
514,54446
515,51812
516,55508
517,54023
518,52168
519,53528
520,55520
521,50019
522,54225
523,55339
524,50156
525,53763
526,62025
527,58731
528,45279
529,54384
530,52463
531,53632
532,54601
533,49451
534,55175
535,53427
536,48450
537,54313
538,54509
539,49927
540,54205
541,61725
542,57195
543,44114
544,52596
545,50236
546,53007
547,52719
548,50809
549,53607
550,53476
551,48353
552,54908
553,53097
554,48927
555,54399
556,66831
557,55621
558,43682
559,53710
560,49085
561,51940
562,53967
563,51157
564,52635
565,52187
566,52899
567,54569
568,52871
569,48849
570,53822
571,65962
572,54231
573,43479
574,51398
575,48015
576,52735
577,53392
578,48059
579,52551
580,53439
581,48607
582,52223
583,52434
584,49748
585,53278
586,65431
587,56011
588,43593
589,52867
590,49235
591,53983
592,52997
593,49680
594,53313
595,53929
596,48231
597,53010
598,54082
599,47599
600,52621
601,139447
602,29958
603,34745
604,45940
605,49214
606,50940
607,51152
608,46847
609,52292
610,51016
611,46162
612,53355
613,53196
614,47819
615,52090
616,66057
617,54614
618,41497
619,50720
620,50047
621,51134
622,51288
623,49970
624,51997
625,50928
626,49604
627,54833
628,52678
629,46770
630,52681
631,64894
632,52472
633,40541
634,52968
635,48797
636,53619
637,56742
638,52703
639,55579
640,51989
641,49951
642,54418
643,52056
644,46721
645,53180
646,64206
647,54604
648,43966
649,51669
650,48460
651,51257
652,53795
653,48412
654,54378
655,55198
656,52752
657,54446
658,55468
659,51126
660,56137
661,66111
662,55941
663,46680
664,50758
665,47816
666,52521
667,52153
668,47404
669,51397
670,52164
671,49304
672,55374
673,56177
674,51787
675,56898
676,68399
677,59725
678,47005
679,51864
680,49846
681,54131
682,52649
683,47876
684,53407
685,52416
686,53439
687,56386
688,57820
689,52031
690,51868
691,65467
692,55035
693,45758
694,50503
695,49045
696,51255
697,52081
698,48816
699,53134
700,51297
701,48019
702,55354
703,52474
704,50994
705,52325
706,66340
707,53416
708,40557
709,50957
710,49587
711,51270
712,51576
713,50378
714,50854
715,50942
716,49105
717,51233
718,51096
719,46652
720,53176
721,63864
722,53484
723,41893
724,50813
725,48114
726,50027
727,54049
728,52034
729,47866
730,53006
731,48138
732,52388
733,52793
734,51720
735,50569
736,65064
737,55401
738,43001
739,48827
740,49494
741,52482
742,51832
743,46759
744,50685
745,53678
746,47541
747,51342
748,51874
749,47572
750,51777
751,65413
752,57031
753,44571
754,52297
755,47792
756,52423
757,51571
758,47971
759,52035
760,52700
761,47362
762,51812
763,53577
764,48491
765,50989
766,65724
767,54555
768,43660
769,51145
770,51229
771,52288
772,54003
773,50145
774,53510
775,52076
776,48025
777,53663
778,51807
779,46865
780,52524
781,65296
782,52706
783,40569
784,51738
785,48189
786,50743
787,53703
788,52170
789,54746
790,53027
791,49152
792,52462
793,52509
794,46887
795,52761
796,64026
797,53249
798,42643
799,51227
800,47595
801,52021
802,52908
803,46416
804,51663
805,51691
806,47660
807,52244
808,51715
809,48415
810,52438
811,64364
812,53029
813,42366
814,49845
815,46754
816,51530
817,52435
818,47068
819,50684
820,52999
821,46187
822,52185
823,51721
824,48218
825,52471
826,64366
827,54782
828,41229
829,49813
830,46689
831,52398
832,51239
833,47025
834,52901
835,51766
836,47070
837,52661
838,53496
839,46784
840,51964
841,66599
842,54448
843,42340
844,51146
845,49362
846,51186
847,50971
848,47570
849,53992
850,51636
851,47354
852,53848
853,51915
854,47236
855,52044
856,66402
857,55191
858,42785
859,52348
860,48943
861,51155
862,51948
863,48315
864,52233
865,52704
866,48069
867,53393
868,52350
869,47006
870,54805
871,66967
872,55731
873,45053
874,53486
875,48390
876,52017
877,54157
878,48817
879,52539
880,52441
881,51075
882,53089
883,53530
884,48909
885,53796
886,66718
887,55082
888,44481
889,51591
890,49651
891,53172
892,53880
893,47387
894,52664
895,54033
896,48878
897,52728
898,53058
899,49942
900,52635
901,142625
902,30903
903,36078
904,47788
905,43261
906,53464
907,51916
908,47260
909,51848
910,53062
911,47077
912,51809
913,53287
914,47317
915,51371
916,66228
917,56105
918,43342
919,50516
920,50516
921,51859
922,52293
923,48317
924,54429
925,53222
926,49257
927,54379
928,54205
929,49037
930,53466
931,68784
932,55681
933,44687
934,52869
935,50360
936,52517
937,53067
938,50279
939,52732
940,52438
941,48858
942,54608
943,53305
944,48796
945,56114
946,62700
947,58303
948,47260
949,54363
950,52870
951,52625
952,53657
953,53062
954,54193
955,52890
956,55507
957,53322
958,52609
959,52994
960,54656
961,67050
962,58314
963,47014
964,52864
965,52091
966,52671
967,55134
968,51912
969,52258
970,56098
971,49409
972,53003
973,54528
974,53612
975,51428
976,62758
977,58770
978,45994
979,54342
980,51670
981,53349
982,54993
983,48848
984,53664
985,55422
986,52195
987,51945
988,56258
989,49183
990,53347
991,62143
992,59906
993,45876
994,54147
995,50870
996,53566
997,54385
998,50901
999,54354
1000,54921
1001,51818
1002,55471
1003,56534
1004,52225
1005,52963
1006,64357
1007,53047
1008,47649
1009,54395
1010,53135
1011,52951
1012,53761
1013,50660
1014,54983
1015,51833
1016,52695
1017,59643
1018,55513
1019,50395
1020,56068
1021,62527
1022,53957
1023,52796
1024,57338
1025,52509
1026,53788
1027,56734
1028,51514
1029,54291
1030,55023
1031,51391
1032,55220
1033,53290
1034,51601
1035,54648
1036,63505
1037,52438
1038,48739
1039,54743
1040,49983
1041,54108
1042,56063
1043,49552
1044,53886
1045,56168
1046,50555
1047,54730
1048,54804
1049,52199
1050,55895
