1,62449
2,23245
3,25397
4,31646
5,33168
6,35084
7,32441
8,31377
9,32400
10,32590
11,33824
12,32774
13,34110
14,34233
15,35606
16,33102
17,32669
18,35902
19,33783
20,33715
21,33221
22,32925
23,31257
24,32249
25,34289
26,35773
27,35232
28,38781
29,38722
30,34783
31,36784
32,34621
33,33193
34,32393
35,31591
36,34037
37,34917
38,31382
39,35928
40,32865
41,33535
42,34609
43,33399
44,34245
45,35892
46,37485
47,35546
48,38617
49,37966
50,36336
51,88521
52,25150
53,29233
54,35187
55,37654
56,35937
57,33473
58,35967
59,39436
60,35740
61,35911
62,34211
63,36077
64,37213
65,33244
66,34763
67,32011
68,32141
69,34746
70,33578
71,34938
72,32963
73,33027
74,35587
75,33065
76,36006
77,35810
78,32595
79,35056
80,33176
81,33908
82,35336
83,32138
84,33663
85,33016
86,34023
87,31614
88,32149
89,33860
90,37132
91,36530
92,33596
93,32955
94,34746
95,34179
96,35857
97,32323
98,32182
99,33212
100,33400
101,85505
102,22260
103,29574
104,31696
105,32887
106,36593
107,36470
108,39004
109,35357
110,34906
111,44081
112,34725
113,36941
114,45041
115,34615
116,42495
117,36144
118,38411
119,33057
120,30711
121,33975
122,30700
123,33117
124,32758
125,31487
126,33173
127,33730
128,30907
129,34628
130,37616
131,35870
132,31803
133,37674
134,33101
135,33133
136,34863
137,29683
138,31291
139,31403
140,31870
141,33972
142,32002
143,31949
144,33323
145,32488
146,34866
147,33800
148,34068
149,34459
150,33276
151,92731
152,24573
153,30876
154,31245
155,35775
156,37142
157,34350
158,34442
159,36941
160,34388
161,36445
162,34372
163,34102
164,36078
165,34929
166,37185
167,35766
168,36996
169,34834
170,34750
171,36156
172,39774
173,37462
174,36723
175,33138
