1,136771
2,117279
3,131618
4,141351
5,140782
6,143425
7,143185
8,142429
9,141856
10,139662
11,140698
12,152894
13,141882
14,143675
15,143971
16,147225
17,135594
18,138484
19,139613
20,143931
21,205069
22,122721
23,125514
24,142813
25,138833
26,142608
27,137904
28,134957
29,136300
30,136537
31,138507
32,135847
33,134483
34,138163
35,135831
36,135952
37,147796
38,141740
39,142117
40,140619
41,200394
42,116584
43,131692
44,149126
45,150760
46,152114
47,142219
48,148783
49,139302
50,139786
51,139848
52,140371
53,148359
54,147023
55,140514
56,139082
57,142551
58,139701
59,139350
60,141984
61,210827
62,117823
63,135314
64,142120
65,142957
66,142476
67,143506
68,147459
69,152745
70,145065
