1,212052
2,199909
3,202779
4,198984
5,202205
6,217668
7,189949
8,200937
9,200915
10,200858
11,216224
12,199889
13,202937
14,200630
15,201287
16,216521
17,194004
18,199061
19,200835
20,199447
21,216555
22,197557
23,199226
24,198056
25,205012
26,215818
27,193869
28,204593
29,201057
30,202253
31,214127
32,195329
33,199739
34,198783
35,200844
36,214266
37,197627
38,201213
39,197987
40,197703
41,215436
42,192869
43,200785
44,197477
45,198549
46,211619
47,191431
48,198522
49,198987
50,201338
51,214047
52,192874
53,203629
54,207429
55,204219
56,216322
57,195599
58,199542
59,198369
60,199936
61,215501
62,194667
63,199004
64,201957
65,200241
66,217616
67,197697
68,199941
69,200350
70,201221
71,216636
72,195550
73,199189
74,199884
75,200082
76,213517
77,193844
78,202363
79,202074
80,201948
81,216689
82,197563
83,193476
84,201008
85,200443
86,214166
87,198610
88,204286
89,198088
90,202460
91,219352
92,198794
93,200083
94,203046
95,202885
96,223949
97,199370
98,201484
99,201778
100,203281
101,214537
102,200403
103,200706
104,200609
105,202582
106,221525
107,195668
108,202480
109,202940
110,199243
111,220291
112,195388
113,200894
114,202015
115,204907
116,220136
117,202477
118,203287
119,200601
120,201451
121,220197
122,198141
123,200449
124,199743
125,201188
126,221536
127,197305
128,205483
129,200650
130,202606
131,217371
132,202456
133,199261
134,203506
135,200650
136,218571
137,196387
138,203316
139,207187
140,203022
141,217856
142,198146
143,206865
144,202868
145,205864
146,217179
147,202904
148,201581
149,202840
150,205554
151,218709
152,197460
153,202245
154,199991
155,207985
156,216914
157,194428
158,199849
159,200963
160,209098
161,217692
162,198824
163,204198
164,201082
165,200856
166,221726
167,206769
168,204903
169,205783
170,201828
171,219504
172,198277
173,207670
174,206280
175,203028
176,221235
177,200103
178,207011
179,202190
180,204610
181,218623
182,191030
183,202330
184,204193
185,200828
186,216056
187,193846
188,200423
189,200494
190,209289
191,222360
192,193298
193,203780
194,205041
195,201317
196,221014
197,199890
198,202673
199,210473
200,202882
201,208493
202,194186
203,202358
204,200880
205,205084
206,216401
207,195624
208,201120
209,201930
210,201504
211,215555
212,190283
213,206811
214,205749
215,207171
216,214612
217,198382
218,201662
219,206815
220,209312
221,216862
222,198688
223,202989
224,196622
225,209712
226,220141
227,197792
228,207345
229,200332
230,204328
231,214973
232,194705
233,203520
234,201279
235,203389
236,215735
237,188651
238,200449
239,202022
240,198905
241,210872
242,189994
243,195913
244,199014
245,199098
246,211731
247,194032
248,196496
249,199664
250,196734
251,212761
252,198004
253,199109
254,201289
255,201423
256,214682
257,194943
258,203469
259,203283
260,202495
261,214570
262,191752
263,201315
264,205798
265,204000
266,214352
267,190807
268,203071
269,199666
270,202655
271,216345
272,189538
273,202079
274,199661
275,199088
276,214349
277,191625
278,199071
279,200904
280,201094
281,215756
282,191909
283,198954
284,200697
285,201326
286,215508
287,194350
288,199812
289,200909
290,200689
291,217854
292,198424
293,201744
294,201346
295,201565
296,218494
297,194541
298,200055
299,201240
300,201445
301,212910
302,196220
303,201132
304,201003
305,200348
306,216601
307,194370
308,199576
309,201895
310,205947
311,220108
312,195880
313,202024
314,199439
315,202741
316,222468
317,199205
318,198278
319,200113
320,202830
321,218109
322,196548
323,199193
324,198391
325,199398
326,219570
327,195059
328,200641
329,200244
330,201258
331,221532
332,200948
333,203753
334,201482
335,203523
336,222560
337,199221
338,200859
339,204742
340,207716
341,221465
342,204489
343,204146
344,201406
345,200244
346,220150
347,200818
348,203631
349,204125
350,203078
