1,103746
2,60920
3,63995
4,72811
5,69741
6,68902
7,72222
8,71048
9,73893
10,72579
11,73589
12,72252
13,68918
14,68723
15,73805
16,73184
17,86228
18,85400
19,74558
20,70525
21,78497
22,77384
23,75917
24,77777
25,79928
26,67014
27,77879
28,74741
29,73182
30,76515
31,171769
32,63074
33,69120
34,75189
35,70598
36,81704
37,73055
38,69901
39,77659
40,80241
41,73920
42,80417
43,78916
44,66476
45,68276
46,71874
47,76218
48,76511
49,71834
50,69357
51,77433
52,77360
53,72842
54,78054
55,73980
56,69690
57,71646
58,69208
59,67342
60,69421
61,165843
62,56427
63,66697
64,76097
65,82865
66,74967
67,83883
68,69809
69,76865
70,86531
71,75884
72,77508
73,73126
74,67327
75,68726
76,72145
77,71820
78,74392
79,81205
80,77264
81,71374
82,73688
83,65150
84,88271
85,69395
86,86148
87,87010
88,70176
89,68412
90,71718
91,170210
92,53631
93,65690
94,76323
95,72232
96,76314
97,74725
98,70476
99,75203
100,76020
101,73131
102,81898
103,85146
104,90227
105,75585
