1,46749
2,3516
3,7101
4,6294
5,8455
6,7896
7,7417
8,7519
9,7149
10,7373
11,7833
12,7299
13,7662
14,7513
15,9559
16,7261
17,7257
18,7646
19,8884
20,8118
21,7603
22,7492
23,7943
24,7952
25,8028
26,7474
27,7108
28,8225
29,8525
30,8333
31,7924
32,7477
33,7819
34,8283
35,10524
36,7775
37,7251
38,7940
39,7937
40,7630
41,7691
42,7536
43,7842
44,7400
45,7237
46,7241
47,7475
48,7826
49,8583
50,8749
51,8120
52,6863
53,7674
54,13536
55,12687
56,10153
57,9008
58,8775
59,8968
60,8429
61,8915
62,8476
63,8478
64,8202
65,8384
66,9207
67,9237
68,10354
69,9546
70,9647
71,9917
72,9957
73,10253
74,9804
75,8913
76,9818
77,10337
78,10569
79,8983
80,10654
81,9392
82,9129
83,9847
84,9836
85,9517
86,10521
87,10000
88,9910
89,8875
90,11335
91,11583
92,10981
93,11414
94,12281
95,13767
96,12728
97,12147
98,11995
99,11913
100,10835
101,61046
102,5722
103,7286
104,9301
105,8953
106,10680
107,10127
108,11172
109,13287
110,10362
111,10627
112,10310
113,10402
114,10348
115,12582
116,14974
117,12215
118,11853
119,11446
120,11230
121,10789
122,10411
123,10937
124,11470
125,13042
126,13504
127,11759
128,10760
129,10597
130,10109
131,10251
132,9459
133,9138
134,9836
135,9643
136,10905
137,10168
138,10584
139,10227
140,10597
141,10951
142,10379
143,9742
144,10312
145,9382
146,10378
147,9671
148,9726
149,10133
150,10460
151,9656
152,9140
153,10091
154,9060
155,9709
156,9426
157,9439
158,10432
159,9412
160,9621
161,9352
162,10593
163,9640
164,11348
165,9451
166,10114
167,9930
168,10324
169,9963
170,9493
171,10320
172,9635
173,9379
174,9550
175,9526
176,9440
177,9066
178,9388
179,8804
180,8961
181,9026
182,8268
183,8252
184,8369
185,8308
186,8641
187,8518
188,8434
189,8666
190,8633
191,7950
192,7597
193,7774
194,7713
195,7717
196,7800
197,7953
198,8329
199,8150
200,7644
201,57866
202,4008
203,5727
204,7203
205,7352
206,7906
207,7129
208,7953
209,7324
210,8104
211,7631
212,9038
213,7737
214,11838
215,8753
216,7940
217,8240
218,7778
219,7907
220,10774
221,12583
222,10801
223,7276
224,7215
225,9271
226,13533
227,12082
228,10753
229,7154
230,10464
231,10798
232,10134
233,7403
234,8995
235,10283
236,8563
237,7096
238,9258
239,8530
240,8738
241,6735
242,8022
243,7808
244,7763
245,6733
246,7362
247,6945
248,6603
249,7102
250,8207
251,6783
252,7581
253,8159
254,7438
255,7302
256,8153
257,8679
258,11509
259,11310
260,9113
261,9607
262,10480
263,6586
264,10164
265,9434
266,8130
267,7127
268,7973
269,10926
270,7197
271,8014
272,9321
273,8326
274,8175
275,7555
276,6880
277,8391
278,8143
279,7142
280,7064
281,7555
282,9338
283,8536
284,8961
285,8591
286,7022
287,8661
288,7991
289,8938
290,7117
291,7418
292,7848
293,7556
294,7270
295,8252
296,8136
297,8144
298,8129
299,7930
300,7853
301,60282
302,4469
303,6477
304,7691
305,7518
306,7398
307,7936
308,8077
309,8721
310,8469
311,7903
312,8076
313,8334
314,8585
315,8307
316,9177
317,8938
318,9259
319,8717
320,8634
321,8797
322,8690
323,8671
324,8463
325,8190
326,9040
327,8904
328,9099
329,9167
330,9216
331,8872
332,8744
333,9394
334,9248
335,9695
336,10243
337,9648
338,9218
339,11541
340,13106
341,9958
342,12968
343,13333
344,12437
345,12114
346,13164
347,10094
348,10079
349,9565
350,9376
