1,224912
2,175469
3,201027
4,232026
5,226383
6,226908
7,230572
8,224138
9,233464
10,229960
11,224281
12,233530
13,228181
14,220425
15,232724
16,232501
17,246294
18,245868
19,233620
20,225941
21,238374
22,238997
23,230682
24,238180
25,241620
26,203617
27,239281
28,219428
29,210159
30,218013
31,337007
32,180791
33,205859
34,215936
35,207121
36,224681
37,215800
38,205619
39,219012
40,241672
41,226395
42,239784
43,240569
44,201606
45,210991
46,214201
47,232943
48,216980
49,215769
50,206285
51,240101
52,241200
53,226797
54,240328
55,235669
56,221165
57,230358
58,229124
59,220997
60,228288
61,327845
62,182529
63,206189
64,235119
65,239282
66,232007
67,247209
68,220724
69,243243
70,248444
71,230318
72,235284
73,230737
74,219135
75,224936
76,231795
77,226698
78,234557
79,239885
80,233482
81,227273
82,232882
83,218113
84,247882
85,228893
86,240102
87,248521
88,232172
89,225038
90,235066
91,333865
92,168614
93,201765
94,242028
95,225067
96,235096
97,239308
98,225109
99,235524
100,237423
101,226918
102,241714
103,247837
104,245441
105,216535
