1,374971
2,380719
3,377909
4,391433
5,382031
6,394378
7,379893
8,380823
9,392294
10,379617
11,393063
12,371944
13,378453
14,387756
15,378799
16,387552
17,373895
18,375952
19,384134
20,373847
21,389296
22,370947
23,373630
24,384043
25,373784
26,388572
27,378814
28,391610
29,388809
30,378984
31,388226
32,371404
33,381761
34,388394
35,374579
36,391778
37,371050
38,373774
39,386060
40,378796
41,389689
42,368100
43,375332
44,390722
45,376543
46,395914
47,378125
48,385275
49,398074
50,380407
51,378708
52,379146
53,377788
54,393047
55,387258
56,398773
57,375868
58,386365
59,398657
60,382221
61,397468
62,374227
63,380535
64,398340
65,380556
66,396585
67,379413
68,379212
69,398265
70,379030
71,393425
72,383668
73,385932
74,393503
75,379304
76,395130
77,371917
78,379908
79,388090
80,376016
81,393494
82,378055
83,380811
84,395423
85,390889
86,394938
87,382263
88,389535
89,396378
90,387311
91,391996
92,377102
93,376948
94,387563
95,378557
96,390446
97,375939
98,379775
99,391938
100,386836
101,369822
102,378973
103,383369
104,389366
105,386070
106,381772
107,377799
108,381143
109,388392
110,386063
111,392804
112,372536
113,380824
114,395914
115,387184
116,386928
117,384666
118,377945
119,388830
120,378828
121,379285
122,362249
123,372759
124,389426
125,372509
126,387118
127,375872
128,378864
129,393737
130,381434
131,393793
132,376466
133,387716
134,389974
135,382850
136,393131
137,372221
138,378919
139,393286
140,379969
141,396618
142,372389
143,378966
144,394437
145,381010
146,400265
147,384412
148,383653
149,400951
150,384344
151,375313
152,378220
153,384847
154,393633
155,381247
156,405791
157,384826
158,387865
159,403345
160,382733
161,403601
162,379260
163,380308
164,399267
165,382203
166,404350
167,385822
168,387656
169,402636
170,387147
171,404865
172,389007
173,385748
174,395903
175,387285
