1,374971
2,398585
3,391142
4,388476
5,391407
6,386690
7,392036
8,389381
9,387953
10,396696
11,378708
12,394648
13,399206
14,392581
15,389373
16,386593
17,384609
18,392343
19,393925
20,387317
21,369822
22,392454
23,385329
24,385901
25,385323
26,379222
27,392633
28,391603
29,394676
30,391390
31,375313
32,399549
33,397250
34,399852
35,404357
