1,190.95
2,170.37
3,167.97
4,169.79
5,168.44
6,171.56
7,166.21
8,169.34
9,168.16
10,169.18
11,167.82
12,169.52
13,169.28
14,170.26
15,165.63
16,167.15
17,170.2
18,168.6
19,167.47
20,166.81
21,168.37
22,166.96
23,166.68
24,166.73
25,167.95
26,168.41
27,167.23
28,164.97
29,167.86
30,168.81
31,168.65
32,166.75
33,167.49
34,168.52
35,168.55
