1,107.98
2,88.99
3,90.3
4,88.01
5,88.94
6,90.49
7,91.08
8,90.05
9,88.81
10,88.87
11,89.94
12,90.06
13,89.3
14,90.28
15,89.53
16,89.47
17,90.73
18,90.28
19,89.05
20,89.5
21,89.3
22,88.4
23,89.24
24,88.69
25,88.43
26,87.64
27,90.89
28,87.96
29,90.49
30,89.99
31,89.54
32,88.94
33,89.38
34,89.05
35,88.75
36,88.63
37,89.6
38,89.6
39,90.88
40,90.27
41,89.98
42,90.15
43,88.45
44,88.68
45,89.38
46,89.26
47,88.22
48,89.6
49,89.55
50,90.67
51,89.44
52,90.32
53,90.61
54,89.95
55,88.42
56,90.57
57,89.7
58,88.87
59,88.76
60,89.87
61,89.02
62,88.11
63,91.11
64,88.3
65,86.51
66,89.34
67,88.61
68,89.8
69,88.4
70,89.13
71,88.28
72,89.02
73,87.18
74,90.93
75,88.35
76,88.62
77,86.96
78,88.15
79,88.65
80,88.69
81,89.43
82,89.43
83,89.04
84,89.55
85,90.52
86,88.27
87,87.39
88,89.75
89,89.93
90,88.56
91,89.44
92,90.36
93,91.54
94,90.39
95,90.35
96,89.81
97,90.88
98,90.03
99,88.85
100,88.26
101,88.99
102,90.96
103,89.4
104,90.78
105,89.71
106,89.0
107,89.03
108,89.31
109,90.07
110,90.2
111,88.38
112,89.48
113,89.52
114,91.44
115,89.85
116,90.2
117,89.57
118,88.46
119,90.17
120,88.79
121,89.27
122,87.63
123,90.2
124,88.3
125,88.8
126,88.5
127,87.8
128,89.38
129,89.81
130,88.31
131,88.84
132,88.06
133,88.01
134,89.71
135,90.09
136,88.68
137,88.6
138,87.38
139,88.26
140,89.89
141,88.49
142,89.93
143,88.43
144,89.18
145,89.27
146,90.91
147,90.51
148,88.73
149,88.54
150,90.42
151,88.49
152,89.13
153,89.71
154,88.97
155,90.92
156,90.24
157,93.39
158,90.63
159,89.09
160,89.13
161,89.14
162,89.54
163,88.07
164,88.67
165,86.65
166,88.66
167,91.98
168,89.69
169,89.91
170,88.83
171,89.6
172,88.97
173,88.64
174,88.04
175,88.46
