1,147.4
2,129.17
3,132.0
4,130.05
5,127.15
6,128.14
7,128.26
8,129.51
9,127.53
10,129.39
11,129.52
12,128.3
13,129.55
14,128.85
15,130.71
16,130.33
17,127.56
18,128.47
19,130.68
20,131.3
21,129.3
22,130.74
23,128.81
24,130.08
25,130.14
26,127.59
27,128.61
28,128.8
29,129.98
30,130.48
31,130.57
32,129.49
33,128.57
34,129.89
35,127.81
36,127.05
37,130.95
38,128.89
39,127.74
40,131.13
41,128.32
42,129.37
43,130.29
44,131.22
45,127.69
46,128.52
47,130.57
48,132.59
49,131.6
50,128.05
51,127.62
52,127.72
53,129.22
54,128.36
55,130.87
56,128.23
57,130.63
58,128.47
59,129.55
60,128.24
61,129.43
62,128.41
63,126.87
64,128.08
65,127.92
66,126.76
67,129.52
68,130.44
69,129.55
70,129.08
71,129.61
72,129.36
73,125.98
74,128.65
75,130.11
76,129.29
77,130.73
78,128.01
79,128.47
80,130.06
81,129.41
82,128.64
83,130.13
84,128.65
85,129.21
86,130.52
87,130.54
88,129.62
89,129.96
90,131.07
91,129.65
92,130.14
93,130.24
94,129.38
95,126.62
96,128.99
97,128.91
98,128.33
99,128.84
100,130.47
101,129.81
102,129.47
103,129.92
104,127.73
105,131.67
106,126.63
107,127.89
108,130.55
109,129.26
110,130.9
111,128.88
112,131.28
113,128.79
114,130.42
115,129.86
116,127.16
117,129.9
118,130.99
119,129.09
120,131.33
121,126.52
122,128.22
123,131.54
124,129.41
125,129.93
126,129.31
127,128.73
128,128.11
129,129.1
130,129.38
131,128.75
132,127.98
133,129.87
134,128.76
135,129.15
136,129.05
137,127.49
138,131.13
139,128.66
140,127.84
141,131.46
142,131.51
143,129.96
144,130.79
145,129.92
146,129.09
147,130.96
148,130.03
149,129.35
150,130.37
151,130.28
152,129.03
153,129.45
154,129.09
155,130.07
156,130.27
157,130.28
158,130.32
159,130.15
160,131.39
161,130.46
162,128.14
163,130.73
164,131.47
165,129.18
166,129.05
167,132.29
168,126.76
169,127.53
170,126.97
171,127.56
172,128.2
173,128.09
174,128.93
175,129.13
