1,108.09
2,90.62
3,90.65
4,88.85
5,89.96
6,88.47
7,88.83
8,88.47
9,88.04
10,89.97
11,89.28
12,89.97
13,90.83
14,90.58
15,89.93
16,88.7
17,88.57
18,89.98
19,88.97
20,89.42
21,87.92
22,89.66
23,89.9
24,88.8
25,87.64
26,89.2
27,91.05
28,89.89
29,88.67
30,88.18
31,88.8
32,89.64
33,90.64
34,89.53
35,90.26
36,89.88
37,91.33
38,88.07
39,88.75
40,89.09
41,88.85
42,89.47
43,90.34
44,90.4
45,90.56
46,90.55
47,90.13
48,91.41
49,89.89
50,88.99
51,90.05
52,89.6
53,89.92
54,89.67
55,88.81
56,90.35
57,90.72
58,88.68
59,88.88
60,90.17
61,88.34
62,87.6
63,91.02
64,87.77
65,92.48
66,88.78
67,90.24
68,88.87
69,88.77
70,89.78
71,89.19
72,90.06
73,89.83
74,90.21
75,88.34
76,89.59
77,90.44
78,88.33
79,87.79
80,90.27
81,90.35
82,88.01
83,87.96
84,89.92
85,88.54
86,90.24
87,91.25
88,89.04
89,89.84
90,89.22
91,89.47
92,89.02
93,89.28
94,88.73
95,89.94
96,88.42
97,90.5
98,90.6
99,90.53
100,89.22
101,91.28
102,89.14
103,88.46
104,90.29
105,88.98
106,91.27
107,91.16
108,87.35
109,90.52
110,87.3
111,88.66
112,91.28
113,89.2
114,89.14
115,89.2
116,89.56
117,90.98
118,91.11
119,91.31
120,90.74
121,90.35
122,89.9
123,90.07
124,90.03
125,89.58
126,89.13
127,89.79
128,90.51
129,91.31
130,90.11
131,90.44
132,90.59
133,90.62
134,90.48
135,90.49
136,89.9
137,89.87
138,90.42
139,90.26
140,89.01
141,91.15
142,90.03
143,89.47
144,90.19
145,88.57
146,88.86
147,87.75
148,87.7
149,88.77
150,90.09
151,90.84
152,90.14
153,87.77
154,89.52
155,88.64
156,88.92
157,88.05
158,89.32
159,89.09
160,90.69
161,91.37
162,90.58
163,88.09
164,88.1
165,88.34
166,89.68
167,90.6
168,88.47
169,88.42
170,90.7
171,90.41
172,91.51
173,89.26
174,90.2
175,89.99
176,89.02
177,90.12
178,89.34
179,91.11
180,89.45
181,90.93
182,89.65
183,90.57
184,88.8
185,89.81
186,89.41
187,90.0
188,89.87
189,89.95
190,88.62
191,88.88
192,88.02
193,89.82
194,88.33
195,89.79
196,88.71
197,90.01
198,89.77
199,90.48
200,89.22
201,89.74
202,89.9
203,89.12
204,91.86
205,90.35
206,89.53
207,89.5
208,90.5
209,88.38
210,88.62
211,88.86
212,88.21
213,89.99
214,89.0
215,90.27
216,89.47
217,90.05
218,89.27
219,89.85
220,88.59
221,88.42
222,88.18
223,88.5
224,88.84
225,88.67
226,90.05
227,89.45
228,88.53
229,86.81
230,87.25
231,88.21
232,88.14
233,87.05
234,88.19
235,87.51
236,90.14
237,90.85
238,90.52
239,89.17
240,89.89
241,89.91
242,92.2
243,89.89
244,91.0
245,89.65
246,88.9
247,91.06
248,89.26
249,89.61
250,89.25
251,88.35
252,88.42
253,88.74
254,88.07
255,88.54
256,89.09
257,89.61
258,90.36
259,89.83
260,91.02
261,89.69
262,89.46
263,90.11
264,90.31
265,88.48
266,90.11
267,87.76
268,89.24
269,89.4
270,88.65
271,89.0
272,87.36
273,88.28
274,87.71
275,86.46
276,86.52
277,87.69
278,87.61
279,89.52
280,89.24
281,89.26
282,87.59
283,87.7
284,87.52
285,87.71
286,87.56
287,88.25
288,87.37
289,91.41
290,88.41
291,90.33
292,90.39
293,89.24
294,87.44
295,89.09
296,89.6
297,90.06
298,89.65
299,88.61
300,90.75
301,88.63
302,90.42
303,87.68
304,89.75
305,89.35
306,88.17
307,87.01
308,86.33
309,89.18
310,89.02
311,88.2
312,86.52
313,89.73
314,88.09
315,88.07
316,88.34
317,86.15
318,86.89
319,87.98
320,87.67
321,88.45
322,89.75
323,89.46
324,90.26
325,88.66
326,88.91
327,89.61
328,89.46
329,88.63
330,89.3
331,89.9
332,90.9
333,90.3
334,92.09
335,91.37
336,91.06
337,90.26
338,90.17
339,91.52
340,90.07
341,88.55
342,88.75
343,91.47
344,90.7
345,90.66
346,89.41
347,89.81
348,89.5
349,88.86
350,89.53
