1,187.78
2,172.67
3,171.95
4,171.33
5,171.06
6,171.1
7,171.8
8,173.86
9,171.5
10,171.84
11,170.97
12,170.86
13,168.47
14,170.15
15,171.07
16,172.0
17,171.4
18,171.99
19,169.73
20,168.8
21,170.5
22,169.57
23,171.3
24,170.19
25,170.37
26,170.95
27,170.05
28,170.3
29,171.22
30,169.69
31,170.69
32,169.02
33,168.15
34,168.8
35,173.35
36,169.64
37,169.27
38,171.21
39,170.01
40,172.86
41,172.25
42,171.98
43,172.14
44,173.58
45,171.95
46,170.83
47,168.84
48,172.18
49,171.53
50,169.6
51,170.99
52,169.09
53,167.5
54,171.08
55,170.86
56,172.76
57,171.4
58,170.67
59,171.31
60,171.92
61,169.82
62,172.7
63,171.55
64,169.41
65,172.68
66,170.25
67,171.51
68,172.46
69,171.69
70,172.25
71,171.84
72,173.53
73,169.09
74,170.63
75,168.23
76,169.66
77,169.38
78,170.4
79,171.05
80,170.39
81,171.87
82,170.48
83,172.87
84,172.16
85,171.05
86,171.46
87,171.11
88,170.7
89,172.12
90,170.37
91,171.39
92,172.23
93,171.31
94,170.34
95,171.15
96,169.68
97,169.54
98,170.5
99,170.62
100,171.21
101,170.47
102,171.48
103,170.68
104,171.66
105,171.02
106,172.26
107,170.66
108,170.22
109,171.52
110,169.89
111,169.74
112,168.65
113,170.11
114,170.02
115,171.26
116,173.41
117,169.96
118,170.06
119,171.08
120,170.57
121,170.74
122,171.65
123,170.65
124,169.19
125,172.02
126,166.23
127,172.36
128,172.35
129,170.96
130,169.54
131,173.03
132,170.78
133,168.53
134,171.65
135,171.02
136,168.17
137,169.27
138,166.61
139,166.63
140,168.85
141,165.26
142,166.56
143,169.81
144,168.61
145,169.55
146,169.3
147,168.54
148,169.97
149,170.7
150,168.83
151,169.2
152,167.24
153,169.51
154,170.33
155,168.4
156,171.6
157,169.28
158,170.5
159,170.28
160,167.31
161,171.13
162,167.15
163,165.06
164,165.41
165,169.25
166,169.32
167,168.15
168,170.17
169,168.53
170,168.79
171,169.94
172,170.05
173,170.43
174,170.79
175,169.8
176,169.11
177,169.67
178,170.97
179,171.39
180,170.12
181,168.37
182,167.94
183,168.39
184,170.68
185,169.7
186,168.22
187,171.34
188,169.97
189,167.68
190,167.69
191,169.88
192,168.71
193,170.72
194,170.34
195,167.64
196,173.48
197,172.01
198,172.28
199,171.99
200,171.59
201,171.7
202,170.55
203,170.18
204,169.26
205,169.15
206,169.95
207,169.57
208,168.07
209,168.23
210,168.32
211,170.01
212,169.53
213,170.5
214,168.84
215,169.39
216,172.71
217,170.33
218,169.67
219,168.74
220,167.39
221,169.93
222,169.11
223,169.13
224,170.42
225,171.69
226,171.48
227,171.38
228,169.97
229,169.31
230,168.82
231,169.0
232,169.09
233,168.48
234,169.63
235,169.86
236,172.48
237,170.47
238,168.59
239,169.12
240,169.69
241,170.46
242,170.14
243,170.19
244,169.18
245,167.57
246,168.4
247,168.92
248,170.15
249,169.87
250,169.0
251,171.72
252,172.52
253,173.13
254,173.03
255,168.04
256,170.65
257,170.52
258,169.86
259,169.49
260,170.3
261,169.77
262,167.97
263,171.41
264,168.32
265,170.16
266,169.5
267,167.74
268,170.44
269,169.08
270,169.06
271,169.91
272,169.58
273,169.13
274,170.64
275,169.49
276,169.68
277,170.49
278,170.09
279,171.27
280,169.81
281,169.84
282,169.34
283,170.69
284,169.44
285,169.09
286,168.6
287,171.17
288,168.05
289,169.15
290,168.94
291,170.69
292,168.58
293,168.98
294,170.41
295,169.69
296,171.38
297,171.18
298,168.47
299,169.06
300,171.87
301,169.09
302,168.77
303,171.84
304,169.03
305,166.93
306,168.0
307,168.05
308,170.53
309,171.29
310,170.78
311,168.68
312,168.57
313,170.97
314,171.03
315,170.13
316,169.92
317,170.23
318,168.07
319,170.54
320,168.23
321,169.44
322,168.73
323,172.09
324,171.87
325,170.29
326,169.15
327,169.77
328,168.65
329,168.99
330,171.07
331,169.73
332,167.67
333,168.51
334,167.87
335,169.35
336,168.9
337,167.59
338,166.63
339,169.64
340,169.9
341,167.55
342,169.24
343,167.52
344,172.74
345,170.13
346,170.87
347,169.12
348,170.49
349,167.59
350,169.04
351,168.55
352,167.67
353,166.76
354,168.27
355,170.05
356,169.53
357,169.57
358,169.01
359,167.92
360,169.19
361,170.27
362,169.84
363,169.28
364,168.16
365,168.44
366,167.84
367,169.27
368,168.71
369,170.6
370,168.02
371,168.93
372,168.31
373,168.3
374,169.46
375,170.49
376,169.69
377,168.49
378,171.07
379,169.93
380,170.51
381,168.23
382,170.68
383,172.18
384,168.74
385,169.37
386,167.02
387,170.72
388,167.39
389,169.28
390,170.35
391,168.29
392,169.7
393,169.31
394,168.44
395,168.74
396,169.68
397,169.62
398,170.14
399,168.7
400,169.3
401,167.97
402,171.16
403,169.58
404,169.71
405,167.93
406,169.36
407,170.28
408,168.62
409,167.48
410,170.0
411,169.52
412,169.0
413,170.53
414,171.17
415,167.79
416,169.39
417,167.82
418,168.72
419,168.57
420,167.64
421,167.54
422,168.96
423,167.51
424,168.46
425,170.14
426,170.06
427,170.05
428,168.57
429,167.43
430,168.94
431,170.1
432,168.65
433,167.69
434,169.93
435,169.82
436,167.89
437,169.13
438,170.91
439,168.79
440,168.46
441,168.21
442,170.17
443,168.69
444,170.4
445,169.28
446,170.13
447,167.93
448,169.87
449,169.4
450,168.64
451,168.27
452,169.25
453,169.42
454,168.85
455,172.3
456,167.88
457,169.03
458,170.26
459,170.26
460,170.02
461,171.12
462,168.52
463,170.38
464,169.51
465,168.94
466,169.15
467,169.47
468,169.04
469,168.99
470,169.13
471,168.59
472,168.92
473,168.5
474,168.77
475,168.75
476,169.03
477,169.83
478,169.76
479,168.47
480,168.31
481,168.71
482,170.27
483,169.77
484,168.66
485,168.81
486,168.81
487,167.61
488,169.7
489,168.73
490,169.13
491,168.56
492,171.1
493,169.98
494,166.38
495,165.77
496,168.8
497,170.46
498,168.69
499,169.01
500,171.22
501,168.91
502,168.44
503,168.78
504,168.26
505,169.56
506,169.39
507,169.61
508,169.12
509,168.95
510,169.82
511,170.33
512,166.84
513,168.39
514,170.45
515,167.79
516,167.35
517,171.07
518,168.25
519,170.96
520,168.34
521,168.95
522,169.68
523,169.29
524,168.92
525,168.69
526,169.78
527,167.26
528,167.45
529,169.3
530,167.9
531,171.16
532,170.08
533,165.08
534,168.61
535,168.47
536,169.29
537,168.22
538,168.79
539,166.81
540,166.26
541,167.43
542,167.52
543,167.41
544,168.25
545,168.0
546,169.54
547,168.62
548,168.19
549,170.02
550,167.02
551,170.46
552,168.82
553,167.27
554,170.13
555,170.4
556,167.72
557,169.2
558,169.67
559,170.29
560,170.72
561,169.45
562,168.93
563,169.87
564,169.59
565,169.08
566,168.15
567,169.15
568,168.05
569,169.58
570,169.14
571,169.26
572,169.13
573,169.1
574,168.53
575,168.55
576,170.64
577,168.37
578,170.68
579,168.3
580,170.57
581,169.14
582,168.4
583,169.53
584,170.34
585,169.03
586,169.41
587,170.82
588,169.97
589,168.68
590,168.67
591,168.2
592,167.74
593,168.02
594,169.0
595,169.08
596,169.41
597,167.61
598,167.78
599,168.23
600,168.58
601,167.92
602,166.64
603,167.7
604,167.59
605,168.1
606,167.54
607,166.75
608,167.73
609,165.0
610,166.88
611,166.93
612,167.04
613,166.73
614,169.13
615,167.85
616,166.65
617,166.76
618,167.01
619,167.11
620,166.84
621,168.47
622,168.82
623,167.1
624,167.07
625,165.43
626,168.19
627,169.53
628,170.88
629,171.6
630,169.08
631,169.31
632,169.57
633,169.28
634,170.21
635,169.29
636,168.49
637,167.47
638,168.44
639,170.08
640,167.26
641,170.17
642,168.63
643,167.5
644,168.13
645,167.29
646,167.74
647,168.74
648,167.26
649,166.85
650,167.39
651,168.01
652,168.71
653,171.66
654,169.17
655,167.98
656,170.74
657,168.64
658,168.83
659,169.69
660,168.39
661,169.7
662,169.33
663,166.27
664,168.73
665,170.0
666,166.73
667,169.83
668,169.17
669,167.54
670,167.32
671,167.89
672,168.64
673,168.55
674,166.43
675,168.7
676,167.77
677,167.76
678,170.21
679,170.46
680,167.74
681,168.38
682,169.08
683,169.15
684,169.22
685,170.19
686,167.09
687,168.1
688,168.61
689,169.65
690,170.96
691,167.53
692,169.05
693,167.4
694,169.84
695,169.76
696,170.71
697,170.08
698,167.51
699,168.71
700,168.25
701,167.72
702,167.19
703,167.47
704,169.38
705,168.43
706,170.13
707,168.54
708,169.89
709,169.92
710,170.59
711,168.19
712,168.64
713,168.04
714,167.21
715,166.06
716,169.13
717,171.43
718,168.76
719,170.1
720,169.9
721,169.27
722,166.19
723,168.81
724,169.22
725,169.51
726,171.38
727,168.09
728,167.69
729,167.6
730,167.6
731,168.77
732,169.5
733,170.56
734,168.18
735,169.27
736,169.36
737,169.77
738,171.87
739,168.28
740,168.38
741,168.72
742,168.05
743,170.23
744,168.63
745,168.98
746,169.0
747,166.49
748,169.0
749,166.28
750,167.4
751,169.16
752,171.48
753,167.73
754,168.73
755,166.9
756,170.26
757,168.22
758,169.25
759,170.08
760,168.85
761,167.69
762,168.18
763,168.67
764,168.89
765,168.55
766,168.37
767,167.92
768,169.99
769,171.15
770,169.55
771,168.78
772,170.06
773,168.1
774,167.86
775,167.94
776,169.6
777,167.13
778,169.03
779,168.39
780,168.65
781,168.96
782,167.03
783,166.11
784,168.62
785,166.9
786,167.81
787,170.09
788,167.47
789,169.58
790,167.24
791,165.8
792,169.18
793,170.2
794,168.9
795,169.41
796,169.37
797,171.19
798,169.21
799,169.5
800,169.31
801,169.99
802,172.11
803,188.62
804,168.98
805,170.53
806,168.27
807,169.11
808,170.42
809,168.12
810,168.7
811,167.69
812,167.28
813,169.35
814,169.31
815,167.03
816,168.68
817,170.71
818,170.58
819,171.54
820,169.89
821,168.28
822,169.5
823,169.65
824,168.49
825,167.93
826,169.1
827,168.63
828,169.76
829,170.12
830,170.07
831,170.6
832,168.03
833,170.4
834,168.62
835,167.55
836,170.51
837,168.85
838,168.15
839,168.86
840,168.73
841,167.95
842,169.46
843,169.4
844,169.86
845,165.72
846,167.92
847,167.05
848,170.44
849,167.63
850,169.68
851,168.46
852,168.03
853,168.66
854,168.3
855,165.64
856,168.82
857,167.78
858,168.86
859,168.12
860,170.62
861,167.24
862,166.94
863,166.6
864,169.05
865,169.94
866,169.74
867,169.83
868,171.23
869,169.24
870,169.52
871,168.82
872,168.04
873,166.68
874,167.87
875,169.29
876,168.59
877,169.97
878,168.48
879,168.42
880,169.05
881,169.01
882,168.79
883,170.8
884,170.26
885,170.71
886,169.97
887,169.28
888,168.98
889,169.92
890,169.06
891,170.35
892,171.6
893,171.17
894,168.83
895,172.66
896,171.61
897,168.94
898,170.58
899,168.2
900,171.46
901,170.53
902,170.32
903,169.88
904,169.75
905,170.42
906,168.25
907,166.12
908,166.92
909,166.09
910,169.14
911,166.9
912,168.77
913,169.58
914,167.13
915,170.26
916,168.52
917,167.75
918,168.51
919,167.77
920,170.77
921,167.96
922,172.14
923,168.07
924,168.66
925,168.54
926,168.67
927,169.58
928,170.26
929,169.0
930,169.43
931,168.78
932,168.32
933,170.66
934,170.75
935,168.05
936,169.31
937,168.48
938,169.06
939,169.76
940,167.99
941,167.83
942,168.75
943,168.3
944,170.69
945,170.2
946,167.27
947,168.4
948,168.5
949,168.33
950,169.23
951,170.12
952,167.86
953,167.94
954,169.14
955,169.06
956,169.38
957,169.34
958,169.41
959,169.98
960,170.21
961,167.09
962,170.04
963,168.01
964,168.51
965,169.7
966,170.03
967,171.43
968,167.52
969,168.87
970,167.59
971,170.58
972,170.48
973,169.33
974,169.38
975,169.11
976,171.81
977,168.8
978,170.78
979,168.93
980,168.94
981,167.79
982,169.08
983,170.72
984,168.55
985,169.08
986,168.42
987,167.17
988,168.59
989,169.86
990,169.39
991,168.23
992,170.16
993,169.42
994,171.08
995,168.8
996,166.75
997,167.58
998,167.21
999,168.56
1000,168.67
1001,167.76
1002,167.99
1003,166.76
1004,169.23
1005,167.05
1006,170.89
1007,169.12
1008,167.37
1009,169.32
1010,168.3
1011,168.14
1012,167.51
1013,168.69
1014,167.64
1015,168.71
1016,170.17
1017,169.24
1018,167.56
1019,166.95
1020,168.61
1021,167.18
1022,168.9
1023,170.17
1024,170.28
1025,168.03
1026,170.15
1027,170.06
1028,170.68
1029,169.59
1030,166.5
1031,168.42
1032,168.8
1033,168.45
1034,169.19
1035,167.41
1036,171.05
1037,169.29
1038,169.08
1039,168.42
1040,169.81
1041,168.41
1042,167.27
1043,167.58
1044,167.94
1045,169.4
1046,170.22
1047,168.49
1048,169.11
1049,168.71
1050,170.15
