1,184.87
2,167.89
3,167.65
4,168.1
5,168.65
6,166.73
7,168.07
8,168.0
9,169.97
10,171.75
11,168.98
12,169.26
13,169.45
14,169.56
15,171.01
16,170.49
17,169.48
18,170.52
19,170.45
20,170.82
21,172.58
22,171.64
23,171.56
24,170.62
25,170.58
26,171.09
27,170.61
28,170.7
29,170.95
30,171.58
31,169.81
32,171.02
33,170.0
34,172.21
35,172.82
36,169.79
37,169.63
38,168.94
39,166.9
40,168.95
41,171.27
42,169.48
43,171.94
44,170.09
45,171.77
46,172.13
47,172.86
48,172.08
49,171.55
50,172.62
51,172.19
52,170.75
53,170.5
54,169.38
55,172.42
56,171.01
57,172.08
58,170.33
59,166.39
60,169.45
61,169.64
62,169.06
63,172.92
64,171.27
65,170.59
66,171.52
67,171.67
68,172.07
69,169.98
70,172.38
71,170.54
72,169.74
73,168.9
74,171.44
75,169.85
76,167.65
77,169.95
78,173.47
79,169.49
80,170.26
81,169.56
82,170.27
83,168.83
84,169.91
85,170.47
86,170.15
87,166.57
88,171.18
89,169.93
90,169.71
91,172.11
92,167.88
93,170.67
94,169.09
95,169.81
96,169.7
97,170.27
98,170.15
99,170.46
100,170.99
101,169.36
102,169.01
103,170.77
104,169.14
105,169.17
106,170.43
107,171.58
108,170.77
109,170.63
110,171.29
111,169.84
112,172.2
113,169.41
114,169.04
115,171.01
116,170.41
117,170.15
118,170.5
119,170.58
120,169.87
121,170.46
122,170.14
123,169.37
124,172.0
125,170.25
126,172.28
127,168.8
128,169.18
129,170.24
130,174.18
131,171.44
132,168.83
133,169.56
134,171.01
135,168.44
136,169.41
137,170.79
138,170.99
139,170.3
140,170.51
141,170.4
142,171.26
143,170.16
144,170.8
145,169.13
146,171.57
147,173.37
148,173.29
149,172.1
150,168.84
151,172.56
152,171.69
153,170.55
154,167.56
155,170.13
156,168.53
157,171.25
158,173.38
159,174.36
160,173.0
161,167.93
162,169.96
163,170.25
164,168.44
165,169.72
166,169.97
167,169.15
168,170.12
169,170.37
170,170.58
171,170.39
172,170.39
173,169.71
174,173.71
175,173.77
176,172.23
177,171.46
178,170.73
179,171.89
180,173.76
181,171.72
182,172.13
183,173.7
184,171.06
185,173.38
186,173.52
187,172.75
188,172.75
189,171.8
190,172.7
191,171.75
192,173.75
193,172.62
194,173.35
195,171.33
196,172.23
197,173.55
198,172.38
199,171.96
200,169.66
201,173.89
202,172.66
203,172.8
204,172.85
205,170.87
206,171.27
207,173.64
208,171.4
209,168.72
210,167.93
211,169.63
212,171.79
213,173.39
214,172.04
215,171.48
216,170.48
217,171.85
218,170.77
219,169.62
220,169.8
221,170.02
222,170.69
223,168.95
224,171.07
225,168.91
226,170.3
227,168.79
228,168.26
229,170.97
230,169.97
231,172.07
232,171.13
233,168.68
234,169.69
235,168.34
236,171.52
237,171.27
238,170.68
239,171.68
240,169.8
241,170.6
242,169.02
243,169.63
244,170.97
245,170.59
246,170.14
247,170.46
248,170.55
249,171.66
250,170.07
251,166.54
252,169.81
253,168.89
254,171.3
255,168.46
256,167.92
257,169.95
258,167.92
259,170.95
260,169.74
261,168.22
262,171.25
263,172.6
264,169.75
265,169.99
266,169.64
267,167.97
268,169.75
269,169.66
270,169.8
271,170.73
272,168.89
273,169.75
274,169.7
275,171.68
276,172.82
277,172.42
278,171.29
279,168.76
280,169.93
281,167.7
282,170.74
283,169.84
284,170.49
285,171.67
286,170.68
287,169.7
288,167.56
289,170.73
290,171.98
291,171.1
292,169.43
293,169.38
294,169.21
295,169.85
296,170.82
297,170.66
298,169.48
299,170.44
300,169.58
301,169.67
302,169.87
303,170.1
304,171.96
305,170.87
306,170.49
307,169.46
308,169.47
309,169.13
310,169.46
311,170.53
312,167.91
313,170.83
314,171.11
315,167.83
316,168.77
317,169.59
318,170.36
319,170.22
320,172.07
321,171.93
322,170.76
323,170.14
324,170.88
325,171.03
326,171.48
327,171.27
328,169.8
329,169.94
330,173.63
331,172.03
332,171.21
333,170.55
334,169.66
335,169.41
336,169.31
337,167.9
338,168.82
339,170.48
340,169.67
341,168.27
342,167.3
343,164.34
344,168.13
345,168.17
346,165.58
347,167.62
348,169.94
349,168.39
350,169.99
