1,146.84
2,127.91
3,129.84
4,127.83
5,130.43
6,131.21
7,129.18
8,127.52
9,132.03
10,129.62
11,129.15
12,130.35
13,130.31
14,128.81
15,127.52
16,128.19
17,129.66
18,129.73
19,127.19
20,129.22
21,132.26
22,127.82
23,129.43
24,128.98
25,127.46
26,129.9
27,129.83
28,129.69
29,130.4
30,130.36
31,129.91
32,127.74
33,128.82
34,129.24
35,127.71
36,128.99
37,128.37
38,127.44
39,128.33
40,129.11
41,126.23
42,129.14
43,126.57
44,126.55
45,128.64
46,129.41
47,127.24
48,127.57
49,129.56
50,127.27
51,128.01
52,129.84
53,128.1
54,127.57
55,128.24
56,127.33
57,129.39
58,129.01
59,127.58
60,128.23
61,129.83
62,128.72
63,127.99
64,129.82
65,128.57
66,128.59
67,129.96
68,128.77
69,126.41
70,127.99
71,127.68
72,128.44
73,128.03
74,127.1
75,129.01
76,128.03
77,128.35
78,128.16
79,130.54
80,128.8
81,126.64
82,127.12
83,128.92
84,127.67
85,126.8
86,128.12
87,127.57
88,129.05
89,128.01
90,128.39
91,128.21
92,126.73
93,127.13
94,129.37
95,126.84
96,127.69
97,127.48
98,128.36
99,128.05
100,129.13
101,127.89
102,125.93
103,129.45
104,127.02
105,126.97
106,127.72
107,128.18
108,126.96
109,129.04
110,132.82
111,130.43
112,129.51
113,128.99
114,128.54
115,128.72
116,130.25
117,128.5
118,129.2
119,130.7
120,127.48
121,129.65
122,130.26
123,128.23
124,130.31
125,129.47
126,128.99
127,128.45
128,130.62
129,128.3
130,128.84
131,129.96
132,129.07
133,127.34
134,129.74
135,129.15
136,129.34
137,131.82
138,131.24
139,129.64
140,129.76
141,128.75
142,129.21
143,128.74
144,129.54
145,127.58
146,128.92
147,129.42
148,127.15
149,127.12
150,128.93
151,128.45
152,131.03
153,131.97
154,127.72
155,130.28
156,130.39
157,130.1
158,127.81
159,131.31
160,128.64
161,129.49
162,130.75
163,129.21
164,130.25
165,129.47
166,129.37
167,129.35
168,129.07
169,129.38
170,128.77
171,130.54
172,128.21
173,128.15
174,128.72
175,128.42
