1,107.18
2,90.15
3,88.83
4,89.3
5,90.33
6,89.99
7,91.19
8,88.12
9,89.67
10,86.63
11,89.59
12,88.22
13,90.41
14,90.59
15,90.88
16,90.93
17,91.03
18,88.44
19,89.95
20,86.03
21,86.38
22,88.92
23,88.7
24,88.5
25,88.71
26,89.67
27,90.08
28,91.04
29,91.11
30,91.99
31,89.46
32,88.64
33,89.5
34,88.07
35,89.45
36,88.19
37,89.74
38,88.91
39,89.28
40,88.67
41,90.46
42,90.01
43,89.79
44,88.53
45,88.97
46,90.17
47,90.35
48,90.94
49,91.86
50,91.11
51,90.26
52,89.63
53,89.11
54,90.38
55,89.2
56,90.36
57,88.95
58,90.34
59,90.41
60,90.21
61,85.88
62,89.94
63,85.84
64,87.9
65,88.51
66,88.63
67,88.47
68,89.38
69,86.99
70,92.28
