1,108.6
2,89.53
3,89.59
4,89.61
5,89.88
6,90.62
7,91.11
8,90.57
9,88.27
10,88.72
11,90.42
12,90.04
13,89.48
14,87.55
15,88.01
16,88.57
17,89.55
18,91.08
19,88.32
20,88.93
21,86.72
22,88.13
23,87.29
24,89.38
25,88.9
26,90.97
27,88.09
28,89.39
29,89.78
30,89.78
31,86.12
32,88.42
33,88.78
34,88.16
35,89.51
36,88.53
37,88.12
38,87.44
39,89.16
40,90.26
41,91.61
42,90.92
43,89.95
44,88.86
45,91.83
46,89.33
47,89.99
48,90.51
49,90.81
50,90.59
51,91.0
52,90.79
53,88.32
54,90.55
55,89.73
56,90.66
57,89.63
58,87.85
59,88.69
60,89.76
61,87.36
62,89.8
63,88.7
64,88.15
65,89.89
66,90.27
67,89.17
68,88.52
69,89.68
70,88.21
71,88.66
72,89.46
73,88.87
74,88.95
75,88.99
76,89.1
77,89.59
78,89.39
79,88.98
80,88.42
81,89.2
82,90.3
83,90.9
84,89.69
85,90.64
86,88.78
87,88.52
88,89.45
89,90.72
90,88.8
91,89.27
92,88.82
93,88.85
94,89.24
95,89.21
96,89.89
97,89.04
98,88.58
99,90.02
100,87.85
101,87.97
102,87.82
103,89.43
104,90.08
105,89.45
106,87.54
107,88.09
108,87.78
109,86.54
110,89.66
111,89.77
112,89.74
113,89.97
114,90.71
115,90.24
116,88.41
117,89.65
118,90.57
119,87.67
120,87.0
121,88.04
122,88.65
123,88.82
124,87.8
125,87.56
126,87.88
127,87.86
128,87.06
129,88.81
130,87.48
131,88.13
132,86.68
133,89.09
134,90.87
135,89.82
136,90.89
137,90.45
138,87.5
139,90.33
140,89.72
141,84.9
142,88.36
143,87.88
144,88.75
145,89.47
146,87.03
147,89.9
148,90.27
149,90.89
150,89.32
151,90.98
152,88.82
153,88.03
154,87.46
155,91.05
156,89.99
157,90.25
158,88.98
159,89.84
160,87.4
161,87.45
162,87.17
163,86.47
164,89.49
165,88.45
166,88.31
167,88.87
168,86.63
169,88.5
170,89.58
171,91.1
172,90.24
173,91.53
174,90.22
175,89.57
