1,148.76
2,127.69
3,129.11
4,127.88
5,130.25
6,129.66
7,130.41
8,129.34
9,129.82
10,129.69
11,131.26
12,129.92
13,129.15
14,127.73
15,127.91
16,130.98
17,128.98
18,128.71
19,128.85
20,129.17
21,127.49
22,131.96
23,128.35
24,128.02
25,130.69
26,128.79
27,128.45
28,131.5
29,128.83
30,128.9
31,130.39
32,127.51
33,127.76
34,129.93
35,129.45
