1,108.1
2,88.45
3,89.37
4,87.81
5,88.13
6,89.81
7,88.19
8,89.81
9,88.94
10,89.29
11,90.09
12,87.57
13,86.61
14,89.26
15,88.49
16,89.54
17,89.05
18,89.85
19,91.67
20,88.83
21,91.04
22,89.68
23,87.91
24,88.23
25,89.14
26,90.13
27,90.81
28,89.52
29,88.25
30,91.05
31,90.09
32,88.27
33,88.76
34,86.47
35,89.48
