1,189.34
2,168.68
3,168.82
4,169.01
5,169.16
6,170.62
7,171.6
8,165.69
9,171.55
10,169.4
11,171.41
12,166.84
13,170.64
14,170.3
15,171.2
16,170.64
17,170.49
18,171.53
19,167.57
20,168.9
21,166.74
22,166.95
23,168.21
24,171.33
25,170.04
26,169.64
27,166.61
28,170.75
29,167.75
30,171.61
31,169.48
32,168.86
33,172.03
34,170.67
35,170.25
36,167.86
37,170.18
38,169.39
39,171.18
40,169.53
41,171.97
42,169.62
43,169.57
44,172.34
45,172.73
46,171.62
47,171.17
48,170.45
49,168.82
50,169.77
51,171.16
52,170.18
53,171.33
54,170.48
55,168.63
56,170.11
57,170.2
58,171.94
59,171.13
60,169.62
61,171.29
62,171.8
63,170.65
64,171.78
65,170.39
66,171.51
67,170.17
68,168.37
69,170.74
70,169.17
71,168.39
72,169.3
73,166.83
74,170.0
75,172.06
76,169.43
77,169.33
78,168.9
79,170.29
80,169.14
81,170.0
82,169.12
83,170.09
84,170.34
85,171.89
86,169.6
87,172.08
88,169.93
89,169.09
90,169.69
91,168.15
92,167.07
93,168.05
94,166.58
95,166.42
96,167.16
97,167.12
98,167.03
99,168.74
100,166.13
101,166.4
102,168.47
103,167.86
104,168.48
105,168.97
