0,2.696539702293474e308
1,2.696539702293474e308
2,2.696539702293474e308
3,2.696539702293474e308
4,2.696539702293474e308
5,2.696539702293474e308
6,2.696539702293474e308
7,2.696539702293474e308
8,2.696539702293474e308
9,2.696539702293474e308
10,2.696539702293474e308
11,2.696539702293474e308
12,2.696539702293474e308
13,2.696539702293474e308
14,2.696539702293474e308
15,2.696539702293474e308
16,2.696539702293474e308
17,2.696539702293474e308
18,2.696539702293474e308
19,2.696539702293474e308
20,2.696539702293474e308
21,2.696539702293474e308
22,2.696539702293474e308
23,2.696539702293474e308
24,2.696539702293474e308
25,2.696539702293474e308
26,2.696539702293474e308
27,2.696539702293474e308
28,2.696539702293474e308
29,2.696539702293474e308
30,2.696539702293474e308
31,2.696539702293474e308
32,2.696539702293474e308
33,2.696539702293474e308
34,2.696539702293474e308
35,2.696539702293474e308
36,2.696539702293474e308
37,2.696539702293474e308
38,2.696539702293474e308
39,2.696539702293474e308
40,2.696539702293474e308
41,2.696539702293474e308
42,2.696539702293474e308
43,2.696539702293474e308
44,2.696539702293474e308
45,2.696539702293474e308
46,2.696539702293474e308
47,2.696539702293474e308
48,2.696539702293474e308
49,2.696539702293474e308
50,2.696539702293474e308
51,2.696539702293474e308
52,2.696539702293474e308
53,2.696539702293474e308
54,2.696539702293474e308
55,2.696539702293474e308
56,2.696539702293474e308
57,2.696539702293474e308
58,2.696539702293474e308
59,2.696539702293474e308
60,2.696539702293474e308
61,2.696539702293474e308
62,2.696539702293474e308
63,2.696539702293474e308
64,2.696539702293474e308
65,2.696539702293474e308
66,2.696539702293474e308
67,2.696539702293474e308
68,2.696539702293474e308
69,2.696539702293474e308
70,2.696539702293474e308
71,2.696539702293474e308
72,2.696539702293474e308
73,2.696539702293474e308
74,2.696539702293474e308
75,2.696539702293474e308
76,2.696539702293474e308
77,2.696539702293474e308
78,2.696539702293474e308
79,2.696539702293474e308
80,2.696539702293474e308
81,2.696539702293474e308
82,2.696539702293474e308
83,2.696539702293474e308
84,2.696539702293474e308
85,2.696539702293474e308
86,2.696539702293474e308
87,2.696539702293474e308
88,2.696539702293474e308
89,2.696539702293474e308
90,2.696539702293474e308
91,2.696539702293474e308
92,2.696539702293474e308
93,2.696539702293474e308
94,2.696539702293474e308
95,2.696539702293474e308
96,2.696539702293474e308
97,2.696539702293474e308
98,2.696539702293474e308
99,2.696539702293474e308
100,2.696539702293474e308
101,2.696539702293474e308
102,2.696539702293474e308
103,2.696539702293474e308
104,2.696539702293474e308
105,2.696539702293474e308
106,2.696539702293474e308
107,2.696539702293474e308
108,2.696539702293474e308
109,2.696539702293474e308
110,2.696539702293474e308
111,2.696539702293474e308
112,2.696539702293474e308
113,2.696539702293474e308
114,2.696539702293474e308
115,2.696539702293474e308
116,2.696539702293474e308
117,2.696539702293474e308
118,2.696539702293474e308
119,2.696539702293474e308
120,2.696539702293474e308
121,2.696539702293474e308
122,2.696539702293474e308
123,2.696539702293474e308
124,2.696539702293474e308
125,2.696539702293474e308
126,2.696539702293474e308
127,2.696539702293474e308
128,2.696539702293474e308
129,2.696539702293474e308
130,2.696539702293474e308
131,2.696539702293474e308
132,2.696539702293474e308
133,2.696539702293474e308
134,2.696539702293474e308
135,2.696539702293474e308
136,2.696539702293474e308
137,2.696539702293474e308
138,2.696539702293474e308
139,2.696539702293474e308
140,2.696539702293474e308
141,2.696539702293474e308
142,2.696539702293474e308
143,2.696539702293474e308
144,2.696539702293474e308
145,2.696539702293474e308
146,2.696539702293474e308
147,2.696539702293474e308
148,2.696539702293474e308
149,2.696539702293474e308
150,2.696539702293474e308
151,2.696539702293474e308
152,2.696539702293474e308
153,2.696539702293474e308
154,2.696539702293474e308
155,2.696539702293474e308
156,2.696539702293474e308
157,2.696539702293474e308
158,2.696539702293474e308
159,2.696539702293474e308
160,2.696539702293474e308
161,2.696539702293474e308
162,2.696539702293474e308
163,2.696539702293474e308
164,2.696539702293474e308
165,2.696539702293474e308
166,2.696539702293474e308
167,2.696539702293474e308
168,2.696539702293474e308
169,2.696539702293474e308
170,2.696539702293474e308
171,2.696539702293474e308
172,2.696539702293474e308
173,2.696539702293474e308
174,2.696539702293474e308
175,2.696539702293474e308
176,2.696539702293474e308
177,2.696539702293474e308
178,2.696539702293474e308
179,2.696539702293474e308
180,2.696539702293474e308
181,2.696539702293474e308
182,2.696539702293474e308
183,2.696539702293474e308
184,2.696539702293474e308
185,2.696539702293474e308
186,2.696539702293474e308
187,2.696539702293474e308
188,2.696539702293474e308
189,2.696539702293474e308
190,2.696539702293474e308
191,2.696539702293474e308
192,2.696539702293474e308
193,2.696539702293474e308
194,2.696539702293474e308
195,2.696539702293474e308
196,2.696539702293474e308
197,2.696539702293474e308
198,2.696539702293474e308
199,2.696539702293474e308
200,2.696539702293474e308
201,2.696539702293474e308
202,2.696539702293474e308
203,2.696539702293474e308
204,2.696539702293474e308
205,2.696539702293474e308
206,2.696539702293474e308
207,2.696539702293474e308
208,2.696539702293474e308
209,2.696539702293474e308
210,2.696539702293474e308
211,2.696539702293474e308
212,2.696539702293474e308
213,2.696539702293474e308
214,2.696539702293474e308
215,2.696539702293474e308
216,2.696539702293474e308
217,2.696539702293474e308
218,2.696539702293474e308
219,2.696539702293474e308
220,2.696539702293474e308
221,2.696539702293474e308
222,2.696539702293474e308
223,2.696539702293474e308
224,2.696539702293474e308
225,2.696539702293474e308
226,2.696539702293474e308
227,2.696539702293474e308
228,2.696539702293474e308
229,2.696539702293474e308
230,2.696539702293474e308
231,2.696539702293474e308
232,2.696539702293474e308
233,2.696539702293474e308
234,2.696539702293474e308
235,2.696539702293474e308
236,2.696539702293474e308
237,2.696539702293474e308
238,2.696539702293474e308
239,2.696539702293474e308
240,2.696539702293474e308
241,2.696539702293474e308
242,2.696539702293474e308
243,2.696539702293474e308
244,2.696539702293474e308
245,2.696539702293474e308
246,2.696539702293474e308
247,2.696539702293474e308
248,2.696539702293474e308
249,2.696539702293474e308
250,2.696539702293474e308
251,2.696539702293474e308
252,2.696539702293474e308
253,2.696539702293474e308
254,2.696539702293474e308
255,2.696539702293474e308
256,2.696539702293474e308
257,2.696539702293474e308
258,2.696539702293474e308
259,2.696539702293474e308
260,2.696539702293474e308
261,2.696539702293474e308
262,2.696539702293474e308
263,2.696539702293474e308
264,2.696539702293474e308
265,2.696539702293474e308
266,2.696539702293474e308
267,2.696539702293474e308
268,2.696539702293474e308
269,2.696539702293474e308
270,2.696539702293474e308
271,2.696539702293474e308
272,2.696539702293474e308
273,2.696539702293474e308
274,2.696539702293474e308
275,2.696539702293474e308
276,2.696539702293474e308
277,2.696539702293474e308
278,2.696539702293474e308
279,2.696539702293474e308
280,2.696539702293474e308
281,2.696539702293474e308
282,2.696539702293474e308
283,2.696539702293474e308
284,2.696539702293474e308
285,2.696539702293474e308
286,2.696539702293474e308
287,2.696539702293474e308
288,2.696539702293474e308
289,2.696539702293474e308
290,2.696539702293474e308
291,2.696539702293474e308
292,2.696539702293474e308
293,2.696539702293474e308
294,2.696539702293474e308
295,2.696539702293474e308
296,2.696539702293474e308
297,2.696539702293474e308
298,2.696539702293474e308
299,2.696539702293474e308
300,2.696539702293474e308
301,2.696539702293474e308
302,2.696539702293474e308
303,2.696539702293474e308
304,2.696539702293474e308
305,2.696539702293474e308
306,2.696539702293474e308
307,2.696539702293474e308
308,2.696539702293474e308
309,2.696539702293474e308
310,2.696539702293474e308
311,2.696539702293474e308
312,2.696539702293474e308
313,2.696539702293474e308
314,2.696539702293474e308
315,2.696539702293474e308
316,2.696539702293474e308
317,2.696539702293474e308
318,2.696539702293474e308
319,2.696539702293474e308
320,2.696539702293474e308
321,2.696539702293474e308
322,2.696539702293474e308
323,2.696539702293474e308
324,2.696539702293474e308
325,2.696539702293474e308
326,2.696539702293474e308
327,2.696539702293474e308
328,2.696539702293474e308
329,2.696539702293474e308
330,2.696539702293474e308
331,2.696539702293474e308
332,2.696539702293474e308
333,2.696539702293474e308
334,2.696539702293474e308
335,2.696539702293474e308
336,2.696539702293474e308
337,2.696539702293474e308
338,2.696539702293474e308
339,2.696539702293474e308
340,2.696539702293474e308
341,2.696539702293474e308
342,2.696539702293474e308
343,2.696539702293474e308
344,2.696539702293474e308
345,2.696539702293474e308
346,2.696539702293474e308
347,2.696539702293474e308
348,2.696539702293474e308
349,2.696539702293474e308
350,2.696539702293474e308
351,2.696539702293474e308
352,2.696539702293474e308
353,2.696539702293474e308
354,2.696539702293474e308
355,2.696539702293474e308
356,2.696539702293474e308
357,2.696539702293474e308
358,2.696539702293474e308
359,2.696539702293474e308
360,2.696539702293474e308
361,2.696539702293474e308
362,2.696539702293474e308
363,2.696539702293474e308
364,2.696539702293474e308
365,2.696539702293474e308
366,2.696539702293474e308
367,2.696539702293474e308
368,2.696539702293474e308
369,2.696539702293474e308
370,2.696539702293474e308
371,2.696539702293474e308
372,2.696539702293474e308
373,2.696539702293474e308
374,2.696539702293474e308
375,2.696539702293474e308
376,2.696539702293474e308
377,2.696539702293474e308
378,2.696539702293474e308
379,2.696539702293474e308
380,2.696539702293474e308
381,2.696539702293474e308
382,2.696539702293474e308
383,2.696539702293474e308
384,2.696539702293474e308
385,2.696539702293474e308
386,2.696539702293474e308
387,2.696539702293474e308
388,2.696539702293474e308
389,2.696539702293474e308
390,2.696539702293474e308
391,2.696539702293474e308
392,2.696539702293474e308
393,2.696539702293474e308
394,2.696539702293474e308
395,2.696539702293474e308
396,2.696539702293474e308
397,2.696539702293474e308
398,2.696539702293474e308
399,2.696539702293474e308
400,2.696539702293474e308
401,2.696539702293474e308
402,2.696539702293474e308
403,2.696539702293474e308
404,2.696539702293474e308
405,2.696539702293474e308
406,2.696539702293474e308
407,2.696539702293474e308
408,2.696539702293474e308
409,2.696539702293474e308
410,2.696539702293474e308
411,2.696539702293474e308
412,2.696539702293474e308
413,2.696539702293474e308
414,2.696539702293474e308
415,2.696539702293474e308
416,2.696539702293474e308
417,2.696539702293474e308
418,2.696539702293474e308
419,2.696539702293474e308
420,2.696539702293474e308
421,2.696539702293474e308
422,2.696539702293474e308
423,2.696539702293474e308
424,2.696539702293474e308
425,2.696539702293474e308
426,2.696539702293474e308
427,2.696539702293474e308
428,2.696539702293474e308
429,2.696539702293474e308
430,2.696539702293474e308
431,2.696539702293474e308
432,2.696539702293474e308
433,2.696539702293474e308
434,2.696539702293474e308
435,2.696539702293474e308
436,2.696539702293474e308
437,2.696539702293474e308
438,2.696539702293474e308
439,2.696539702293474e308
440,2.696539702293474e308
441,2.696539702293474e308
442,2.696539702293474e308
443,2.696539702293474e308
444,2.696539702293474e308
445,2.696539702293474e308
446,2.696539702293474e308
447,2.696539702293474e308
448,2.696539702293474e308
449,2.696539702293474e308
450,2.696539702293474e308
451,2.696539702293474e308
452,2.696539702293474e308
453,2.696539702293474e308
454,2.696539702293474e308
455,2.696539702293474e308
456,2.696539702293474e308
457,2.696539702293474e308
458,2.696539702293474e308
459,2.696539702293474e308
460,2.696539702293474e308
461,2.696539702293474e308
462,2.696539702293474e308
463,2.696539702293474e308
464,2.696539702293474e308
465,2.696539702293474e308
466,2.696539702293474e308
467,2.696539702293474e308
468,2.696539702293474e308
469,2.696539702293474e308
470,2.696539702293474e308
471,2.696539702293474e308
472,2.696539702293474e308
473,2.696539702293474e308
474,2.696539702293474e308
475,2.696539702293474e308
476,2.696539702293474e308
477,2.696539702293474e308
478,2.696539702293474e308
479,2.696539702293474e308
480,2.696539702293474e308
481,2.696539702293474e308
482,2.696539702293474e308
483,2.696539702293474e308
484,2.696539702293474e308
485,2.696539702293474e308
486,2.696539702293474e308
487,2.696539702293474e308
488,2.696539702293474e308
489,2.696539702293474e308
490,2.696539702293474e308
491,2.696539702293474e308
492,2.696539702293474e308
493,2.696539702293474e308
494,2.696539702293474e308
495,2.696539702293474e308
496,2.696539702293474e308
497,2.696539702293474e308
498,2.696539702293474e308
499,2.696539702293474e308
500,2.696539702293474e308
501,2.696539702293474e308
502,2.696539702293474e308
503,2.696539702293474e308
504,2.696539702293474e308
505,2.696539702293474e308
506,2.696539702293474e308
507,2.696539702293474e308
508,2.696539702293474e308
509,2.696539702293474e308
510,2.696539702293474e308
511,2.696539702293474e308
512,2.696539702293474e308
513,2.696539702293474e308
514,2.696539702293474e308
515,2.696539702293474e308
516,2.696539702293474e308
517,2.696539702293474e308
518,2.696539702293474e308
519,2.696539702293474e308
520,2.696539702293474e308
521,2.696539702293474e308
522,2.696539702293474e308
523,2.696539702293474e308
524,2.696539702293474e308
525,2.696539702293474e308
526,2.696539702293474e308
527,2.696539702293474e308
528,2.696539702293474e308
529,2.696539702293474e308
530,2.696539702293474e308
531,2.696539702293474e308
532,2.696539702293474e308
533,2.696539702293474e308
534,2.696539702293474e308
535,2.696539702293474e308
536,2.696539702293474e308
537,2.696539702293474e308
538,2.696539702293474e308
539,2.696539702293474e308
540,2.696539702293474e308
541,2.696539702293474e308
542,2.696539702293474e308
543,2.696539702293474e308
544,2.696539702293474e308
545,2.696539702293474e308
546,2.696539702293474e308
547,2.696539702293474e308
548,2.696539702293474e308
549,2.696539702293474e308
550,2.696539702293474e308
551,2.696539702293474e308
552,2.696539702293474e308
553,2.696539702293474e308
554,2.696539702293474e308
555,2.696539702293474e308
556,2.696539702293474e308
557,2.696539702293474e308
558,2.696539702293474e308
559,2.696539702293474e308
560,2.696539702293474e308
561,2.696539702293474e308
562,2.696539702293474e308
563,2.696539702293474e308
564,2.696539702293474e308
565,2.696539702293474e308
566,2.696539702293474e308
567,2.696539702293474e308
568,2.696539702293474e308
569,2.696539702293474e308
570,2.696539702293474e308
571,2.696539702293474e308
572,2.696539702293474e308
573,2.696539702293474e308
574,2.696539702293474e308
575,2.696539702293474e308
576,2.696539702293474e308
577,2.696539702293474e308
578,2.696539702293474e308
579,2.696539702293474e308
580,2.696539702293474e308
581,2.696539702293474e308
582,2.696539702293474e308
583,2.696539702293474e308
584,2.696539702293474e308
585,2.696539702293474e308
586,2.696539702293474e308
587,2.696539702293474e308
588,2.696539702293474e308
589,2.696539702293474e308
590,2.696539702293474e308
591,2.696539702293474e308
592,2.696539702293474e308
593,2.696539702293474e308
594,2.696539702293474e308
595,2.696539702293474e308
596,2.696539702293474e308
597,2.696539702293474e308
598,2.696539702293474e308
599,2.696539702293474e308
600,2.696539702293474e308
601,2.696539702293474e308
602,2.696539702293474e308
603,2.696539702293474e308
604,2.696539702293474e308
605,2.696539702293474e308
606,2.696539702293474e308
607,2.696539702293474e308
608,2.696539702293474e308
609,2.696539702293474e308
610,2.696539702293474e308
611,2.696539702293474e308
612,2.696539702293474e308
613,2.696539702293474e308
614,2.696539702293474e308
615,2.696539702293474e308
616,2.696539702293474e308
617,2.696539702293474e308
618,2.696539702293474e308
619,2.696539702293474e308
620,2.696539702293474e308
621,2.696539702293474e308
622,2.696539702293474e308
623,2.696539702293474e308
624,2.696539702293474e308
625,2.696539702293474e308
626,2.696539702293474e308
627,2.696539702293474e308
628,2.696539702293474e308
629,2.696539702293474e308
630,2.696539702293474e308
631,2.696539702293474e308
632,2.696539702293474e308
633,2.696539702293474e308
634,2.696539702293474e308
635,2.696539702293474e308
636,2.696539702293474e308
637,2.696539702293474e308
638,2.696539702293474e308
639,2.696539702293474e308
640,2.696539702293474e308
641,2.696539702293474e308
642,2.696539702293474e308
643,2.696539702293474e308
644,2.696539702293474e308
645,2.696539702293474e308
646,2.696539702293474e308
647,2.696539702293474e308
648,2.696539702293474e308
649,2.696539702293474e308
650,2.696539702293474e308
651,2.696539702293474e308
652,2.696539702293474e308
653,2.696539702293474e308
654,2.696539702293474e308
655,2.696539702293474e308
656,2.696539702293474e308
657,2.696539702293474e308
658,2.696539702293474e308
659,2.696539702293474e308
660,2.696539702293474e308
661,2.696539702293474e308
662,2.696539702293474e308
663,2.696539702293474e308
664,2.696539702293474e308
665,2.696539702293474e308
666,2.696539702293474e308
667,2.696539702293474e308
668,2.696539702293474e308
669,2.696539702293474e308
670,2.696539702293474e308
671,2.696539702293474e308
672,2.696539702293474e308
673,2.696539702293474e308
674,2.696539702293474e308
675,2.696539702293474e308
676,2.696539702293474e308
677,2.696539702293474e308
678,2.696539702293474e308
679,2.696539702293474e308
680,2.696539702293474e308
681,2.696539702293474e308
682,2.696539702293474e308
683,2.696539702293474e308
684,2.696539702293474e308
685,2.696539702293474e308
686,2.696539702293474e308
687,2.696539702293474e308
688,2.696539702293474e308
689,2.696539702293474e308
690,2.696539702293474e308
691,2.696539702293474e308
692,2.696539702293474e308
693,2.696539702293474e308
694,2.696539702293474e308
695,2.696539702293474e308
696,2.696539702293474e308
697,2.696539702293474e308
698,2.696539702293474e308
699,2.696539702293474e308
700,2.696539702293474e308
701,2.696539702293474e308
702,2.696539702293474e308
703,2.696539702293474e308
704,2.696539702293474e308
705,2.696539702293474e308
706,2.696539702293474e308
707,2.696539702293474e308
708,2.696539702293474e308
709,2.696539702293474e308
710,2.696539702293474e308
711,2.696539702293474e308
712,2.696539702293474e308
713,2.696539702293474e308
714,2.696539702293474e308
715,2.696539702293474e308
716,2.696539702293474e308
717,2.696539702293474e308
718,2.696539702293474e308
719,2.696539702293474e308
720,2.696539702293474e308
722,2.11
