0,2.696539702293474e308
1,2.696539702293474e308
2,2.696539702293474e308
4,30.94
4,2.696539702293474e308
5,2.696539702293474e308
6,2.696539702293474e308
7,2.696539702293474e308
9,31.0
10,31.79
11,31.94
12,32.58
13,31.03
14,32.06
15,30.77
16,30.54
17,32.83
18,32.61
19,31.82
20,31.9
21,31.92
22,30.85
22,2.696539702293474e308
24,31.22
25,31.85
26,33.02
26,2.696539702293474e308
28,30.96
29,32.3
30,31.83
31,32.97
32,32.45
33,30.96
33,2.696539702293474e308
34,2.696539702293474e308
35,2.696539702293474e308
36,2.696539702293474e308
37,2.696539702293474e308
38,2.696539702293474e308
39,2.696539702293474e308
40,2.696539702293474e308
41,2.696539702293474e308
42,2.696539702293474e308
43,2.696539702293474e308
44,2.696539702293474e308
46,31.43
47,31.24
47,2.696539702293474e308
49,32.02
49,2.696539702293474e308
50,2.696539702293474e308
52,31.93
53,30.64
54,31.53
55,31.81
56,31.38
56,2.696539702293474e308
58,30.9
59,31.51
60,31.29
61,32.9
62,32.75
63,32.5
63,2.696539702293474e308
64,2.696539702293474e308
66,32.47
67,33.2
68,30.62
69,30.85
70,31.6
