1,48.71
1,2.696539702293474e308
2,2.696539702293474e308
4,32.84
5,31.93
6,32.0
7,31.57
8,31.91
9,32.2
10,32.37
10,2.696539702293474e308
12,31.79
12,2.696539702293474e308
13,2.696539702293474e308
15,31.67
16,32.19
17,32.03
17,2.696539702293474e308
19,31.29
19,2.696539702293474e308
20,2.696539702293474e308
21,2.696539702293474e308
22,2.696539702293474e308
24,32.02
25,31.56
26,31.8
27,31.37
28,31.69
29,30.39
30,30.44
31,30.59
32,30.08
33,33.25
34,31.71
35,32.38
