1,50.35
1,2.696539702293474e308
2,2.696539702293474e308
3,2.696539702293474e308
4,2.696539702293474e308
5,2.696539702293474e308
6,2.696539702293474e308
7,2.696539702293474e308
8,2.696539702293474e308
9,2.696539702293474e308
10,2.696539702293474e308
11,2.696539702293474e308
12,2.696539702293474e308
13,2.696539702293474e308
14,2.696539702293474e308
16,32.05
17,31.09
17,2.696539702293474e308
18,2.696539702293474e308
19,2.696539702293474e308
20,2.696539702293474e308
21,2.696539702293474e308
22,2.696539702293474e308
23,2.696539702293474e308
24,2.696539702293474e308
25,2.696539702293474e308
27,31.65
27,2.696539702293474e308
28,2.696539702293474e308
30,31.68
30,2.696539702293474e308
32,31.5
33,31.21
34,31.17
34,2.696539702293474e308
35,2.696539702293474e308
37,32.63
37,2.696539702293474e308
38,2.696539702293474e308
39,2.696539702293474e308
40,2.696539702293474e308
42,31.41
43,32.73
43,2.696539702293474e308
45,32.09
46,31.22
47,31.4
48,31.94
49,31.3
50,32.66
51,31.14
52,31.11
53,32.05
54,32.13
55,30.93
56,33.51
57,31.1
58,31.57
59,32.05
60,32.06
61,31.62
62,32.57
63,30.95
64,31.23
65,31.07
66,31.63
67,31.92
68,32.37
69,30.77
70,31.21
71,30.95
72,31.49
73,31.71
74,33.71
75,31.07
76,32.36
77,32.16
78,31.02
79,31.1
80,33.15
81,31.29
82,31.18
83,32.08
84,31.42
85,31.17
86,31.32
87,30.45
88,31.97
89,31.52
90,32.58
91,30.93
92,29.89
93,31.5
94,31.28
95,31.2
96,31.08
97,31.46
98,31.02
99,32.92
100,31.68
100,2.696539702293474e308
102,30.84
103,31.24
104,31.15
104,2.696539702293474e308
105,2.696539702293474e308
106,2.696539702293474e308
108,31.46
109,31.29
110,31.27
111,32.63
111,2.696539702293474e308
112,2.696539702293474e308
114,31.88
115,31.36
116,32.03
117,32.15
118,31.83
119,31.31
120,31.94
121,30.9
122,30.89
123,32.14
124,31.66
125,31.88
126,31.45
127,30.56
128,31.72
129,32.85
130,31.56
131,30.5
132,30.08
132,2.696539702293474e308
134,32.58
135,32.07
136,31.61
137,33.35
138,30.86
139,31.76
140,31.61
141,31.34
142,32.1
142,2.696539702293474e308
143,2.696539702293474e308
145,31.24
146,32.04
147,31.33
148,31.62
149,30.84
150,29.98
151,31.32
152,31.94
153,31.19
154,33.03
155,30.99
156,30.26
157,31.17
158,31.72
159,32.82
160,32.27
161,31.16
162,31.46
163,31.36
164,31.6
165,31.88
166,33.32
166,2.696539702293474e308
167,2.696539702293474e308
168,2.696539702293474e308
169,2.696539702293474e308
170,2.696539702293474e308
171,2.696539702293474e308
172,2.696539702293474e308
173,2.696539702293474e308
175,31.62
175,2.696539702293474e308
176,2.696539702293474e308
177,2.696539702293474e308
178,2.696539702293474e308
179,2.696539702293474e308
181,31.24
182,31.27
183,31.5
184,31.09
185,31.39
185,2.696539702293474e308
186,2.696539702293474e308
187,2.696539702293474e308
188,2.696539702293474e308
189,2.696539702293474e308
190,2.696539702293474e308
191,2.696539702293474e308
192,2.696539702293474e308
194,31.31
195,31.53
196,31.68
197,31.66
198,30.52
199,32.23
200,31.7
200,2.696539702293474e308
201,2.696539702293474e308
202,2.696539702293474e308
204,31.02
204,2.696539702293474e308
206,31.92
206,2.696539702293474e308
207,2.696539702293474e308
208,2.696539702293474e308
210,30.41
210,2.696539702293474e308
212,30.96
212,2.696539702293474e308
213,2.696539702293474e308
215,31.42
215,2.696539702293474e308
217,30.69
217,2.696539702293474e308
218,2.696539702293474e308
219,2.696539702293474e308
220,2.696539702293474e308
221,2.696539702293474e308
223,30.91
224,31.11
225,31.45
226,31.74
227,32.39
228,31.77
229,32.2
230,31.12
231,32.0
232,32.38
232,2.696539702293474e308
233,2.696539702293474e308
234,2.696539702293474e308
235,2.696539702293474e308
236,2.696539702293474e308
237,2.696539702293474e308
239,31.61
240,32.78
241,31.34
242,31.31
243,31.63
244,31.71
245,31.35
246,32.37
247,31.23
248,30.92
249,31.25
250,32.07
251,32.45
252,31.9
253,30.58
254,30.94
255,32.7
256,32.07
257,31.62
258,33.13
259,31.66
260,32.31
261,32.2
262,32.51
263,32.62
264,31.61
265,31.55
266,31.22
267,31.55
268,31.81
269,33.25
270,33.12
271,31.77
272,31.35
273,31.8
274,30.96
275,31.21
276,33.04
277,30.71
278,31.23
279,31.38
280,31.58
281,32.69
282,31.3
283,31.59
284,31.47
285,31.1
286,30.72
287,31.81
288,30.93
289,32.26
290,33.31
291,31.65
292,32.39
293,31.71
294,31.22
295,31.61
296,30.96
297,30.89
298,30.99
299,31.5
300,31.22
301,33.44
302,31.81
303,30.81
304,31.68
305,32.01
306,33.24
307,31.79
308,32.08
309,31.04
310,31.28
311,32.25
312,30.5
313,32.83
314,32.27
314,2.696539702293474e308
315,2.696539702293474e308
316,2.696539702293474e308
317,2.696539702293474e308
319,32.12
320,29.75
321,30.81
322,31.81
323,31.24
324,30.43
325,32.38
326,30.88
327,30.77
328,31.39
329,31.56
330,32.1
331,31.97
332,31.71
333,31.06
334,30.93
335,31.01
336,30.77
337,31.07
338,31.88
339,31.63
340,30.93
341,31.29
342,32.33
343,31.63
344,32.16
345,31.5
346,31.77
347,31.36
348,31.76
349,30.81
350,33.42
