1,87.27
2,69.06
3,70.28
4,70.11
5,68.36
6,69.23
7,68.86
8,68.86
9,71.42
10,69.05
11,68.36
12,68.98
13,69.21
14,69.62
15,69.54
16,68.92
17,70.07
18,69.12
19,68.51
20,70.65
21,70.75
22,69.62
23,71.48
24,68.57
25,70.97
26,70.98
27,68.06
28,68.17
29,71.36
30,68.5
31,70.17
32,69.84
33,68.96
34,68.83
35,69.38
36,69.17
37,71.07
38,68.38
39,70.95
40,69.78
41,68.4
42,68.78
43,71.06
44,68.99
45,69.9
46,69.51
47,69.44
48,70.3
49,68.2
50,68.77
51,68.17
52,70.54
53,71.15
54,69.4
55,68.04
56,69.28
57,69.81
58,69.44
59,71.02
60,69.45
61,70.36
62,69.86
63,69.16
64,70.19
65,70.29
66,68.24
67,70.42
68,70.63
69,68.03
70,70.08
71,68.96
72,69.62
73,70.68
74,69.27
75,71.86
76,69.15
77,67.55
78,69.0
79,71.45
80,70.82
81,70.86
82,67.84
83,67.2
84,68.38
85,69.6
86,68.8
87,69.53
88,68.86
89,68.62
90,70.27
91,69.02
92,69.76
93,71.05
94,70.11
95,72.3
96,70.26
97,67.32
98,70.38
99,70.08
100,71.35
101,69.89
102,67.52
103,68.73
104,68.12
105,68.64
106,69.78
107,70.83
108,69.01
109,70.64
110,69.72
111,67.14
112,70.6
113,69.22
114,69.01
115,69.79
116,68.48
117,69.45
118,68.03
119,69.51
120,70.03
121,71.54
122,69.14
123,68.46
124,71.2
125,68.27
126,70.97
127,67.69
128,70.58
129,70.66
130,69.24
131,68.64
132,69.9
133,69.57
134,70.83
135,69.56
136,69.31
137,70.65
138,68.65
139,67.57
140,70.57
141,69.31
142,68.93
143,70.8
144,69.7
145,68.37
146,68.32
147,70.23
148,67.53
149,70.23
150,70.67
151,69.06
152,69.57
153,68.13
154,69.69
155,68.65
156,70.57
157,69.96
158,67.97
159,69.21
160,68.97
161,68.82
162,69.95
163,70.51
164,68.83
165,70.16
166,69.58
167,68.04
168,71.18
169,69.36
170,69.95
171,71.14
172,69.82
173,69.71
174,69.39
175,68.38
