1,88.04
2,70.07
3,66.39
4,69.76
5,68.31
6,66.77
7,67.21
8,68.79
9,69.35
10,70.92
11,69.69
12,67.72
13,66.3
14,70.35
15,68.58
16,70.21
17,68.76
18,70.23
19,68.73
20,67.44
21,69.08
22,68.42
23,69.39
24,69.73
25,67.44
26,66.18
27,67.78
28,69.97
29,70.06
30,70.74
31,67.83
32,68.15
33,68.27
34,67.21
35,67.83
36,67.24
37,69.33
38,69.52
39,68.84
40,65.32
41,67.27
42,69.4
43,69.71
44,69.32
45,66.38
46,69.29
47,70.53
48,66.77
49,66.87
50,68.77
51,69.68
52,68.32
53,68.95
54,67.75
55,68.09
56,69.47
57,70.51
58,68.26
59,69.0
60,67.03
61,69.15
62,68.58
63,70.46
64,68.9
65,68.9
66,69.05
67,69.0
68,67.16
69,68.03
70,68.41
71,70.2
72,68.6
73,70.69
74,68.09
75,68.92
76,67.7
77,67.78
78,66.58
79,69.94
80,68.57
81,70.08
82,68.09
83,69.77
84,67.5
85,69.46
86,69.65
87,68.45
88,66.11
89,68.91
90,66.71
91,67.89
92,71.1
93,68.68
94,68.89
95,70.62
96,69.1
97,68.44
98,68.56
99,68.58
100,68.4
101,69.42
102,67.13
103,68.03
104,68.71
105,68.98
106,66.15
107,67.25
108,68.77
109,71.46
110,68.02
111,66.37
112,67.51
113,69.24
114,68.09
115,70.38
116,66.59
117,69.11
118,68.73
119,68.7
120,69.26
121,67.79
122,69.76
123,69.96
124,69.2
125,68.89
126,68.77
127,70.86
128,69.03
129,69.75
130,66.47
131,65.53
132,68.45
133,69.41
134,68.85
135,68.45
136,68.48
137,70.04
138,68.75
139,65.01
140,69.59
141,69.24
142,69.27
143,68.14
144,66.51
145,65.78
146,67.0
147,69.35
148,67.83
149,66.47
150,68.49
151,70.12
152,71.22
153,66.83
154,69.82
155,70.55
156,70.77
157,69.97
158,66.98
159,65.33
160,66.83
161,67.75
162,67.19
163,66.6
164,67.94
165,69.2
166,70.39
167,68.65
168,68.76
169,68.76
170,69.75
171,69.27
172,69.05
173,66.31
174,68.27
175,65.95
176,68.04
177,70.16
178,68.31
179,68.76
180,69.96
181,67.13
182,67.44
183,71.55
184,70.12
185,68.78
186,71.04
187,66.93
188,69.27
189,67.08
190,67.63
191,66.37
192,67.81
193,67.76
194,70.44
195,70.03
196,68.55
197,69.28
198,70.81
199,68.96
200,69.85
201,67.17
202,68.89
203,68.77
204,69.65
205,70.61
206,68.77
207,67.98
208,69.93
209,70.26
210,68.05
211,70.74
212,69.7
213,67.15
214,70.93
215,69.57
216,70.14
217,70.71
218,69.76
219,70.27
220,71.51
221,68.79
222,69.03
223,69.18
224,69.51
225,69.63
226,69.4
227,69.46
228,71.38
229,69.43
230,69.72
231,70.5
232,68.79
233,70.63
234,70.0
235,69.48
236,69.99
237,69.51
238,67.69
239,69.86
240,69.1
241,68.63
242,70.87
243,68.74
244,69.55
245,69.84
246,69.39
247,70.29
248,70.56
249,69.2
250,69.9
251,69.07
252,69.82
253,70.51
254,69.52
255,70.17
256,70.63
257,69.65
258,69.73
259,71.18
260,68.71
261,70.7
262,71.52
263,69.9
264,70.63
265,68.76
266,69.92
267,70.02
268,69.34
269,69.77
270,70.52
271,68.63
272,69.99
273,69.71
274,68.0
275,67.48
276,68.73
277,69.67
278,70.19
279,68.44
280,69.52
281,70.32
282,69.96
283,70.08
284,69.33
285,68.48
286,70.46
287,69.85
288,67.7
289,67.45
290,70.36
291,69.45
292,70.07
293,67.24
294,68.23
295,69.75
296,70.02
297,69.67
298,68.99
299,67.77
300,69.67
301,69.32
302,69.57
303,65.66
304,69.28
305,68.7
306,68.51
307,66.55
308,68.35
309,68.9
310,68.8
311,71.16
312,68.86
313,68.73
314,70.05
315,70.55
316,69.03
317,68.99
318,69.7
319,68.89
320,71.01
321,68.38
322,68.55
323,69.15
324,69.76
325,69.21
326,70.24
327,69.96
328,69.51
329,69.37
330,68.76
331,69.34
332,69.08
333,68.39
334,71.12
335,69.87
336,69.44
337,71.47
338,69.74
339,71.22
340,72.78
341,69.32
342,70.88
343,72.21
344,70.87
345,70.83
346,69.1
347,67.7
348,68.71
349,66.15
350,68.49
