1,88.98
2,69.75
3,68.69
4,69.33
5,70.44
6,69.14
7,69.94
8,69.67
9,72.08
10,68.24
11,71.09
12,69.97
13,71.42
14,69.5
15,69.74
16,69.58
17,69.96
18,70.0
19,69.92
20,70.69
21,70.34
22,69.93
23,70.88
24,71.19
25,70.5
26,69.61
27,71.29
28,70.84
29,68.53
30,68.9
31,68.69
32,68.3
33,69.6
34,68.89
35,68.82
36,69.91
37,69.26
38,70.43
39,69.41
40,69.53
41,69.53
42,68.93
43,68.82
44,69.26
45,69.85
46,68.62
47,68.56
48,68.38
49,67.86
50,73.83
51,70.5
52,70.87
53,69.81
54,68.93
55,68.2
56,68.07
57,68.05
58,69.31
59,68.63
60,67.62
61,68.64
62,68.71
63,69.57
64,69.79
65,67.57
66,69.69
67,70.34
68,71.52
69,69.01
70,70.21
71,71.69
72,70.56
73,69.64
74,68.87
75,68.49
76,69.42
77,70.49
78,72.42
79,70.58
80,69.29
81,70.02
82,71.36
83,71.1
84,70.24
85,68.57
86,68.89
87,67.47
88,69.46
89,69.82
90,67.57
91,68.87
92,70.6
93,70.18
94,70.8
95,72.64
96,68.72
97,69.33
98,69.05
99,67.79
100,69.76
101,69.31
102,69.36
103,68.63
104,68.33
105,69.91
106,70.48
107,69.75
108,69.82
109,70.24
110,69.73
111,70.28
112,71.16
113,70.47
114,70.26
115,68.61
116,69.95
117,69.93
118,69.63
119,71.27
120,70.63
121,70.09
122,70.49
123,71.73
124,68.73
125,71.28
126,69.12
127,67.92
128,70.14
129,69.76
130,70.2
131,68.41
132,68.73
133,69.46
134,70.21
135,67.4
136,69.3
137,69.7
138,67.78
139,70.6
140,67.85
141,69.57
142,68.92
143,67.88
144,68.32
145,69.46
146,68.8
147,69.96
148,71.63
149,69.92
150,70.44
151,70.58
152,69.38
153,69.76
154,69.14
155,70.53
156,68.63
157,68.75
158,68.89
159,69.08
160,69.84
161,69.65
162,69.6
163,69.38
164,70.75
165,71.03
166,71.11
167,70.82
168,68.57
169,70.7
170,69.65
171,69.6
172,69.64
173,68.06
174,67.66
175,71.06
176,71.42
177,70.1
178,69.25
179,69.45
180,70.73
181,70.18
182,67.64
183,68.31
184,70.38
185,68.71
186,71.17
187,68.78
188,68.18
189,70.23
190,68.96
191,69.94
192,68.1
193,69.06
194,69.26
195,69.64
196,69.84
197,70.36
198,67.42
199,68.38
200,69.32
201,69.28
202,68.99
203,70.82
204,68.76
205,71.77
206,70.65
207,70.67
208,70.43
209,69.82
210,70.35
211,69.67
212,70.44
213,70.08
214,68.13
215,70.2
216,70.71
217,70.24
218,69.15
219,70.82
220,69.3
221,69.32
222,70.45
223,69.46
224,68.62
225,69.98
226,68.03
227,69.03
228,69.32
229,69.12
230,69.45
231,70.62
232,69.68
233,72.05
234,70.7
235,69.75
236,70.56
237,71.56
238,70.93
239,71.22
240,69.78
241,69.55
242,69.12
243,68.32
244,69.94
245,70.82
246,69.17
247,70.19
248,70.94
249,69.36
250,69.29
251,68.42
252,68.9
253,70.12
254,69.76
255,70.26
256,69.43
257,68.96
258,70.2
259,70.89
260,69.23
261,71.0
262,69.28
263,69.34
264,69.6
265,69.23
266,69.21
267,69.28
268,68.39
269,68.47
270,68.8
271,70.21
272,70.21
273,70.03
274,68.67
275,71.18
276,69.45
277,69.79
278,68.97
279,67.72
280,69.22
281,70.05
282,68.89
283,69.35
284,68.49
285,70.12
286,70.72
287,70.67
288,70.6
289,68.61
290,71.34
291,69.64
292,69.05
293,68.97
294,69.61
295,69.23
296,69.64
297,69.64
298,68.68
299,68.61
300,70.45
301,69.35
302,69.52
303,68.87
304,69.93
305,69.36
306,68.19
307,68.48
308,69.38
309,69.47
310,69.18
311,69.38
312,69.13
313,69.13
314,72.16
315,69.76
316,68.89
317,69.87
318,69.97
319,70.3
320,68.94
321,68.17
322,71.18
323,66.93
324,68.15
325,69.55
326,68.9
327,67.12
328,69.85
329,67.97
330,71.21
331,68.26
332,69.01
333,70.31
334,67.36
335,67.03
336,68.92
337,68.44
338,66.51
339,66.62
340,68.0
341,67.09
342,69.03
343,68.89
344,69.34
345,68.96
346,68.91
347,69.5
348,68.97
349,68.69
350,68.74
351,69.0
352,68.47
353,69.13
354,68.85
355,68.46
356,70.05
357,69.73
358,69.23
359,70.59
360,69.29
361,70.66
362,69.47
363,68.34
364,70.12
365,69.94
366,69.12
367,69.59
368,69.53
369,69.35
370,70.98
371,70.8
372,68.62
373,69.41
374,69.14
375,68.27
376,70.1
377,67.64
378,68.22
379,68.74
380,67.98
381,67.88
382,67.65
383,68.8
384,70.08
385,69.32
386,68.37
387,70.46
388,69.98
389,70.93
390,70.37
391,68.53
392,70.83
393,71.41
394,68.13
395,73.04
396,68.5
397,68.54
398,70.05
399,71.28
400,70.68
401,70.37
402,68.91
403,70.1
404,68.75
405,68.2
406,69.05
407,67.79
408,67.64
409,68.65
410,69.25
411,70.29
412,71.49
413,68.99
414,69.79
415,70.75
416,70.18
417,70.39
418,68.98
419,70.09
420,68.84
421,68.91
422,69.14
423,70.3
424,68.84
425,68.6
426,70.6
427,69.77
428,69.83
429,70.94
430,70.81
431,69.96
432,69.91
433,69.74
434,70.08
435,70.02
436,70.19
437,70.67
438,69.71
439,68.49
440,68.88
441,69.07
442,70.64
443,70.84
444,69.76
445,69.41
446,69.39
447,69.51
448,69.56
449,70.25
450,69.46
451,70.55
452,68.89
453,70.43
454,70.05
455,70.18
456,70.21
457,69.79
458,69.17
459,69.83
460,69.72
461,68.73
462,70.07
463,68.91
464,68.29
465,69.91
466,69.55
467,70.14
468,70.27
469,70.34
470,70.3
471,69.69
472,68.77
473,69.38
474,69.44
475,68.7
476,69.12
477,68.73
478,68.44
479,69.74
480,69.09
481,69.91
482,70.52
483,68.88
484,71.01
485,68.27
486,68.16
487,68.2
488,69.86
489,67.72
490,69.0
491,69.31
492,68.37
493,69.03
494,68.61
495,69.75
496,70.26
497,69.34
498,71.05
499,68.89
500,68.44
501,68.08
502,68.94
503,68.95
504,69.94
505,69.77
506,69.77
507,67.54
508,67.88
509,68.68
510,71.12
511,70.19
512,68.3
513,67.78
514,67.26
515,67.35
516,67.24
517,69.11
518,67.12
519,69.65
520,66.58
521,68.84
522,67.27
523,69.26
524,71.35
525,68.95
526,70.6
527,69.42
528,68.79
529,69.94
530,69.67
531,69.05
532,69.5
533,70.08
534,68.45
535,68.8
536,68.67
537,68.96
538,70.53
539,70.37
540,70.12
541,70.27
542,71.77
543,70.67
544,68.71
545,68.53
546,72.03
547,70.85
548,70.72
549,69.18
550,70.17
551,71.32
552,70.82
553,68.39
554,71.59
555,70.38
556,68.55
557,70.41
558,68.48
559,69.22
560,70.84
561,68.09
562,69.15
563,68.64
564,68.67
565,70.51
566,70.12
567,72.05
568,70.23
569,69.85
570,68.32
571,69.5
572,69.0
573,67.82
574,68.88
575,68.48
576,69.28
577,68.62
578,67.84
579,70.28
580,70.43
581,68.44
582,70.7
583,70.67
584,68.69
585,69.68
586,69.77
587,69.37
588,69.97
589,69.34
590,70.47
591,70.39
592,68.93
593,70.69
594,70.18
595,70.38
596,69.55
597,71.09
598,68.42
599,69.48
600,68.8
601,69.55
602,68.62
603,68.85
604,68.82
605,68.52
606,68.21
607,71.14
608,71.34
609,70.82
610,69.17
611,71.24
612,68.66
613,71.62
614,68.1
615,68.48
616,69.38
617,67.62
618,67.19
619,69.53
620,69.79
621,69.32
622,70.19
623,70.46
624,71.61
625,68.9
626,67.73
627,69.08
628,67.47
629,68.38
630,67.93
631,68.0
632,69.45
633,69.3
634,69.92
635,71.27
636,71.11
637,69.46
638,70.98
639,69.66
640,69.1
641,72.47
642,67.93
643,68.25
644,68.51
645,68.41
646,67.76
647,68.54
648,69.62
649,69.79
650,68.74
651,68.27
652,72.53
653,69.72
654,69.75
655,69.97
656,69.07
657,70.33
658,69.01
659,67.99
660,69.69
661,69.8
662,69.06
663,72.12
664,70.67
665,68.93
666,71.74
667,68.91
668,70.47
669,68.96
670,69.22
671,67.4
672,68.78
673,67.73
674,68.16
675,69.1
676,70.11
677,70.26
678,71.55
679,68.26
680,70.82
681,70.92
682,70.0
683,69.3
684,67.49
685,70.26
686,71.28
687,69.49
688,69.72
689,70.52
690,71.58
691,71.02
692,70.22
693,70.1
694,71.39
695,71.62
696,70.07
697,69.1
698,67.41
699,69.16
700,69.95
701,68.19
702,71.03
703,67.3
704,67.67
705,71.87
706,70.36
707,70.58
708,69.26
709,70.37
710,70.6
711,69.19
712,68.46
713,68.45
714,70.13
715,69.79
716,68.87
717,69.31
718,69.38
719,71.38
720,69.9
721,72.32
722,70.17
723,70.12
724,70.82
725,69.49
726,70.15
727,69.89
728,70.29
729,70.45
730,70.25
731,71.56
732,68.98
733,70.45
734,71.76
735,71.21
736,70.77
737,69.71
738,69.39
739,70.08
740,68.06
741,67.81
742,69.59
743,69.06
744,69.44
745,70.3
746,71.73
747,70.98
748,70.17
749,69.54
750,69.05
751,68.75
752,68.8
753,69.23
754,67.88
755,70.04
756,68.29
757,68.24
758,68.56
759,69.15
760,69.87
761,71.24
762,69.74
763,69.73
764,69.01
765,68.52
766,68.29
767,70.99
768,67.58
769,69.98
770,70.72
771,67.83
772,69.6
773,69.88
774,72.1
775,71.5
776,70.77
777,71.07
778,70.96
779,69.69
780,69.64
781,69.18
782,70.4
783,71.56
784,69.66
785,69.12
786,69.08
787,69.21
788,71.69
789,67.86
790,70.36
791,69.6
792,70.31
793,70.12
794,70.19
795,69.28
796,70.07
797,69.44
798,68.84
799,70.29
800,69.79
801,68.84
802,69.69
803,71.12
804,71.58
805,70.93
806,69.48
807,70.29
808,68.75
809,68.21
810,70.32
811,67.9
812,68.13
813,69.49
814,69.08
815,69.78
816,70.65
817,68.61
818,71.92
819,71.13
820,69.39
821,69.92
822,68.22
823,69.69
824,69.72
825,69.1
826,68.36
827,69.7
828,67.99
829,68.36
830,68.66
831,70.18
832,70.65
833,70.38
834,68.32
835,69.79
836,69.71
837,68.04
838,68.52
839,69.18
840,68.46
841,69.61
842,68.59
843,67.93
844,70.55
845,69.81
846,69.7
847,71.34
848,68.96
849,69.43
850,69.04
851,68.44
852,68.86
853,68.25
854,68.07
855,68.12
856,69.3
857,69.68
858,69.97
859,69.58
860,67.96
861,68.97
862,69.43
863,69.45
864,71.59
865,68.35
866,69.46
867,68.64
868,68.39
869,70.09
870,70.08
871,69.23
872,71.04
873,69.88
874,69.69
875,70.74
876,69.63
877,69.38
878,69.86
879,68.46
880,69.93
881,69.27
882,68.85
883,69.42
884,69.73
885,69.75
886,70.71
887,70.78
888,70.7
889,70.5
890,69.76
891,70.3
892,70.63
893,68.98
894,69.48
895,69.5
896,68.46
897,69.57
898,69.79
899,70.23
900,71.05
901,70.82
902,70.88
903,70.58
904,69.85
905,69.4
906,69.52
907,68.47
908,69.32
909,70.49
910,67.23
911,68.9
912,70.55
913,69.4
914,69.63
915,67.27
916,71.17
917,69.55
918,69.93
919,69.28
920,67.42
921,68.72
922,68.58
923,67.89
924,68.08
925,68.22
926,68.81
927,68.29
928,69.11
929,69.79
930,69.95
931,71.3
932,68.76
933,69.08
934,69.51
935,69.47
936,69.42
937,69.77
938,69.27
939,69.19
940,70.56
941,70.43
942,70.57
943,68.34
944,69.04
945,69.66
946,69.1
947,68.97
948,70.85
949,69.79
950,69.44
951,68.65
952,69.27
953,67.7
954,69.33
955,68.01
956,68.84
957,69.39
958,69.9
959,69.69
960,69.55
961,68.78
962,69.26
963,67.31
964,69.18
965,68.61
966,70.2
967,68.85
968,68.61
969,68.25
970,70.03
971,70.79
972,71.59
973,70.33
974,70.3
975,69.44
976,70.04
977,67.77
978,69.06
979,69.93
980,68.87
981,67.72
982,69.39
983,69.47
984,70.03
985,69.73
986,71.5
987,71.67
988,69.38
989,69.88
990,71.16
991,68.84
992,70.39
993,70.15
994,69.73
995,68.83
996,68.84
997,69.82
998,70.65
999,69.55
1000,70.6
1001,68.38
1002,69.14
1003,68.66
1004,68.82
1005,68.95
1006,69.28
1007,71.26
1008,68.85
1009,70.03
1010,69.57
1011,69.94
1012,69.69
1013,68.46
1014,71.41
1015,70.28
1016,70.55
1017,68.59
1018,70.56
1019,70.93
1020,71.36
1021,69.61
1022,69.77
1023,69.62
1024,67.91
1025,70.93
1026,70.11
1027,70.3
1028,69.67
1029,69.87
1030,68.07
1031,68.83
1032,69.72
1033,68.69
1034,68.63
1035,70.47
1036,69.14
1037,69.69
1038,68.04
1039,69.83
1040,70.23
1041,69.04
1042,69.73
1043,69.6
1044,68.38
1045,68.03
1046,69.33
1047,68.44
1048,68.62
1049,69.25
1050,68.92
