1,86.99
2,70.6
3,68.37
4,70.13
5,70.79
6,69.19
7,67.67
8,68.96
9,70.83
10,70.0
11,73.0
12,69.12
13,69.75
14,71.04
15,70.84
16,70.08
17,69.24
18,68.77
19,71.33
20,70.73
21,69.97
22,71.19
23,69.83
24,69.71
25,71.09
26,68.93
27,72.28
28,71.04
29,70.71
30,71.57
31,70.33
32,68.04
33,71.7
34,69.12
35,69.81
36,70.51
37,70.51
38,70.79
39,68.86
40,68.41
41,71.56
42,70.38
43,69.34
44,71.72
45,69.5
46,69.65
47,68.81
48,67.14
49,69.33
50,70.56
51,69.23
52,69.47
53,69.52
54,68.43
55,69.23
56,70.31
57,69.07
58,72.8
59,69.03
60,70.12
61,71.54
62,68.56
63,69.37
64,68.92
65,68.68
66,69.83
67,69.7
68,68.52
69,69.44
70,68.39
71,69.48
72,70.33
73,71.29
74,70.47
75,68.62
76,69.44
77,70.35
78,68.65
79,70.27
80,72.34
81,68.97
82,70.02
83,70.9
84,68.66
85,69.37
86,70.59
87,70.93
88,71.03
89,69.12
90,68.38
91,69.57
92,69.97
93,68.48
94,71.04
95,68.02
96,67.96
97,70.29
98,69.76
99,69.66
100,70.42
101,69.42
102,70.32
103,69.14
104,67.26
105,70.04
