bandwidth,width,skip,quant,accuracy
238.0653192,1920,0,0,1.0
71.5548872,1920,0,10,0.9451124460333591
15.939121333333333,1920,0,20,0.8720058402631625
2.377087733333333,1920,0,30,0.8063035270663765
0.53062,1920,0,40,0.6892850979028886
0.14601973333333332,1920,0,50,0.15592739671339514
85.4252448,1920,2,0,0.9288338546222732
40.728295466666665,1920,2,10,0.9127532136020999
11.482379199999999,1920,2,20,0.8803705194096441
2.0772922666666664,1920,2,30,0.8233278969416202
0.49104666666666663,1920,2,40,0.7552318641679996
0.13440773333333333,1920,2,50,0.3456123333252832
43.29078,1920,5,0,0.8912430402730664
25.294397866666667,1920,5,10,0.8845458363835907
8.4219752,1920,5,20,0.873165595743175
1.8302047999999997,1920,5,30,0.8142351045366405
0.4228578666666667,1920,5,40,0.7603981920054721
0.11830213333333334,1920,5,50,0.4868112965762747
26.2893064,1920,9,0,0.8621793552388145
18.2004344,1920,9,10,0.8588985940021059
6.225591466666667,1920,9,20,0.8569571610120164
1.4732184,1920,9,30,0.7921679371718127
0.3793090666666667,1920,9,40,0.7572249878557133
0.10393466666666668,1920,9,50,0.5046523474561109
17.472814133333337,1920,14,0,0.842731119313967
13.527897066666668,1920,14,10,0.8352348411965915
5.112210133333334,1920,14,20,0.8347725856227841
1.2853149333333334,1920,14,30,0.7912010896867248
0.33218933333333334,1920,14,40,0.747297494054399
0.09662906666666667,1920,14,50,0.5830863130296736
8.691858666666667,1920,29,0,0.7637901645976475
7.937109866666667,1920,29,10,0.7561918753411666
3.2166314666666667,1920,29,20,0.7540796825574614
0.9886642666666667,1920,29,30,0.7239898286434302
0.2733469333333334,1920,29,40,0.6915734673254001
0.08219706666666667,1920,29,50,0.5811412291220295
199.9305058666667,1600,0,0,0.8591863267862594
52.292328,1600,0,10,0.8535586468493421
10.568625333333333,1600,0,20,0.8397167835654565
1.8135143999999999,1600,0,30,0.7610775930556541
0.43179706666666673,1600,0,40,0.6683594829033773
0.12137146666666666,1600,0,50,0.16201681781500787
70.29347146666666,1600,2,0,0.8427269919181368
29.932913066666664,1600,2,10,0.8433503420469559
7.246892533333333,1600,2,20,0.835311122570993
1.4583901333333331,1600,2,30,0.8001355968033868
0.38265493333333334,1600,2,40,0.7219668076980389
0.10498933333333334,1600,2,50,0.2670336722506144
35.560722133333336,1600,5,0,0.8284643359706192
18.7515504,1600,5,10,0.8299043045989214
5.551883466666667,1600,5,20,0.8249397583418594
1.2743032,1600,5,30,0.785747528626436
0.3297685333333333,1600,5,40,0.7433800206269352
0.09284293333333334,1600,5,50,0.43780702070861455
21.5629008,1600,9,0,0.8136191303482987
13.6169824,1600,9,10,0.8092307880239449
4.248831466666666,1600,9,20,0.8042481791304312
1.0304885333333333,1600,9,30,0.7892277138407919
0.29341760000000006,1600,9,40,0.7302525232982024
0.08160053333333334,1600,9,50,0.5034882387155386
14.349736799999999,1600,14,0,0.7964614765170508
10.197394666666666,1600,14,10,0.7961320566732555
3.535255733333333,1600,14,20,0.7899465899356382
0.8852909333333334,1600,14,30,0.7780389088024733
0.2543,1600,14,40,0.7075424181365657
0.07494506666666667,1600,14,50,0.5647611352111497
7.147996800000001,1600,29,0,0.7263258607513955
6.040485866666667,1600,29,10,0.7233178172755149
2.280350933333333,1600,29,20,0.7254266611399833
0.6780208,1600,29,30,0.7165725196443915
0.2050592,1600,29,40,0.6651430694438816
0.063304,1600,29,50,0.5304469306583093
135.72935626666668,1280,0,0,0.8350347138048562
36.332775733333335,1280,0,10,0.8327997954409994
7.3761290666666675,1280,0,20,0.8214939513417843
1.4059837333333334,1280,0,30,0.7785471812425862
0.3338632,1280,0,40,0.6540460512712025
0.08895439999999999,1280,0,50,0.06912127776964017
48.33647786666667,1280,2,0,0.8248766879434062
20.657984266666666,1280,2,10,0.8271641134004308
4.965418933333333,1280,2,20,0.816614928905757
1.0950976,1280,2,30,0.7773016609939675
0.29530826666666665,1280,2,40,0.684512928879327
0.07666106666666667,1280,2,50,0.18410231975716346
24.5332224,1280,5,0,0.8151535782175088
12.878056,1280,5,10,0.81783080646333
3.7843834666666663,1280,5,20,0.8099136058439194
0.9155890666666666,1280,5,30,0.7776307274261655
0.24906319999999998,1280,5,40,0.7184530872629967
0.06721813333333333,1280,5,50,0.30752079026292223
14.865457600000001,1280,9,0,0.8019648731060377
9.400370400000002,1280,9,10,0.8023663784218218
2.9315037333333334,1280,9,20,0.7960612209449618
0.7492573333333333,1280,9,30,0.7825994106132068
0.2225552,1280,9,40,0.7305597942142015
0.06000080000000001,1280,9,50,0.3845517328953989
9.904967466666667,1280,14,0,0.774596668996238
6.964305333333334,1280,14,10,0.7775643903719301
2.4522885333333333,1280,14,20,0.7762001598924049
0.6349221333333334,1280,14,30,0.7620639741675544
0.19127093333333334,1280,14,40,0.7119660524418183
0.055199733333333334,1280,14,50,0.44011078438726725
4.934631466666667,1280,29,0,0.7194030483027072
4.168384266666666,1280,29,10,0.7203595230848666
1.5778504,1280,29,20,0.7182537758576519
0.4829704,1280,29,30,0.7065553229561323
0.15213253333333335,1280,29,40,0.6724138752981099
0.04621413333333333,1280,29,50,0.47610607356985846
81.02484026666667,960,0,0,0.6959304999190281
21.32001466666667,960,0,10,0.6869227582253592
4.671388,960,0,20,0.6953239874433016
1.0194056,960,0,30,0.6708956591180081
0.23615173333333334,960,0,40,0.531113189082926
0.060310133333333335,960,0,50,0.020780510704754666
29.94574826666667,960,2,0,0.6950859013852223
12.014875466666666,960,2,10,0.6851556205848247
3.1482768,960,2,20,0.694490199165765
0.7591381333333332,960,2,30,0.6803998439255204
0.209112,960,2,40,0.565210117115613
0.051652,960,2,50,0.10298954554700901
15.355828799999998,960,5,0,0.689791121380913
7.531316,960,5,10,0.682777781762071
2.3725896,960,5,20,0.679371740764109
0.6140823999999999,960,5,30,0.6773133394878923
0.17372133333333334,960,5,40,0.5832914268218773
0.0443136,960,5,50,0.19092911133164187
9.338964533333334,960,9,0,0.680192141539115
5.494662133333334,960,9,10,0.677004614825225
1.8292482666666665,960,9,20,0.6739412293158666
0.5045893333333333,960,9,30,0.684520130292481
0.15311039999999998,960,9,40,0.6041688126475765
0.0400408,960,9,50,0.23152163804223116
6.230508266666666,960,14,0,0.6669852796660279
4.0994399999999995,960,14,10,0.6698106567158746
1.5347928,960,14,20,0.6650413692129995
0.42902986666666665,960,14,30,0.6800729646068053
0.13245653333333335,960,14,40,0.6080282615660888
0.0372344,960,14,50,0.2831616146617247
3.1106648000000003,960,29,0,0.6117550913567404
2.4278296000000004,960,29,10,0.613763636018683
0.9856706666666666,960,29,20,0.6083825613215258
0.3176344,960,29,30,0.608865909329595
0.10229893333333334,960,29,40,0.5597976785086439
0.030614666666666665,960,29,50,0.32329683952193344
42.5337216,640,0,0,0.0862877359287986
12.552946133333332,640,0,10,0.0784920824568601
3.0559786666666664,640,0,20,0.08841361806182707
0.7209986666666668,640,0,30,0.11741640945692516
0.15319733333333332,640,0,40,0.058268626177459135
0.0353432,640,0,50,-1.797693134862316e308
16.293702666666665,640,2,0,0.08448201762338123
7.010704,640,2,10,0.08226145100148802
1.9859925333333333,640,2,20,0.08558967442015275
0.5237034666666667,640,2,30,0.12253564570473252
0.13929466666666665,640,2,40,0.0663220725195935
0.029963999999999998,640,2,50,-1.797693134862316e308
8.47166,640,5,0,0.08340607307217504
4.323751466666667,640,5,10,0.08304532283688348
1.3967416,640,5,20,0.0901245712804604
0.4024565333333333,640,5,30,0.12204120128432056
0.11211946666666667,640,5,40,0.0830978821192433
0.025453066666666666,640,5,50,-1.797693134862316e308
5.157929333333334,640,9,0,0.08647827069439178
3.0742445333333333,640,9,10,0.08516805683129075
1.0496626666666666,640,9,20,0.08200002026052042
0.3241352,640,9,30,0.1131822943033987
0.09705013333333333,640,9,40,0.08467727727050146
0.022724266666666666,640,9,50,-1.797693134862316e308
3.4471831999999996,640,14,0,0.08771605567259447
2.2693810666666665,640,14,10,0.08238222734067488
0.8488872000000001,640,14,20,0.08181387200439008
0.2639746666666667,640,14,30,0.11179948263857442
0.08308586666666667,640,14,40,0.08555879616738445
0.020520533333333334,640,14,50,-1.797693134862316e308
1.7260298666666665,640,29,0,0.07544425367064367
1.3610578666666666,640,29,10,0.07478630395149317
0.5525589333333333,640,29,20,0.07083277858125947
0.19485386666666665,640,29,30,0.09229742057193246
0.06465973333333334,640,29,40,0.08427779797050637
0.018136,640,29,50,-1.797693134862316e308
11.795616533333334,320,0,0,-1.797693134862316e308
3.7555671999999998,320,0,10,-1.797693134862316e308
0.9373386666666668,320,0,20,-1.797693134862316e308
0.29476240000000004,320,0,30,-1.797693134862316e308
0.0633424,320,0,40,-1.797693134862316e308
0.0,320,0,50,0.0
0.0,320,2,0,0.0
0.0,320,2,10,0.0
0.0,320,2,20,0.0
0.0,320,2,30,0.0
0.0,320,2,40,0.0
0.0,320,2,50,0.0
0.0,320,5,0,0.0
0.0,320,5,10,0.0
0.0,320,5,20,0.0
0.0,320,5,30,0.0
0.0,320,5,40,0.0
0.0,320,5,50,0.0
0.0,320,9,0,0.0
0.0,320,9,10,0.0
0.0,320,9,20,0.0
0.0,320,9,30,0.0
0.0,320,9,40,0.0
0.0,320,9,50,0.0
0.0,320,14,0,0.0
0.0,320,14,10,0.0
0.0,320,14,20,0.0
0.0,320,14,30,0.0
0.0,320,14,40,0.0
0.0,320,14,50,0.0
0.0,320,29,0,0.0
0.0,320,29,10,0.0
0.0,320,29,20,0.0
0.0,320,29,30,0.0
0.0,320,29,40,0.0
0.0,320,29,50,0.0
